C:\Users\tiaza\Documents\ENSG\ING3\OPENGL\PerfectOpenGl\Window\x64\Debug\glfw3.dll
C:\Users\tiaza\Documents\ENSG\ING3\OPENGL\PerfectOpenGl\Window\x64\Debug\glfw3.dll
C:\Users\tiaza\Documents\ENSG\ING3\OPENGL\PerfectOpenGl\Window\x64\Debug\glfw3.dll
C:\Users\tiaza\Documents\ENSG\ING3\OPENGL\PerfectOpenGl\Window\x64\Debug\glfw3.dll
C:\Users\tiaza\Documents\ENSG\ING3\OPENGL\PerfectOpenGl\Window\x64\Debug\glfw3.dll
C:\Users\tiaza\Documents\ENSG\ING3\OPENGL\PerfectOpenGl\Window\x64\Debug\glfw3.dll
C:\Users\tiaza\Documents\ENSG\ING3\OPENGL\PerfectOpenGl\Window\x64\Debug\glfw3.dll
C:\Users\tiaza\Documents\ENSG\ING3\OPENGL\PerfectOpenGl\Window\x64\Debug\glfw3.dll
C:\Users\tiaza\Documents\ENSG\ING3\OPENGL\PerfectOpenGl\Window\x64\Debug\glfw3.dll
C:\Users\tiaza\Documents\ENSG\ING3\OPENGL\PerfectOpenGl\Window\x64\Debug\glfw3.dll
C:\Users\tiaza\Documents\ENSG\ING3\OPENGL\PerfectOpenGl\Window\x64\Debug\glfw3.dll
C:\Users\tiaza\Documents\ENSG\ING3\OPENGL\PerfectOpenGl\Window\x64\Debug\glfw3.dll
C:\Users\tiaza\Documents\ENSG\ING3\OPENGL\PerfectOpenGl\Window\x64\Debug\glfw3.dll
C:\Users\tiaza\Documents\ENSG\ING3\OPENGL\PerfectOpenGl\Window\x64\Debug\glfw3.dll
C:\Users\tiaza\Documents\ENSG\ING3\OPENGL\PerfectOpenGl\Window\x64\Debug\glfw3.dll
