^C:\USERS\TIAZA\DOCUMENTS\ENSG\ING3\OPENGL\PERFECTOPENGL\7-TEXTURE\7-TEXTURE\CAMERA.CPP|C:\USERS\TIAZA\DOCUMENTS\ENSG\ING3\OPENGL\PERFECTOPENGL\7-TEXTURE\7-TEXTURE\CONTROLS.CPP|C:\USERS\TIAZA\DOCUMENTS\ENSG\ING3\OPENGL\PERFECTOPENGL\7-TEXTURE\7-TEXTURE\FPSCONTROLS.CPP|C:\USERS\TIAZA\DOCUMENTS\ENSG\ING3\OPENGL\PERFECTOPENGL\7-TEXTURE\7-TEXTURE\MAIN.CPP|C:\USERS\TIAZA\DOCUMENTS\ENSG\ING3\OPENGL\PERFECTOPENGL\7-TEXTURE\7-TEXTURE\OPENGLWINDOW.CPP|C:\USERS\TIAZA\DOCUMENTS\ENSG\ING3\OPENGL\PERFECTOPENGL\7-TEXTURE\7-TEXTURE\SHADER.CPP|C:\USERS\TIAZA\DOCUMENTS\ENSG\ING3\OPENGL\PERFECTOPENGL\7-TEXTURE\7-TEXTURE\SIMPLESTATICSHAPE.CPP|C:\USERS\TIAZA\DOCUMENTS\ENSG\ING3\OPENGL\PERFECTOPENGL\7-TEXTURE\7-TEXTURE\TEXTURE.CPP|C:\USERS\TIAZA\DOCUMENTS\ENSG\ING3\OPENGL\PERFECTOPENGL\7-TEXTURE\7-TEXTURE\VERTEXARRAY.CPP|C:\USERS\TIAZA\DOCUMENTS\ENSG\ING3\OPENGL\PERFECTOPENGL\7-TEXTURE\7-TEXTURE\VERTEXBUFFER.CPP
C:\USERS\TIAZA\DOCUMENTS\ENSG\ING3\OPENGL\PERFECTOPENGL\7-TEXTURE\7-TEXTURE\X64\RELEASE\VC143.PDB
C:\USERS\TIAZA\DOCUMENTS\ENSG\ING3\OPENGL\PERFECTOPENGL\7-TEXTURE\7-TEXTURE\X64\RELEASE\VERTEXBUFFER.OBJ
C:\USERS\TIAZA\DOCUMENTS\ENSG\ING3\OPENGL\PERFECTOPENGL\7-TEXTURE\7-TEXTURE\X64\RELEASE\VERTEXARRAY.OBJ
C:\USERS\TIAZA\DOCUMENTS\ENSG\ING3\OPENGL\PERFECTOPENGL\7-TEXTURE\7-TEXTURE\X64\RELEASE\TEXTURE.OBJ
C:\USERS\TIAZA\DOCUMENTS\ENSG\ING3\OPENGL\PERFECTOPENGL\7-TEXTURE\7-TEXTURE\X64\RELEASE\SIMPLESTATICSHAPE.OBJ
C:\USERS\TIAZA\DOCUMENTS\ENSG\ING3\OPENGL\PERFECTOPENGL\7-TEXTURE\7-TEXTURE\X64\RELEASE\SHADER.OBJ
C:\USERS\TIAZA\DOCUMENTS\ENSG\ING3\OPENGL\PERFECTOPENGL\7-TEXTURE\7-TEXTURE\X64\RELEASE\OPENGLWINDOW.OBJ
C:\USERS\TIAZA\DOCUMENTS\ENSG\ING3\OPENGL\PERFECTOPENGL\7-TEXTURE\7-TEXTURE\X64\RELEASE\MAIN.OBJ
C:\USERS\TIAZA\DOCUMENTS\ENSG\ING3\OPENGL\PERFECTOPENGL\7-TEXTURE\7-TEXTURE\X64\RELEASE\FPSCONTROLS.OBJ
C:\USERS\TIAZA\DOCUMENTS\ENSG\ING3\OPENGL\PERFECTOPENGL\7-TEXTURE\7-TEXTURE\X64\RELEASE\CONTROLS.OBJ
C:\USERS\TIAZA\DOCUMENTS\ENSG\ING3\OPENGL\PERFECTOPENGL\7-TEXTURE\7-TEXTURE\X64\RELEASE\CAMERA.OBJ
^C:\USERS\TIAZA\DOCUMENTS\ENSG\ING3\OPENGL\PERFECTOPENGL\7-TEXTURE\7-TEXTURE\CAMERA.CPP
C:\USERS\TIAZA\DOCUMENTS\ENSG\ING3\OPENGL\PERFECTOPENGL\7-TEXTURE\7-TEXTURE\X64\RELEASE\VC143.PDB
^C:\USERS\TIAZA\DOCUMENTS\ENSG\ING3\OPENGL\PERFECTOPENGL\7-TEXTURE\7-TEXTURE\CONTROLS.CPP
C:\USERS\TIAZA\DOCUMENTS\ENSG\ING3\OPENGL\PERFECTOPENGL\7-TEXTURE\7-TEXTURE\X64\RELEASE\VC143.PDB
^C:\USERS\TIAZA\DOCUMENTS\ENSG\ING3\OPENGL\PERFECTOPENGL\7-TEXTURE\7-TEXTURE\FPSCONTROLS.CPP
C:\USERS\TIAZA\DOCUMENTS\ENSG\ING3\OPENGL\PERFECTOPENGL\7-TEXTURE\7-TEXTURE\X64\RELEASE\VC143.PDB
^C:\USERS\TIAZA\DOCUMENTS\ENSG\ING3\OPENGL\PERFECTOPENGL\7-TEXTURE\7-TEXTURE\OPENGLWINDOW.CPP
C:\USERS\TIAZA\DOCUMENTS\ENSG\ING3\OPENGL\PERFECTOPENGL\7-TEXTURE\7-TEXTURE\X64\RELEASE\VC143.PDB
^C:\USERS\TIAZA\DOCUMENTS\ENSG\ING3\OPENGL\PERFECTOPENGL\7-TEXTURE\7-TEXTURE\SHADER.CPP
C:\USERS\TIAZA\DOCUMENTS\ENSG\ING3\OPENGL\PERFECTOPENGL\7-TEXTURE\7-TEXTURE\X64\RELEASE\VC143.PDB
^C:\USERS\TIAZA\DOCUMENTS\ENSG\ING3\OPENGL\PERFECTOPENGL\7-TEXTURE\7-TEXTURE\TEXTURE.CPP
C:\USERS\TIAZA\DOCUMENTS\ENSG\ING3\OPENGL\PERFECTOPENGL\7-TEXTURE\7-TEXTURE\X64\RELEASE\VC143.PDB
^C:\USERS\TIAZA\DOCUMENTS\ENSG\ING3\OPENGL\PERFECTOPENGL\7-TEXTURE\7-TEXTURE\VERTEXARRAY.CPP
C:\USERS\TIAZA\DOCUMENTS\ENSG\ING3\OPENGL\PERFECTOPENGL\7-TEXTURE\7-TEXTURE\X64\RELEASE\VC143.PDB
^C:\USERS\TIAZA\DOCUMENTS\ENSG\ING3\OPENGL\PERFECTOPENGL\7-TEXTURE\7-TEXTURE\VERTEXBUFFER.CPP
C:\USERS\TIAZA\DOCUMENTS\ENSG\ING3\OPENGL\PERFECTOPENGL\7-TEXTURE\7-TEXTURE\X64\RELEASE\VC143.PDB
^C:\USERS\TIAZA\DOCUMENTS\ENSG\ING3\OPENGL\PERFECTOPENGL\7-TEXTURE\7-TEXTURE\MAIN.CPP|C:\USERS\TIAZA\DOCUMENTS\ENSG\ING3\OPENGL\PERFECTOPENGL\7-TEXTURE\7-TEXTURE\UVBUFFER.CPP
C:\USERS\TIAZA\DOCUMENTS\ENSG\ING3\OPENGL\PERFECTOPENGL\7-TEXTURE\7-TEXTURE\X64\RELEASE\VC143.PDB
C:\USERS\TIAZA\DOCUMENTS\ENSG\ING3\OPENGL\PERFECTOPENGL\7-TEXTURE\7-TEXTURE\X64\RELEASE\UVBUFFER.OBJ
C:\USERS\TIAZA\DOCUMENTS\ENSG\ING3\OPENGL\PERFECTOPENGL\7-TEXTURE\7-TEXTURE\X64\RELEASE\MAIN.OBJ
^C:\USERS\TIAZA\DOCUMENTS\ENSG\ING3\OPENGL\PERFECTOPENGL\7-TEXTURE\7-TEXTURE\UVBUFFER.CPP
C:\USERS\TIAZA\DOCUMENTS\ENSG\ING3\OPENGL\PERFECTOPENGL\7-TEXTURE\7-TEXTURE\X64\RELEASE\VC143.PDB
^C:\USERS\TIAZA\DOCUMENTS\ENSG\ING3\OPENGL\PERFECTOPENGL\7-TEXTURE\7-TEXTURE\MAIN.CPP|C:\USERS\TIAZA\DOCUMENTS\ENSG\ING3\OPENGL\PERFECTOPENGL\7-TEXTURE\7-TEXTURE\SIMPLESTATICSHAPE.CPP
C:\USERS\TIAZA\DOCUMENTS\ENSG\ING3\OPENGL\PERFECTOPENGL\7-TEXTURE\7-TEXTURE\X64\RELEASE\VC143.PDB
C:\USERS\TIAZA\DOCUMENTS\ENSG\ING3\OPENGL\PERFECTOPENGL\7-TEXTURE\7-TEXTURE\X64\RELEASE\MAIN.OBJ
C:\USERS\TIAZA\DOCUMENTS\ENSG\ING3\OPENGL\PERFECTOPENGL\7-TEXTURE\7-TEXTURE\X64\RELEASE\SIMPLESTATICSHAPE.OBJ
^C:\USERS\TIAZA\DOCUMENTS\ENSG\ING3\OPENGL\PERFECTOPENGL\7-TEXTURE\7-TEXTURE\SIMPLESTATICSHAPE.CPP
C:\USERS\TIAZA\DOCUMENTS\ENSG\ING3\OPENGL\PERFECTOPENGL\7-TEXTURE\7-TEXTURE\X64\RELEASE\VC143.PDB
