^C:\USERS\TIAZA\DOCUMENTS\ENSG\ING3\OPENGL\PERFECTOPENGL\7-TEXTURE\7-TEXTURE\X64\RELEASE\CAMERA.OBJ|C:\USERS\TIAZA\DOCUMENTS\ENSG\ING3\OPENGL\PERFECTOPENGL\7-TEXTURE\7-TEXTURE\X64\RELEASE\CONTROLS.OBJ|C:\USERS\TIAZA\DOCUMENTS\ENSG\ING3\OPENGL\PERFECTOPENGL\7-TEXTURE\7-TEXTURE\X64\RELEASE\FPSCONTROLS.OBJ|C:\USERS\TIAZA\DOCUMENTS\ENSG\ING3\OPENGL\PERFECTOPENGL\7-TEXTURE\7-TEXTURE\X64\RELEASE\MAIN.OBJ|C:\USERS\TIAZA\DOCUMENTS\ENSG\ING3\OPENGL\PERFECTOPENGL\7-TEXTURE\7-TEXTURE\X64\RELEASE\OPENGLWINDOW.OBJ|C:\USERS\TIAZA\DOCUMENTS\ENSG\ING3\OPENGL\PERFECTOPENGL\7-TEXTURE\7-TEXTURE\X64\RELEASE\SHADER.OBJ|C:\USERS\TIAZA\DOCUMENTS\ENSG\ING3\OPENGL\PERFECTOPENGL\7-TEXTURE\7-TEXTURE\X64\RELEASE\SIMPLESTATICSHAPE.OBJ|C:\USERS\TIAZA\DOCUMENTS\ENSG\ING3\OPENGL\PERFECTOPENGL\7-TEXTURE\7-TEXTURE\X64\RELEASE\TEXTURE.OBJ|C:\USERS\TIAZA\DOCUMENTS\ENSG\ING3\OPENGL\PERFECTOPENGL\7-TEXTURE\7-TEXTURE\X64\RELEASE\UVBUFFER.OBJ|C:\USERS\TIAZA\DOCUMENTS\ENSG\ING3\OPENGL\PERFECTOPENGL\7-TEXTURE\7-TEXTURE\X64\RELEASE\VERTEXARRAY.OBJ|C:\USERS\TIAZA\DOCUMENTS\ENSG\ING3\OPENGL\PERFECTOPENGL\7-TEXTURE\7-TEXTURE\X64\RELEASE\VERTEXBUFFER.OBJ
C:\PROGRAM FILES (X86)\WINDOWS KITS\10\LIB\10.0.19041.0\UM\X64\KERNEL32.LIB
C:\PROGRAM FILES (X86)\WINDOWS KITS\10\LIB\10.0.19041.0\UM\X64\USER32.LIB
C:\PROGRAM FILES (X86)\WINDOWS KITS\10\LIB\10.0.19041.0\UM\X64\GDI32.LIB
C:\PROGRAM FILES (X86)\WINDOWS KITS\10\LIB\10.0.19041.0\UM\X64\WINSPOOL.LIB
C:\PROGRAM FILES (X86)\WINDOWS KITS\10\LIB\10.0.19041.0\UM\X64\COMDLG32.LIB
C:\PROGRAM FILES (X86)\WINDOWS KITS\10\LIB\10.0.19041.0\UM\X64\ADVAPI32.LIB
C:\PROGRAM FILES (X86)\WINDOWS KITS\10\LIB\10.0.19041.0\UM\X64\SHELL32.LIB
C:\PROGRAM FILES (X86)\WINDOWS KITS\10\LIB\10.0.19041.0\UM\X64\OLE32.LIB
C:\PROGRAM FILES (X86)\WINDOWS KITS\10\LIB\10.0.19041.0\UM\X64\OLEAUT32.LIB
C:\PROGRAM FILES (X86)\WINDOWS KITS\10\LIB\10.0.19041.0\UM\X64\UUID.LIB
C:\PROGRAM FILES (X86)\WINDOWS KITS\10\LIB\10.0.19041.0\UM\X64\ODBC32.LIB
C:\PROGRAM FILES (X86)\WINDOWS KITS\10\LIB\10.0.19041.0\UM\X64\ODBCCP32.LIB
C:\VCPKG\INSTALLED\X64-WINDOWS\LIB\CHARSET.LIB
C:\VCPKG\INSTALLED\X64-WINDOWS\LIB\FREEXL.LIB
C:\VCPKG\INSTALLED\X64-WINDOWS\LIB\GDAL.LIB
C:\VCPKG\INSTALLED\X64-WINDOWS\LIB\GEOS.LIB
C:\VCPKG\INSTALLED\X64-WINDOWS\LIB\GEOS_C.LIB
C:\VCPKG\INSTALLED\X64-WINDOWS\LIB\GEOTIFF_I.LIB
C:\VCPKG\INSTALLED\X64-WINDOWS\LIB\GIF.LIB
C:\VCPKG\INSTALLED\X64-WINDOWS\LIB\GLEW32.LIB
C:\VCPKG\INSTALLED\X64-WINDOWS\LIB\GLFW3DLL.LIB
C:\VCPKG\INSTALLED\X64-WINDOWS\LIB\GLU32.LIB
C:\VCPKG\INSTALLED\X64-WINDOWS\LIB\HDF5.LIB
C:\VCPKG\INSTALLED\X64-WINDOWS\LIB\HDF5_CPP.LIB
C:\VCPKG\INSTALLED\X64-WINDOWS\LIB\HDF5_HL.LIB
C:\VCPKG\INSTALLED\X64-WINDOWS\LIB\HDF5_HL_CPP.LIB
C:\VCPKG\INSTALLED\X64-WINDOWS\LIB\ICONV.LIB
C:\VCPKG\INSTALLED\X64-WINDOWS\LIB\JPEG.LIB
C:\VCPKG\INSTALLED\X64-WINDOWS\LIB\JSON-C-STATIC.LIB
C:\VCPKG\INSTALLED\X64-WINDOWS\LIB\JSON-C.LIB
C:\VCPKG\INSTALLED\X64-WINDOWS\LIB\LIBCRYPTO.LIB
C:\VCPKG\INSTALLED\X64-WINDOWS\LIB\LIBCURL.LIB
C:\VCPKG\INSTALLED\X64-WINDOWS\LIB\LIBECPG.LIB
C:\VCPKG\INSTALLED\X64-WINDOWS\LIB\LIBECPG_COMPAT.LIB
C:\VCPKG\INSTALLED\X64-WINDOWS\LIB\LIBEXPAT.LIB
C:\VCPKG\INSTALLED\X64-WINDOWS\LIB\LIBPGCOMMON.LIB
C:\VCPKG\INSTALLED\X64-WINDOWS\LIB\LIBPGPORT.LIB
C:\VCPKG\INSTALLED\X64-WINDOWS\LIB\LIBPGTYPES.LIB
C:\VCPKG\INSTALLED\X64-WINDOWS\LIB\LIBPNG16.LIB
C:\VCPKG\INSTALLED\X64-WINDOWS\LIB\LIBPQ.LIB
C:\VCPKG\INSTALLED\X64-WINDOWS\LIB\LIBSSL.LIB
C:\VCPKG\INSTALLED\X64-WINDOWS\LIB\LIBXML2.LIB
C:\VCPKG\INSTALLED\X64-WINDOWS\LIB\LZ4.LIB
C:\VCPKG\INSTALLED\X64-WINDOWS\LIB\LZMA.LIB
C:\VCPKG\INSTALLED\X64-WINDOWS\LIB\NETCDF.LIB
C:\VCPKG\INSTALLED\X64-WINDOWS\LIB\OPENGL32.LIB
C:\VCPKG\INSTALLED\X64-WINDOWS\LIB\OPENJP2.LIB
C:\VCPKG\INSTALLED\X64-WINDOWS\LIB\PCRE2-16.LIB
C:\VCPKG\INSTALLED\X64-WINDOWS\LIB\PCRE2-32.LIB
C:\VCPKG\INSTALLED\X64-WINDOWS\LIB\PCRE2-8.LIB
C:\VCPKG\INSTALLED\X64-WINDOWS\LIB\PCRE2-POSIX.LIB
C:\VCPKG\INSTALLED\X64-WINDOWS\LIB\PKGCONF.LIB
C:\VCPKG\INSTALLED\X64-WINDOWS\LIB\PROJ.LIB
C:\VCPKG\INSTALLED\X64-WINDOWS\LIB\QHULLCPP.LIB
C:\VCPKG\INSTALLED\X64-WINDOWS\LIB\QHULL_R.LIB
C:\VCPKG\INSTALLED\X64-WINDOWS\LIB\SPATIALITE.LIB
C:\VCPKG\INSTALLED\X64-WINDOWS\LIB\SQLITE3.LIB
C:\VCPKG\INSTALLED\X64-WINDOWS\LIB\SZIP.LIB
C:\VCPKG\INSTALLED\X64-WINDOWS\LIB\TIFF.LIB
C:\VCPKG\INSTALLED\X64-WINDOWS\LIB\TURBOJPEG.LIB
C:\VCPKG\INSTALLED\X64-WINDOWS\LIB\WEBP.LIB
C:\VCPKG\INSTALLED\X64-WINDOWS\LIB\WEBPDECODER.LIB
C:\VCPKG\INSTALLED\X64-WINDOWS\LIB\WEBPDEMUX.LIB
C:\VCPKG\INSTALLED\X64-WINDOWS\LIB\WEBPMUX.LIB
C:\VCPKG\INSTALLED\X64-WINDOWS\LIB\ZLIB.LIB
C:\VCPKG\INSTALLED\X64-WINDOWS\LIB\ZSTD.LIB
C:\USERS\TIAZA\DOCUMENTS\ENSG\ING3\OPENGL\PERFECTOPENGL\7-TEXTURE\7-TEXTURE\X64\RELEASE\CAMERA.OBJ
C:\USERS\TIAZA\DOCUMENTS\ENSG\ING3\OPENGL\PERFECTOPENGL\7-TEXTURE\7-TEXTURE\X64\RELEASE\CONTROLS.OBJ
C:\USERS\TIAZA\DOCUMENTS\ENSG\ING3\OPENGL\PERFECTOPENGL\7-TEXTURE\7-TEXTURE\X64\RELEASE\FPSCONTROLS.OBJ
C:\USERS\TIAZA\DOCUMENTS\ENSG\ING3\OPENGL\PERFECTOPENGL\7-TEXTURE\7-TEXTURE\X64\RELEASE\MAIN.OBJ
C:\USERS\TIAZA\DOCUMENTS\ENSG\ING3\OPENGL\PERFECTOPENGL\7-TEXTURE\7-TEXTURE\X64\RELEASE\OPENGLWINDOW.OBJ
C:\USERS\TIAZA\DOCUMENTS\ENSG\ING3\OPENGL\PERFECTOPENGL\7-TEXTURE\7-TEXTURE\X64\RELEASE\SHADER.OBJ
C:\USERS\TIAZA\DOCUMENTS\ENSG\ING3\OPENGL\PERFECTOPENGL\7-TEXTURE\7-TEXTURE\X64\RELEASE\SIMPLESTATICSHAPE.OBJ
C:\USERS\TIAZA\DOCUMENTS\ENSG\ING3\OPENGL\PERFECTOPENGL\7-TEXTURE\7-TEXTURE\X64\RELEASE\TEXTURE.OBJ
C:\USERS\TIAZA\DOCUMENTS\ENSG\ING3\OPENGL\PERFECTOPENGL\7-TEXTURE\7-TEXTURE\X64\RELEASE\UVBUFFER.OBJ
C:\USERS\TIAZA\DOCUMENTS\ENSG\ING3\OPENGL\PERFECTOPENGL\7-TEXTURE\7-TEXTURE\X64\RELEASE\VERTEXARRAY.OBJ
C:\USERS\TIAZA\DOCUMENTS\ENSG\ING3\OPENGL\PERFECTOPENGL\7-TEXTURE\7-TEXTURE\X64\RELEASE\VERTEXBUFFER.OBJ
C:\WINDOWS\GLOBALIZATION\SORTING\SORTDEFAULT.NLS
C:\PROGRAM FILES\MICROSOFT VISUAL STUDIO\2022\COMMUNITY\VC\TOOLS\MSVC\14.33.31629\BIN\HOSTX64\X64\C2.DLL
C:\PROGRAM FILES\MICROSOFT VISUAL STUDIO\2022\COMMUNITY\VC\TOOLS\MSVC\14.33.31629\LIB\X64\MSVCPRT.LIB
C:\PROGRAM FILES\MICROSOFT VISUAL STUDIO\2022\COMMUNITY\VC\TOOLS\MSVC\14.33.31629\LIB\X64\MSVCRT.LIB
C:\PROGRAM FILES\MICROSOFT VISUAL STUDIO\2022\COMMUNITY\VC\TOOLS\MSVC\14.33.31629\LIB\X64\OLDNAMES.LIB
C:\PROGRAM FILES\MICROSOFT VISUAL STUDIO\2022\COMMUNITY\VC\TOOLS\MSVC\14.33.31629\LIB\X64\VCRUNTIME.LIB
C:\PROGRAM FILES (X86)\WINDOWS KITS\10\LIB\10.0.19041.0\UCRT\X64\UCRT.LIB
C:\PROGRAM FILES\MICROSOFT VISUAL STUDIO\2022\COMMUNITY\VC\TOOLS\MSVC\14.33.31629\BIN\HOSTX64\X64\1033\LINKUI.DLL
C:\USERS\TIAZA\DOCUMENTS\ENSG\ING3\OPENGL\PERFECTOPENGL\7-TEXTURE\7-TEXTURE\X64\RELEASE\7-TEXTURE.IPDB
C:\USERS\TIAZA\DOCUMENTS\ENSG\ING3\OPENGL\PERFECTOPENGL\7-TEXTURE\7-TEXTURE\X64\RELEASE\7-TEXTURE.IOBJ
C:\PROGRAM FILES\MICROSOFT VISUAL STUDIO\2022\COMMUNITY\VC\TOOLS\MSVC\14.33.31629\BIN\HOSTX64\X64\CVTRES.EXE
C:\WINDOWS\SYSTEM32\TZRES.DLL
C:\USERS\TIAZA\DOCUMENTS\ENSG\ING3\OPENGL\PERFECTOPENGL\7-TEXTURE\7-TEXTURE\X64\RELEASE\VC143.PDB
