^C:\USERS\TIAZA\DOCUMENTS\ENSG\ING3\OPENGL\PERFECTOPENGL\2-TRIANGLEWITHOUTSHADER\2-TRIANGLEWITHOUTSHADER\X64\DEBUG\MAIN.OBJ|C:\USERS\TIAZA\DOCUMENTS\ENSG\ING3\OPENGL\PERFECTOPENGL\2-TRIANGLEWITHOUTSHADER\2-TRIANGLEWITHOUTSHADER\X64\DEBUG\OPENGLWINDOW.OBJ|C:\USERS\TIAZA\DOCUMENTS\ENSG\ING3\OPENGL\PERFECTOPENGL\2-TRIANGLEWITHOUTSHADER\2-TRIANGLEWITHOUTSHADER\X64\DEBUG\SIMPLESTATICSHAPE.OBJ|C:\USERS\TIAZA\DOCUMENTS\ENSG\ING3\OPENGL\PERFECTOPENGL\2-TRIANGLEWITHOUTSHADER\2-TRIANGLEWITHOUTSHADER\X64\DEBUG\VERTEXARRAY.OBJ|C:\USERS\TIAZA\DOCUMENTS\ENSG\ING3\OPENGL\PERFECTOPENGL\2-TRIANGLEWITHOUTSHADER\2-TRIANGLEWITHOUTSHADER\X64\DEBUG\VERTEXBUFFER.OBJ
C:\PROGRAM FILES (X86)\WINDOWS KITS\10\LIB\10.0.19041.0\UM\X64\KERNEL32.LIB
C:\PROGRAM FILES (X86)\WINDOWS KITS\10\LIB\10.0.19041.0\UM\X64\USER32.LIB
C:\PROGRAM FILES (X86)\WINDOWS KITS\10\LIB\10.0.19041.0\UM\X64\GDI32.LIB
C:\PROGRAM FILES (X86)\WINDOWS KITS\10\LIB\10.0.19041.0\UM\X64\WINSPOOL.LIB
C:\PROGRAM FILES (X86)\WINDOWS KITS\10\LIB\10.0.19041.0\UM\X64\COMDLG32.LIB
C:\PROGRAM FILES (X86)\WINDOWS KITS\10\LIB\10.0.19041.0\UM\X64\ADVAPI32.LIB
C:\PROGRAM FILES (X86)\WINDOWS KITS\10\LIB\10.0.19041.0\UM\X64\SHELL32.LIB
C:\PROGRAM FILES (X86)\WINDOWS KITS\10\LIB\10.0.19041.0\UM\X64\OLE32.LIB
C:\PROGRAM FILES (X86)\WINDOWS KITS\10\LIB\10.0.19041.0\UM\X64\OLEAUT32.LIB
C:\PROGRAM FILES (X86)\WINDOWS KITS\10\LIB\10.0.19041.0\UM\X64\UUID.LIB
C:\PROGRAM FILES (X86)\WINDOWS KITS\10\LIB\10.0.19041.0\UM\X64\ODBC32.LIB
C:\PROGRAM FILES (X86)\WINDOWS KITS\10\LIB\10.0.19041.0\UM\X64\ODBCCP32.LIB
C:\VCPKG\INSTALLED\X64-WINDOWS\DEBUG\LIB\CHARSET.LIB
C:\VCPKG\INSTALLED\X64-WINDOWS\DEBUG\LIB\FREEXL.LIB
C:\VCPKG\INSTALLED\X64-WINDOWS\DEBUG\LIB\GDALD.LIB
C:\VCPKG\INSTALLED\X64-WINDOWS\DEBUG\LIB\GEOS.LIB
C:\VCPKG\INSTALLED\X64-WINDOWS\DEBUG\LIB\GEOS_C.LIB
C:\VCPKG\INSTALLED\X64-WINDOWS\DEBUG\LIB\GEOTIFF_D_I.LIB
C:\VCPKG\INSTALLED\X64-WINDOWS\DEBUG\LIB\GIF.LIB
C:\VCPKG\INSTALLED\X64-WINDOWS\DEBUG\LIB\GLEW32D.LIB
C:\VCPKG\INSTALLED\X64-WINDOWS\DEBUG\LIB\GLFW3DLL.LIB
C:\VCPKG\INSTALLED\X64-WINDOWS\DEBUG\LIB\GLU32.LIB
C:\VCPKG\INSTALLED\X64-WINDOWS\DEBUG\LIB\HDF5_CPP_D.LIB
C:\VCPKG\INSTALLED\X64-WINDOWS\DEBUG\LIB\HDF5_D.LIB
C:\VCPKG\INSTALLED\X64-WINDOWS\DEBUG\LIB\HDF5_HL_CPP_D.LIB
C:\VCPKG\INSTALLED\X64-WINDOWS\DEBUG\LIB\HDF5_HL_D.LIB
C:\VCPKG\INSTALLED\X64-WINDOWS\DEBUG\LIB\ICONV.LIB
C:\VCPKG\INSTALLED\X64-WINDOWS\DEBUG\LIB\JPEG.LIB
C:\VCPKG\INSTALLED\X64-WINDOWS\DEBUG\LIB\JSON-C-STATIC.LIB
C:\VCPKG\INSTALLED\X64-WINDOWS\DEBUG\LIB\JSON-C.LIB
C:\VCPKG\INSTALLED\X64-WINDOWS\DEBUG\LIB\LIBCRYPTO.LIB
C:\VCPKG\INSTALLED\X64-WINDOWS\DEBUG\LIB\LIBCURL-D.LIB
C:\VCPKG\INSTALLED\X64-WINDOWS\DEBUG\LIB\LIBECPG.LIB
C:\VCPKG\INSTALLED\X64-WINDOWS\DEBUG\LIB\LIBECPG_COMPAT.LIB
C:\VCPKG\INSTALLED\X64-WINDOWS\DEBUG\LIB\LIBEXPATD.LIB
C:\VCPKG\INSTALLED\X64-WINDOWS\DEBUG\LIB\LIBPGCOMMON.LIB
C:\VCPKG\INSTALLED\X64-WINDOWS\DEBUG\LIB\LIBPGPORT.LIB
C:\VCPKG\INSTALLED\X64-WINDOWS\DEBUG\LIB\LIBPGTYPES.LIB
C:\VCPKG\INSTALLED\X64-WINDOWS\DEBUG\LIB\LIBPNG16D.LIB
C:\VCPKG\INSTALLED\X64-WINDOWS\DEBUG\LIB\LIBPQ.LIB
C:\VCPKG\INSTALLED\X64-WINDOWS\DEBUG\LIB\LIBSSL.LIB
C:\VCPKG\INSTALLED\X64-WINDOWS\DEBUG\LIB\LIBXML2.LIB
C:\VCPKG\INSTALLED\X64-WINDOWS\DEBUG\LIB\LZ4D.LIB
C:\VCPKG\INSTALLED\X64-WINDOWS\DEBUG\LIB\LZMA.LIB
C:\VCPKG\INSTALLED\X64-WINDOWS\DEBUG\LIB\NETCDF.LIB
C:\VCPKG\INSTALLED\X64-WINDOWS\DEBUG\LIB\OPENGL32.LIB
C:\VCPKG\INSTALLED\X64-WINDOWS\DEBUG\LIB\OPENJP2.LIB
C:\VCPKG\INSTALLED\X64-WINDOWS\DEBUG\LIB\PCRE2-16D.LIB
C:\VCPKG\INSTALLED\X64-WINDOWS\DEBUG\LIB\PCRE2-32D.LIB
C:\VCPKG\INSTALLED\X64-WINDOWS\DEBUG\LIB\PCRE2-8D.LIB
C:\VCPKG\INSTALLED\X64-WINDOWS\DEBUG\LIB\PCRE2-POSIXD.LIB
C:\VCPKG\INSTALLED\X64-WINDOWS\DEBUG\LIB\PKGCONF.LIB
C:\VCPKG\INSTALLED\X64-WINDOWS\DEBUG\LIB\PROJ_D.LIB
C:\VCPKG\INSTALLED\X64-WINDOWS\DEBUG\LIB\QHULLCPP_D.LIB
C:\VCPKG\INSTALLED\X64-WINDOWS\DEBUG\LIB\QHULL_RD.LIB
C:\VCPKG\INSTALLED\X64-WINDOWS\DEBUG\LIB\SPATIALITE.LIB
C:\VCPKG\INSTALLED\X64-WINDOWS\DEBUG\LIB\SQLITE3.LIB
C:\VCPKG\INSTALLED\X64-WINDOWS\DEBUG\LIB\SZIP_D.LIB
C:\VCPKG\INSTALLED\X64-WINDOWS\DEBUG\LIB\TIFFD.LIB
C:\VCPKG\INSTALLED\X64-WINDOWS\DEBUG\LIB\TURBOJPEG.LIB
C:\VCPKG\INSTALLED\X64-WINDOWS\DEBUG\LIB\WEBP.LIB
C:\VCPKG\INSTALLED\X64-WINDOWS\DEBUG\LIB\WEBPDECODER.LIB
C:\VCPKG\INSTALLED\X64-WINDOWS\DEBUG\LIB\WEBPDEMUX.LIB
C:\VCPKG\INSTALLED\X64-WINDOWS\DEBUG\LIB\WEBPMUX.LIB
C:\VCPKG\INSTALLED\X64-WINDOWS\DEBUG\LIB\ZLIBD.LIB
C:\VCPKG\INSTALLED\X64-WINDOWS\DEBUG\LIB\ZSTD.LIB
C:\USERS\TIAZA\DOCUMENTS\ENSG\ING3\OPENGL\PERFECTOPENGL\2-TRIANGLEWITHOUTSHADER\2-TRIANGLEWITHOUTSHADER\X64\DEBUG\MAIN.OBJ
C:\USERS\TIAZA\DOCUMENTS\ENSG\ING3\OPENGL\PERFECTOPENGL\2-TRIANGLEWITHOUTSHADER\2-TRIANGLEWITHOUTSHADER\X64\DEBUG\OPENGLWINDOW.OBJ
C:\USERS\TIAZA\DOCUMENTS\ENSG\ING3\OPENGL\PERFECTOPENGL\2-TRIANGLEWITHOUTSHADER\2-TRIANGLEWITHOUTSHADER\X64\DEBUG\SIMPLESTATICSHAPE.OBJ
C:\USERS\TIAZA\DOCUMENTS\ENSG\ING3\OPENGL\PERFECTOPENGL\2-TRIANGLEWITHOUTSHADER\2-TRIANGLEWITHOUTSHADER\X64\DEBUG\VERTEXARRAY.OBJ
C:\USERS\TIAZA\DOCUMENTS\ENSG\ING3\OPENGL\PERFECTOPENGL\2-TRIANGLEWITHOUTSHADER\2-TRIANGLEWITHOUTSHADER\X64\DEBUG\VERTEXBUFFER.OBJ
C:\USERS\TIAZA\DOCUMENTS\ENSG\ING3\OPENGL\PERFECTOPENGL\2-TRIANGLEWITHOUTSHADER\2-TRIANGLEWITHOUTSHADER\X64\DEBUG\2-TRIANGLEWITHOUTSHADER.ILK
C:\WINDOWS\SYSTEM32\TZRES.DLL
C:\WINDOWS\GLOBALIZATION\SORTING\SORTDEFAULT.NLS
C:\PROGRAM FILES\MICROSOFT VISUAL STUDIO\2022\COMMUNITY\VC\TOOLS\MSVC\14.33.31629\LIB\X64\MSVCPRTD.LIB
C:\PROGRAM FILES\MICROSOFT VISUAL STUDIO\2022\COMMUNITY\VC\TOOLS\MSVC\14.33.31629\LIB\X64\MSVCRTD.LIB
C:\PROGRAM FILES\MICROSOFT VISUAL STUDIO\2022\COMMUNITY\VC\TOOLS\MSVC\14.33.31629\LIB\X64\OLDNAMES.LIB
C:\PROGRAM FILES\MICROSOFT VISUAL STUDIO\2022\COMMUNITY\VC\TOOLS\MSVC\14.33.31629\LIB\X64\VCRUNTIMED.LIB
C:\PROGRAM FILES (X86)\WINDOWS KITS\10\LIB\10.0.19041.0\UCRT\X64\UCRTD.LIB
C:\USERS\TIAZA\DOCUMENTS\ENSG\ING3\OPENGL\PERFECTOPENGL\2-TRIANGLEWITHOUTSHADER\2-TRIANGLEWITHOUTSHADER\X64\DEBUG\VC143.PDB
