^C:\USERS\TIAZA\DOCUMENTS\ENSG\ING3\OPENGL\PERFECTOPENGL\2-TRIANGLEWITHOUTSHADER\2-TRIANGLEWITHOUTSHADER\X64\DEBUG\MAIN.OBJ|C:\USERS\TIAZA\DOCUMENTS\ENSG\ING3\OPENGL\PERFECTOPENGL\2-TRIANGLEWITHOUTSHADER\2-TRIANGLEWITHOUTSHADER\X64\DEBUG\OPENGLWINDOW.OBJ|C:\USERS\TIAZA\DOCUMENTS\ENSG\ING3\OPENGL\PERFECTOPENGL\2-TRIANGLEWITHOUTSHADER\2-TRIANGLEWITHOUTSHADER\X64\DEBUG\SIMPLESTATICSHAPE.OBJ|C:\USERS\TIAZA\DOCUMENTS\ENSG\ING3\OPENGL\PERFECTOPENGL\2-TRIANGLEWITHOUTSHADER\2-TRIANGLEWITHOUTSHADER\X64\DEBUG\VERTEXARRAY.OBJ|C:\USERS\TIAZA\DOCUMENTS\ENSG\ING3\OPENGL\PERFECTOPENGL\2-TRIANGLEWITHOUTSHADER\2-TRIANGLEWITHOUTSHADER\X64\DEBUG\VERTEXBUFFER.OBJ
/OUT:"C:\USERS\TIAZA\DOCUMENTS\ENSG\ING3\OPENGL\PERFECTOPENGL\2-TRIANGLEWITHOUTSHADER\X64\DEBUG\2-TRIANGLEWITHOUTSHADER.EXE" /INCREMENTAL /ILK:"X64\DEBUG\2-TRIANGLEWITHOUTSHADER.ILK" /NOLOGO /LIBPATH:"C:\VCPKG\INSTALLED\X64-WINDOWS\DEBUG\LIB" /LIBPATH:"C:\VCPKG\INSTALLED\X64-WINDOWS\DEBUG\LIB\MANUAL-LINK" KERNEL32.LIB USER32.LIB GDI32.LIB WINSPOOL.LIB COMDLG32.LIB ADVAPI32.LIB SHELL32.LIB OLE32.LIB OLEAUT32.LIB UUID.LIB ODBC32.LIB ODBCCP32.LIB "C:\VCPKG\INSTALLED\X64-WINDOWS\DEBUG\LIB\*.LIB" /MANIFEST /MANIFESTUAC:"level='asInvoker' uiAccess='false'" /manifest:embed /DEBUG /PDB:"C:\USERS\TIAZA\DOCUMENTS\ENSG\ING3\OPENGL\PERFECTOPENGL\2-TRIANGLEWITHOUTSHADER\X64\DEBUG\2-TRIANGLEWITHOUTSHADER.PDB" /SUBSYSTEM:CONSOLE /TLBID:1 /DYNAMICBASE /NXCOMPAT /IMPLIB:"C:\USERS\TIAZA\DOCUMENTS\ENSG\ING3\OPENGL\PERFECTOPENGL\2-TRIANGLEWITHOUTSHADER\X64\DEBUG\2-TRIANGLEWITHOUTSHADER.LIB" /MACHINE:X64 X64\DEBUG\MAIN.OBJ
X64\DEBUG\OPENGLWINDOW.OBJ
X64\DEBUG\SIMPLESTATICSHAPE.OBJ
X64\DEBUG\VERTEXARRAY.OBJ
X64\DEBUG\VERTEXBUFFER.OBJ
