C:\Users\tiaza\Documents\ENSG\ING3\OPENGL\PerfectOpenGl\4-adding-color-to-object\x64\Debug\glew32d.dll
C:\Users\tiaza\Documents\ENSG\ING3\OPENGL\PerfectOpenGl\4-adding-color-to-object\x64\Debug\glfw3.dll
C:\Users\tiaza\Documents\ENSG\ING3\OPENGL\PerfectOpenGl\4-adding-color-to-object\x64\Debug\glew32d.dll
C:\Users\tiaza\Documents\ENSG\ING3\OPENGL\PerfectOpenGl\4-adding-color-to-object\x64\Debug\glfw3.dll
C:\Users\tiaza\Documents\ENSG\ING3\OPENGL\PerfectOpenGl\4-adding-color-to-object\x64\Debug\glew32d.dll
C:\Users\tiaza\Documents\ENSG\ING3\OPENGL\PerfectOpenGl\4-adding-color-to-object\x64\Debug\glfw3.dll
C:\Users\tiaza\Documents\ENSG\ING3\OPENGL\PerfectOpenGl\4-adding-color-to-object\x64\Debug\glew32d.dll
C:\Users\tiaza\Documents\ENSG\ING3\OPENGL\PerfectOpenGl\4-adding-color-to-object\x64\Debug\glfw3.dll
C:\Users\tiaza\Documents\ENSG\ING3\OPENGL\PerfectOpenGl\4-adding-color-to-object\x64\Debug\glew32d.dll
C:\Users\tiaza\Documents\ENSG\ING3\OPENGL\PerfectOpenGl\4-adding-color-to-object\x64\Debug\glfw3.dll
