^C:\USERS\TIAZA\DOCUMENTS\ENSG\ING3\OPENGL\PERFECTOPENGL\6-WALKING-CAMERA\6-WALKING-CAMERA\CAMERA.CPP|C:\USERS\TIAZA\DOCUMENTS\ENSG\ING3\OPENGL\PERFECTOPENGL\6-WALKING-CAMERA\6-WALKING-CAMERA\CONTROLS.CPP|C:\USERS\TIAZA\DOCUMENTS\ENSG\ING3\OPENGL\PERFECTOPENGL\6-WALKING-CAMERA\6-WALKING-CAMERA\FPSCONTROLS.CPP|C:\USERS\TIAZA\DOCUMENTS\ENSG\ING3\OPENGL\PERFECTOPENGL\6-WALKING-CAMERA\6-WALKING-CAMERA\MAIN.CPP|C:\USERS\TIAZA\DOCUMENTS\ENSG\ING3\OPENGL\PERFECTOPENGL\6-WALKING-CAMERA\6-WALKING-CAMERA\OPENGLWINDOW.CPP|C:\USERS\TIAZA\DOCUMENTS\ENSG\ING3\OPENGL\PERFECTOPENGL\6-WALKING-CAMERA\6-WALKING-CAMERA\SHADER.CPP|C:\USERS\TIAZA\DOCUMENTS\ENSG\ING3\OPENGL\PERFECTOPENGL\6-WALKING-CAMERA\6-WALKING-CAMERA\SIMPLESTATICSHAPE.CPP|C:\USERS\TIAZA\DOCUMENTS\ENSG\ING3\OPENGL\PERFECTOPENGL\6-WALKING-CAMERA\6-WALKING-CAMERA\VERTEXARRAY.CPP|C:\USERS\TIAZA\DOCUMENTS\ENSG\ING3\OPENGL\PERFECTOPENGL\6-WALKING-CAMERA\6-WALKING-CAMERA\VERTEXBUFFER.CPP
C:\USERS\TIAZA\DOCUMENTS\ENSG\ING3\OPENGL\PERFECTOPENGL\6-WALKING-CAMERA\6-WALKING-CAMERA\X64\DEBUG\VC143.PDB
C:\USERS\TIAZA\DOCUMENTS\ENSG\ING3\OPENGL\PERFECTOPENGL\6-WALKING-CAMERA\6-WALKING-CAMERA\X64\DEBUG\VC143.IDB
C:\USERS\TIAZA\DOCUMENTS\ENSG\ING3\OPENGL\PERFECTOPENGL\6-WALKING-CAMERA\6-WALKING-CAMERA\X64\DEBUG\VERTEXBUFFER.OBJ
C:\USERS\TIAZA\DOCUMENTS\ENSG\ING3\OPENGL\PERFECTOPENGL\6-WALKING-CAMERA\6-WALKING-CAMERA\X64\DEBUG\VERTEXARRAY.OBJ
C:\USERS\TIAZA\DOCUMENTS\ENSG\ING3\OPENGL\PERFECTOPENGL\6-WALKING-CAMERA\6-WALKING-CAMERA\X64\DEBUG\SIMPLESTATICSHAPE.OBJ
C:\USERS\TIAZA\DOCUMENTS\ENSG\ING3\OPENGL\PERFECTOPENGL\6-WALKING-CAMERA\6-WALKING-CAMERA\X64\DEBUG\SHADER.OBJ
C:\USERS\TIAZA\DOCUMENTS\ENSG\ING3\OPENGL\PERFECTOPENGL\6-WALKING-CAMERA\6-WALKING-CAMERA\X64\DEBUG\OPENGLWINDOW.OBJ
C:\USERS\TIAZA\DOCUMENTS\ENSG\ING3\OPENGL\PERFECTOPENGL\6-WALKING-CAMERA\6-WALKING-CAMERA\X64\DEBUG\MAIN.OBJ
C:\USERS\TIAZA\DOCUMENTS\ENSG\ING3\OPENGL\PERFECTOPENGL\6-WALKING-CAMERA\6-WALKING-CAMERA\X64\DEBUG\FPSCONTROLS.OBJ
C:\USERS\TIAZA\DOCUMENTS\ENSG\ING3\OPENGL\PERFECTOPENGL\6-WALKING-CAMERA\6-WALKING-CAMERA\X64\DEBUG\CONTROLS.OBJ
C:\USERS\TIAZA\DOCUMENTS\ENSG\ING3\OPENGL\PERFECTOPENGL\6-WALKING-CAMERA\6-WALKING-CAMERA\X64\DEBUG\CAMERA.OBJ
^C:\USERS\TIAZA\DOCUMENTS\ENSG\ING3\OPENGL\PERFECTOPENGL\6-WALKING-CAMERA\6-WALKING-CAMERA\CAMERA.CPP
C:\USERS\TIAZA\DOCUMENTS\ENSG\ING3\OPENGL\PERFECTOPENGL\6-WALKING-CAMERA\6-WALKING-CAMERA\X64\DEBUG\VC143.PDB
^C:\USERS\TIAZA\DOCUMENTS\ENSG\ING3\OPENGL\PERFECTOPENGL\6-WALKING-CAMERA\6-WALKING-CAMERA\SHADER.CPP
C:\USERS\TIAZA\DOCUMENTS\ENSG\ING3\OPENGL\PERFECTOPENGL\6-WALKING-CAMERA\6-WALKING-CAMERA\X64\DEBUG\VC143.PDB
^C:\USERS\TIAZA\DOCUMENTS\ENSG\ING3\OPENGL\PERFECTOPENGL\6-WALKING-CAMERA\6-WALKING-CAMERA\VERTEXARRAY.CPP
C:\USERS\TIAZA\DOCUMENTS\ENSG\ING3\OPENGL\PERFECTOPENGL\6-WALKING-CAMERA\6-WALKING-CAMERA\X64\DEBUG\VC143.PDB
^C:\USERS\TIAZA\DOCUMENTS\ENSG\ING3\OPENGL\PERFECTOPENGL\6-WALKING-CAMERA\6-WALKING-CAMERA\VERTEXBUFFER.CPP
C:\USERS\TIAZA\DOCUMENTS\ENSG\ING3\OPENGL\PERFECTOPENGL\6-WALKING-CAMERA\6-WALKING-CAMERA\X64\DEBUG\VC143.PDB
^C:\USERS\TIAZA\DOCUMENTS\ENSG\ING3\OPENGL\PERFECTOPENGL\6-WALKING-CAMERA\6-WALKING-CAMERA\FPSCONTROLS.CPP|C:\USERS\TIAZA\DOCUMENTS\ENSG\ING3\OPENGL\PERFECTOPENGL\6-WALKING-CAMERA\6-WALKING-CAMERA\MAIN.CPP
C:\USERS\TIAZA\DOCUMENTS\ENSG\ING3\OPENGL\PERFECTOPENGL\6-WALKING-CAMERA\6-WALKING-CAMERA\X64\DEBUG\VC143.PDB
C:\USERS\TIAZA\DOCUMENTS\ENSG\ING3\OPENGL\PERFECTOPENGL\6-WALKING-CAMERA\6-WALKING-CAMERA\X64\DEBUG\VC143.IDB
C:\USERS\TIAZA\DOCUMENTS\ENSG\ING3\OPENGL\PERFECTOPENGL\6-WALKING-CAMERA\6-WALKING-CAMERA\X64\DEBUG\MAIN.OBJ
C:\USERS\TIAZA\DOCUMENTS\ENSG\ING3\OPENGL\PERFECTOPENGL\6-WALKING-CAMERA\6-WALKING-CAMERA\X64\DEBUG\FPSCONTROLS.OBJ
^C:\USERS\TIAZA\DOCUMENTS\ENSG\ING3\OPENGL\PERFECTOPENGL\6-WALKING-CAMERA\6-WALKING-CAMERA\FPSCONTROLS.CPP
C:\USERS\TIAZA\DOCUMENTS\ENSG\ING3\OPENGL\PERFECTOPENGL\6-WALKING-CAMERA\6-WALKING-CAMERA\X64\DEBUG\VC143.PDB
^C:\USERS\TIAZA\DOCUMENTS\ENSG\ING3\OPENGL\PERFECTOPENGL\6-WALKING-CAMERA\6-WALKING-CAMERA\CONTROLS.CPP|C:\USERS\TIAZA\DOCUMENTS\ENSG\ING3\OPENGL\PERFECTOPENGL\6-WALKING-CAMERA\6-WALKING-CAMERA\MAIN.CPP|C:\USERS\TIAZA\DOCUMENTS\ENSG\ING3\OPENGL\PERFECTOPENGL\6-WALKING-CAMERA\6-WALKING-CAMERA\OPENGLWINDOW.CPP|C:\USERS\TIAZA\DOCUMENTS\ENSG\ING3\OPENGL\PERFECTOPENGL\6-WALKING-CAMERA\6-WALKING-CAMERA\SIMPLESTATICSHAPE.CPP
C:\USERS\TIAZA\DOCUMENTS\ENSG\ING3\OPENGL\PERFECTOPENGL\6-WALKING-CAMERA\6-WALKING-CAMERA\X64\DEBUG\VC143.PDB
C:\USERS\TIAZA\DOCUMENTS\ENSG\ING3\OPENGL\PERFECTOPENGL\6-WALKING-CAMERA\6-WALKING-CAMERA\X64\DEBUG\VC143.IDB
C:\USERS\TIAZA\DOCUMENTS\ENSG\ING3\OPENGL\PERFECTOPENGL\6-WALKING-CAMERA\6-WALKING-CAMERA\X64\DEBUG\MAIN.OBJ
C:\USERS\TIAZA\DOCUMENTS\ENSG\ING3\OPENGL\PERFECTOPENGL\6-WALKING-CAMERA\6-WALKING-CAMERA\X64\DEBUG\SIMPLESTATICSHAPE.OBJ
C:\USERS\TIAZA\DOCUMENTS\ENSG\ING3\OPENGL\PERFECTOPENGL\6-WALKING-CAMERA\6-WALKING-CAMERA\X64\DEBUG\OPENGLWINDOW.OBJ
C:\USERS\TIAZA\DOCUMENTS\ENSG\ING3\OPENGL\PERFECTOPENGL\6-WALKING-CAMERA\6-WALKING-CAMERA\X64\DEBUG\CONTROLS.OBJ
^C:\USERS\TIAZA\DOCUMENTS\ENSG\ING3\OPENGL\PERFECTOPENGL\6-WALKING-CAMERA\6-WALKING-CAMERA\CONTROLS.CPP
C:\USERS\TIAZA\DOCUMENTS\ENSG\ING3\OPENGL\PERFECTOPENGL\6-WALKING-CAMERA\6-WALKING-CAMERA\X64\DEBUG\VC143.PDB
^C:\USERS\TIAZA\DOCUMENTS\ENSG\ING3\OPENGL\PERFECTOPENGL\6-WALKING-CAMERA\6-WALKING-CAMERA\OPENGLWINDOW.CPP
C:\USERS\TIAZA\DOCUMENTS\ENSG\ING3\OPENGL\PERFECTOPENGL\6-WALKING-CAMERA\6-WALKING-CAMERA\X64\DEBUG\VC143.PDB
^C:\USERS\TIAZA\DOCUMENTS\ENSG\ING3\OPENGL\PERFECTOPENGL\6-WALKING-CAMERA\6-WALKING-CAMERA\SIMPLESTATICSHAPE.CPP
C:\USERS\TIAZA\DOCUMENTS\ENSG\ING3\OPENGL\PERFECTOPENGL\6-WALKING-CAMERA\6-WALKING-CAMERA\X64\DEBUG\VC143.PDB
^C:\USERS\TIAZA\DOCUMENTS\ENSG\ING3\OPENGL\PERFECTOPENGL\6-WALKING-CAMERA\6-WALKING-CAMERA\MAIN.CPP
C:\USERS\TIAZA\DOCUMENTS\ENSG\ING3\OPENGL\PERFECTOPENGL\6-WALKING-CAMERA\6-WALKING-CAMERA\X64\DEBUG\VC143.PDB
C:\USERS\TIAZA\DOCUMENTS\ENSG\ING3\OPENGL\PERFECTOPENGL\6-WALKING-CAMERA\6-WALKING-CAMERA\X64\DEBUG\VC143.IDB
C:\USERS\TIAZA\DOCUMENTS\ENSG\ING3\OPENGL\PERFECTOPENGL\6-WALKING-CAMERA\6-WALKING-CAMERA\X64\DEBUG\MAIN.OBJ
