C:\Users\tiaza\Documents\ENSG\ING3\OPENGL\PerfectOpenGl\3-static-shapes-using-shader\x64\Debug\glew32d.dll
C:\Users\tiaza\Documents\ENSG\ING3\OPENGL\PerfectOpenGl\3-static-shapes-using-shader\x64\Debug\glfw3.dll
C:\Users\tiaza\Documents\ENSG\ING3\OPENGL\PerfectOpenGl\3-static-shapes-using-shader\x64\Debug\glew32d.dll
C:\Users\tiaza\Documents\ENSG\ING3\OPENGL\PerfectOpenGl\3-static-shapes-using-shader\x64\Debug\glfw3.dll
C:\Users\tiaza\Documents\ENSG\ING3\OPENGL\PerfectOpenGl\3-static-shapes-using-shader\x64\Debug\glew32d.dll
C:\Users\tiaza\Documents\ENSG\ING3\OPENGL\PerfectOpenGl\3-static-shapes-using-shader\x64\Debug\glfw3.dll
C:\Users\tiaza\Documents\ENSG\ING3\OPENGL\PerfectOpenGl\3-static-shapes-using-shader\x64\Debug\glew32d.dll
C:\Users\tiaza\Documents\ENSG\ING3\OPENGL\PerfectOpenGl\3-static-shapes-using-shader\x64\Debug\glfw3.dll
C:\Users\tiaza\Documents\ENSG\ING3\OPENGL\PerfectOpenGl\3-static-shapes-using-shader\x64\Debug\glew32d.dll
C:\Users\tiaza\Documents\ENSG\ING3\OPENGL\PerfectOpenGl\3-static-shapes-using-shader\x64\Debug\glfw3.dll
C:\Users\tiaza\Documents\ENSG\ING3\OPENGL\PerfectOpenGl\3-static-shapes-using-shader\x64\Debug\glew32d.dll
C:\Users\tiaza\Documents\ENSG\ING3\OPENGL\PerfectOpenGl\3-static-shapes-using-shader\x64\Debug\glfw3.dll
C:\Users\tiaza\Documents\ENSG\ING3\OPENGL\PerfectOpenGl\3-static-shapes-using-shader\x64\Debug\glew32d.dll
C:\Users\tiaza\Documents\ENSG\ING3\OPENGL\PerfectOpenGl\3-static-shapes-using-shader\x64\Debug\glfw3.dll
C:\Users\tiaza\Documents\ENSG\ING3\OPENGL\PerfectOpenGl\3-static-shapes-using-shader\x64\Debug\glew32d.dll
C:\Users\tiaza\Documents\ENSG\ING3\OPENGL\PerfectOpenGl\3-static-shapes-using-shader\x64\Debug\glfw3.dll
C:\Users\tiaza\Documents\ENSG\ING3\OPENGL\PerfectOpenGl\3-static-shapes-using-shader\x64\Debug\glew32d.dll
C:\Users\tiaza\Documents\ENSG\ING3\OPENGL\PerfectOpenGl\3-static-shapes-using-shader\x64\Debug\glfw3.dll
C:\Users\tiaza\Documents\ENSG\ING3\OPENGL\PerfectOpenGl\3-static-shapes-using-shader\x64\Debug\glew32d.dll
C:\Users\tiaza\Documents\ENSG\ING3\OPENGL\PerfectOpenGl\3-static-shapes-using-shader\x64\Debug\glfw3.dll
C:\Users\tiaza\Documents\ENSG\ING3\OPENGL\PerfectOpenGl\3-static-shapes-using-shader\x64\Debug\glew32d.dll
C:\Users\tiaza\Documents\ENSG\ING3\OPENGL\PerfectOpenGl\3-static-shapes-using-shader\x64\Debug\glfw3.dll
C:\Users\tiaza\Documents\ENSG\ING3\OPENGL\PerfectOpenGl\3-static-shapes-using-shader\x64\Debug\glew32d.dll
C:\Users\tiaza\Documents\ENSG\ING3\OPENGL\PerfectOpenGl\3-static-shapes-using-shader\x64\Debug\glfw3.dll
C:\Users\tiaza\Documents\ENSG\ING3\OPENGL\PerfectOpenGl\3-static-shapes-using-shader\x64\Debug\glew32d.dll
C:\Users\tiaza\Documents\ENSG\ING3\OPENGL\PerfectOpenGl\3-static-shapes-using-shader\x64\Debug\glfw3.dll
C:\Users\tiaza\Documents\ENSG\ING3\OPENGL\PerfectOpenGl\3-static-shapes-using-shader\x64\Debug\glew32d.dll
C:\Users\tiaza\Documents\ENSG\ING3\OPENGL\PerfectOpenGl\3-static-shapes-using-shader\x64\Debug\glfw3.dll
C:\Users\tiaza\Documents\ENSG\ING3\OPENGL\PerfectOpenGl\3-static-shapes-using-shader\x64\Debug\glew32d.dll
C:\Users\tiaza\Documents\ENSG\ING3\OPENGL\PerfectOpenGl\3-static-shapes-using-shader\x64\Debug\glfw3.dll
C:\Users\tiaza\Documents\ENSG\ING3\OPENGL\PerfectOpenGl\3-static-shapes-using-shader\x64\Debug\glew32d.dll
C:\Users\tiaza\Documents\ENSG\ING3\OPENGL\PerfectOpenGl\3-static-shapes-using-shader\x64\Debug\glfw3.dll
C:\Users\tiaza\Documents\ENSG\ING3\OPENGL\PerfectOpenGl\3-static-shapes-using-shader\x64\Debug\glew32d.dll
C:\Users\tiaza\Documents\ENSG\ING3\OPENGL\PerfectOpenGl\3-static-shapes-using-shader\x64\Debug\glfw3.dll
C:\Users\tiaza\Documents\ENSG\ING3\OPENGL\PerfectOpenGl\3-static-shapes-using-shader\x64\Debug\glew32d.dll
C:\Users\tiaza\Documents\ENSG\ING3\OPENGL\PerfectOpenGl\3-static-shapes-using-shader\x64\Debug\glfw3.dll
C:\Users\tiaza\Documents\ENSG\ING3\OPENGL\PerfectOpenGl\3-static-shapes-using-shader\x64\Debug\glew32d.dll
C:\Users\tiaza\Documents\ENSG\ING3\OPENGL\PerfectOpenGl\3-static-shapes-using-shader\x64\Debug\glfw3.dll
C:\Users\tiaza\Documents\ENSG\ING3\OPENGL\PerfectOpenGl\3-static-shapes-using-shader\x64\Debug\glew32d.dll
C:\Users\tiaza\Documents\ENSG\ING3\OPENGL\PerfectOpenGl\3-static-shapes-using-shader\x64\Debug\glfw3.dll
C:\Users\tiaza\Documents\ENSG\ING3\OPENGL\PerfectOpenGl\3-static-shapes-using-shader\x64\Debug\glew32d.dll
C:\Users\tiaza\Documents\ENSG\ING3\OPENGL\PerfectOpenGl\3-static-shapes-using-shader\x64\Debug\glfw3.dll
C:\Users\tiaza\Documents\ENSG\ING3\OPENGL\PerfectOpenGl\3-static-shapes-using-shader\x64\Debug\glew32d.dll
C:\Users\tiaza\Documents\ENSG\ING3\OPENGL\PerfectOpenGl\3-static-shapes-using-shader\x64\Debug\glfw3.dll
C:\Users\tiaza\Documents\ENSG\ING3\OPENGL\PerfectOpenGl\3-static-shapes-using-shader\x64\Debug\glew32d.dll
C:\Users\tiaza\Documents\ENSG\ING3\OPENGL\PerfectOpenGl\3-static-shapes-using-shader\x64\Debug\glfw3.dll
C:\Users\tiaza\Documents\ENSG\ING3\OPENGL\PerfectOpenGl\3-static-shapes-using-shader\x64\Debug\glew32d.dll
C:\Users\tiaza\Documents\ENSG\ING3\OPENGL\PerfectOpenGl\3-static-shapes-using-shader\x64\Debug\glfw3.dll
C:\Users\tiaza\Documents\ENSG\ING3\OPENGL\PerfectOpenGl\3-static-shapes-using-shader\x64\Debug\glew32d.dll
C:\Users\tiaza\Documents\ENSG\ING3\OPENGL\PerfectOpenGl\3-static-shapes-using-shader\x64\Debug\glfw3.dll
C:\Users\tiaza\Documents\ENSG\ING3\OPENGL\PerfectOpenGl\3-static-shapes-using-shader\x64\Debug\glew32d.dll
C:\Users\tiaza\Documents\ENSG\ING3\OPENGL\PerfectOpenGl\3-static-shapes-using-shader\x64\Debug\glfw3.dll
