^C:\USERS\TIAZA\DOCUMENTS\ENSG\ING3\OPENGL\PERFECTOPENGL\3-STATIC-SHAPES-USING-SHADER\3-STATIC-SHAPES-USING-SHADER\OPENGLWINDOW.CPP
C:\USERS\TIAZA\DOCUMENTS\ENSG\ING3\OPENGL\PERFECTOPENGL\3-STATIC-SHAPES-USING-SHADER\3-STATIC-SHAPES-USING-SHADER\OPENGLWINDOW.H
C:\VCPKG\INSTALLED\X64-WINDOWS\INCLUDE\GL\GLEW.H
C:\VCPKG\INSTALLED\X64-WINDOWS\INCLUDE\GL\GLU.H
C:\PROGRAM FILES (X86)\WINDOWS KITS\10\INCLUDE\10.0.19041.0\SHARED\WINAPIFAMILY.H
C:\PROGRAM FILES (X86)\WINDOWS KITS\10\INCLUDE\10.0.19041.0\SHARED\WINPACKAGEFAMILY.H
C:\VCPKG\INSTALLED\X64-WINDOWS\INCLUDE\GL\GL.H
C:\VCPKG\INSTALLED\X64-WINDOWS\INCLUDE\GLFW\GLFW3.H
C:\PROGRAM FILES (X86)\WINDOWS KITS\10\INCLUDE\10.0.19041.0\UCRT\STDDEF.H
C:\PROGRAM FILES (X86)\WINDOWS KITS\10\INCLUDE\10.0.19041.0\UCRT\CORECRT.H
C:\PROGRAM FILES\MICROSOFT VISUAL STUDIO\2022\COMMUNITY\VC\TOOLS\MSVC\14.33.31629\INCLUDE\VCRUNTIME.H
C:\PROGRAM FILES\MICROSOFT VISUAL STUDIO\2022\COMMUNITY\VC\TOOLS\MSVC\14.33.31629\INCLUDE\SAL.H
C:\PROGRAM FILES\MICROSOFT VISUAL STUDIO\2022\COMMUNITY\VC\TOOLS\MSVC\14.33.31629\INCLUDE\CONCURRENCYSAL.H
C:\PROGRAM FILES\MICROSOFT VISUAL STUDIO\2022\COMMUNITY\VC\TOOLS\MSVC\14.33.31629\INCLUDE\VADEFS.H
C:\PROGRAM FILES\MICROSOFT VISUAL STUDIO\2022\COMMUNITY\VC\TOOLS\MSVC\14.33.31629\INCLUDE\STDINT.H
C:\PROGRAM FILES (X86)\WINDOWS KITS\10\INCLUDE\10.0.19041.0\UCRT\STDIO.H
C:\PROGRAM FILES (X86)\WINDOWS KITS\10\INCLUDE\10.0.19041.0\UCRT\CORECRT_WSTDIO.H
C:\PROGRAM FILES (X86)\WINDOWS KITS\10\INCLUDE\10.0.19041.0\UCRT\CORECRT_STDIO_CONFIG.H
^C:\USERS\TIAZA\DOCUMENTS\ENSG\ING3\OPENGL\PERFECTOPENGL\3-STATIC-SHAPES-USING-SHADER\3-STATIC-SHAPES-USING-SHADER\SHADER.CPP
C:\USERS\TIAZA\DOCUMENTS\ENSG\ING3\OPENGL\PERFECTOPENGL\3-STATIC-SHAPES-USING-SHADER\3-STATIC-SHAPES-USING-SHADER\SHADER.H
C:\PROGRAM FILES\MICROSOFT VISUAL STUDIO\2022\COMMUNITY\VC\TOOLS\MSVC\14.33.31629\INCLUDE\IOSTREAM
C:\PROGRAM FILES\MICROSOFT VISUAL STUDIO\2022\COMMUNITY\VC\TOOLS\MSVC\14.33.31629\INCLUDE\YVALS_CORE.H
C:\PROGRAM FILES\MICROSOFT VISUAL STUDIO\2022\COMMUNITY\VC\TOOLS\MSVC\14.33.31629\INCLUDE\VCRUNTIME.H
C:\PROGRAM FILES\MICROSOFT VISUAL STUDIO\2022\COMMUNITY\VC\TOOLS\MSVC\14.33.31629\INCLUDE\SAL.H
C:\PROGRAM FILES\MICROSOFT VISUAL STUDIO\2022\COMMUNITY\VC\TOOLS\MSVC\14.33.31629\INCLUDE\CONCURRENCYSAL.H
C:\PROGRAM FILES\MICROSOFT VISUAL STUDIO\2022\COMMUNITY\VC\TOOLS\MSVC\14.33.31629\INCLUDE\VADEFS.H
C:\PROGRAM FILES\MICROSOFT VISUAL STUDIO\2022\COMMUNITY\VC\TOOLS\MSVC\14.33.31629\INCLUDE\XKEYCHECK.H
C:\PROGRAM FILES\MICROSOFT VISUAL STUDIO\2022\COMMUNITY\VC\TOOLS\MSVC\14.33.31629\INCLUDE\ISTREAM
C:\PROGRAM FILES\MICROSOFT VISUAL STUDIO\2022\COMMUNITY\VC\TOOLS\MSVC\14.33.31629\INCLUDE\OSTREAM
C:\PROGRAM FILES\MICROSOFT VISUAL STUDIO\2022\COMMUNITY\VC\TOOLS\MSVC\14.33.31629\INCLUDE\IOS
C:\PROGRAM FILES\MICROSOFT VISUAL STUDIO\2022\COMMUNITY\VC\TOOLS\MSVC\14.33.31629\INCLUDE\XLOCNUM
C:\PROGRAM FILES\MICROSOFT VISUAL STUDIO\2022\COMMUNITY\VC\TOOLS\MSVC\14.33.31629\INCLUDE\CLIMITS
C:\PROGRAM FILES\MICROSOFT VISUAL STUDIO\2022\COMMUNITY\VC\TOOLS\MSVC\14.33.31629\INCLUDE\LIMITS.H
C:\PROGRAM FILES\MICROSOFT VISUAL STUDIO\2022\COMMUNITY\VC\TOOLS\MSVC\14.33.31629\INCLUDE\CMATH
C:\PROGRAM FILES\MICROSOFT VISUAL STUDIO\2022\COMMUNITY\VC\TOOLS\MSVC\14.33.31629\INCLUDE\YVALS.H
C:\PROGRAM FILES (X86)\WINDOWS KITS\10\INCLUDE\10.0.19041.0\UCRT\CRTDBG.H
C:\PROGRAM FILES (X86)\WINDOWS KITS\10\INCLUDE\10.0.19041.0\UCRT\CORECRT.H
C:\PROGRAM FILES\MICROSOFT VISUAL STUDIO\2022\COMMUNITY\VC\TOOLS\MSVC\14.33.31629\INCLUDE\VCRUNTIME_NEW_DEBUG.H
C:\PROGRAM FILES\MICROSOFT VISUAL STUDIO\2022\COMMUNITY\VC\TOOLS\MSVC\14.33.31629\INCLUDE\VCRUNTIME_NEW.H
C:\PROGRAM FILES\MICROSOFT VISUAL STUDIO\2022\COMMUNITY\VC\TOOLS\MSVC\14.33.31629\INCLUDE\CRTDEFS.H
C:\PROGRAM FILES\MICROSOFT VISUAL STUDIO\2022\COMMUNITY\VC\TOOLS\MSVC\14.33.31629\INCLUDE\USE_ANSI.H
C:\PROGRAM FILES\MICROSOFT VISUAL STUDIO\2022\COMMUNITY\VC\TOOLS\MSVC\14.33.31629\INCLUDE\CSTDLIB
C:\PROGRAM FILES (X86)\WINDOWS KITS\10\INCLUDE\10.0.19041.0\UCRT\MATH.H
C:\PROGRAM FILES (X86)\WINDOWS KITS\10\INCLUDE\10.0.19041.0\UCRT\CORECRT_MATH.H
C:\PROGRAM FILES (X86)\WINDOWS KITS\10\INCLUDE\10.0.19041.0\UCRT\STDLIB.H
C:\PROGRAM FILES (X86)\WINDOWS KITS\10\INCLUDE\10.0.19041.0\UCRT\CORECRT_MALLOC.H
C:\PROGRAM FILES (X86)\WINDOWS KITS\10\INCLUDE\10.0.19041.0\UCRT\CORECRT_SEARCH.H
C:\PROGRAM FILES (X86)\WINDOWS KITS\10\INCLUDE\10.0.19041.0\UCRT\STDDEF.H
C:\PROGRAM FILES (X86)\WINDOWS KITS\10\INCLUDE\10.0.19041.0\UCRT\CORECRT_WSTDLIB.H
C:\PROGRAM FILES\MICROSOFT VISUAL STUDIO\2022\COMMUNITY\VC\TOOLS\MSVC\14.33.31629\INCLUDE\XTR1COMMON
C:\PROGRAM FILES\MICROSOFT VISUAL STUDIO\2022\COMMUNITY\VC\TOOLS\MSVC\14.33.31629\INCLUDE\INTRIN0.H
C:\PROGRAM FILES\MICROSOFT VISUAL STUDIO\2022\COMMUNITY\VC\TOOLS\MSVC\14.33.31629\INCLUDE\INTRIN0.INL.H
C:\PROGRAM FILES\MICROSOFT VISUAL STUDIO\2022\COMMUNITY\VC\TOOLS\MSVC\14.33.31629\INCLUDE\CSTDIO
C:\PROGRAM FILES (X86)\WINDOWS KITS\10\INCLUDE\10.0.19041.0\UCRT\STDIO.H
C:\PROGRAM FILES (X86)\WINDOWS KITS\10\INCLUDE\10.0.19041.0\UCRT\CORECRT_WSTDIO.H
C:\PROGRAM FILES (X86)\WINDOWS KITS\10\INCLUDE\10.0.19041.0\UCRT\CORECRT_STDIO_CONFIG.H
C:\PROGRAM FILES\MICROSOFT VISUAL STUDIO\2022\COMMUNITY\VC\TOOLS\MSVC\14.33.31629\INCLUDE\ITERATOR
C:\PROGRAM FILES\MICROSOFT VISUAL STUDIO\2022\COMMUNITY\VC\TOOLS\MSVC\14.33.31629\INCLUDE\IOSFWD
C:\PROGRAM FILES\MICROSOFT VISUAL STUDIO\2022\COMMUNITY\VC\TOOLS\MSVC\14.33.31629\INCLUDE\CSTRING
C:\PROGRAM FILES (X86)\WINDOWS KITS\10\INCLUDE\10.0.19041.0\UCRT\STRING.H
C:\PROGRAM FILES (X86)\WINDOWS KITS\10\INCLUDE\10.0.19041.0\UCRT\CORECRT_MEMORY.H
C:\PROGRAM FILES (X86)\WINDOWS KITS\10\INCLUDE\10.0.19041.0\UCRT\CORECRT_MEMCPY_S.H
C:\PROGRAM FILES (X86)\WINDOWS KITS\10\INCLUDE\10.0.19041.0\UCRT\ERRNO.H
C:\PROGRAM FILES\MICROSOFT VISUAL STUDIO\2022\COMMUNITY\VC\TOOLS\MSVC\14.33.31629\INCLUDE\VCRUNTIME_STRING.H
C:\PROGRAM FILES (X86)\WINDOWS KITS\10\INCLUDE\10.0.19041.0\UCRT\CORECRT_WSTRING.H
C:\PROGRAM FILES\MICROSOFT VISUAL STUDIO\2022\COMMUNITY\VC\TOOLS\MSVC\14.33.31629\INCLUDE\CWCHAR
C:\PROGRAM FILES (X86)\WINDOWS KITS\10\INCLUDE\10.0.19041.0\UCRT\WCHAR.H
C:\PROGRAM FILES (X86)\WINDOWS KITS\10\INCLUDE\10.0.19041.0\UCRT\CORECRT_WCONIO.H
C:\PROGRAM FILES (X86)\WINDOWS KITS\10\INCLUDE\10.0.19041.0\UCRT\CORECRT_WCTYPE.H
C:\PROGRAM FILES (X86)\WINDOWS KITS\10\INCLUDE\10.0.19041.0\UCRT\CORECRT_WDIRECT.H
C:\PROGRAM FILES (X86)\WINDOWS KITS\10\INCLUDE\10.0.19041.0\UCRT\CORECRT_WIO.H
C:\PROGRAM FILES (X86)\WINDOWS KITS\10\INCLUDE\10.0.19041.0\UCRT\CORECRT_SHARE.H
C:\PROGRAM FILES (X86)\WINDOWS KITS\10\INCLUDE\10.0.19041.0\UCRT\CORECRT_WPROCESS.H
C:\PROGRAM FILES (X86)\WINDOWS KITS\10\INCLUDE\10.0.19041.0\UCRT\CORECRT_WTIME.H
C:\PROGRAM FILES (X86)\WINDOWS KITS\10\INCLUDE\10.0.19041.0\UCRT\SYS\STAT.H
C:\PROGRAM FILES (X86)\WINDOWS KITS\10\INCLUDE\10.0.19041.0\UCRT\SYS\TYPES.H
C:\PROGRAM FILES\MICROSOFT VISUAL STUDIO\2022\COMMUNITY\VC\TOOLS\MSVC\14.33.31629\INCLUDE\XSTDDEF
C:\PROGRAM FILES\MICROSOFT VISUAL STUDIO\2022\COMMUNITY\VC\TOOLS\MSVC\14.33.31629\INCLUDE\CSTDDEF
C:\PROGRAM FILES\MICROSOFT VISUAL STUDIO\2022\COMMUNITY\VC\TOOLS\MSVC\14.33.31629\INCLUDE\INITIALIZER_LIST
C:\PROGRAM FILES\MICROSOFT VISUAL STUDIO\2022\COMMUNITY\VC\TOOLS\MSVC\14.33.31629\INCLUDE\XUTILITY
C:\PROGRAM FILES\MICROSOFT VISUAL STUDIO\2022\COMMUNITY\VC\TOOLS\MSVC\14.33.31629\INCLUDE\UTILITY
C:\PROGRAM FILES\MICROSOFT VISUAL STUDIO\2022\COMMUNITY\VC\TOOLS\MSVC\14.33.31629\INCLUDE\TYPE_TRAITS
C:\PROGRAM FILES\MICROSOFT VISUAL STUDIO\2022\COMMUNITY\VC\TOOLS\MSVC\14.33.31629\INCLUDE\CSTDINT
C:\PROGRAM FILES\MICROSOFT VISUAL STUDIO\2022\COMMUNITY\VC\TOOLS\MSVC\14.33.31629\INCLUDE\STDINT.H
C:\PROGRAM FILES\MICROSOFT VISUAL STUDIO\2022\COMMUNITY\VC\TOOLS\MSVC\14.33.31629\INCLUDE\STREAMBUF
C:\PROGRAM FILES\MICROSOFT VISUAL STUDIO\2022\COMMUNITY\VC\TOOLS\MSVC\14.33.31629\INCLUDE\XIOSBASE
C:\PROGRAM FILES (X86)\WINDOWS KITS\10\INCLUDE\10.0.19041.0\UCRT\SHARE.H
C:\PROGRAM FILES\MICROSOFT VISUAL STUDIO\2022\COMMUNITY\VC\TOOLS\MSVC\14.33.31629\INCLUDE\SYSTEM_ERROR
C:\PROGRAM FILES\MICROSOFT VISUAL STUDIO\2022\COMMUNITY\VC\TOOLS\MSVC\14.33.31629\INCLUDE\__MSVC_SYSTEM_ERROR_ABI.HPP
C:\PROGRAM FILES\MICROSOFT VISUAL STUDIO\2022\COMMUNITY\VC\TOOLS\MSVC\14.33.31629\INCLUDE\CERRNO
C:\PROGRAM FILES\MICROSOFT VISUAL STUDIO\2022\COMMUNITY\VC\TOOLS\MSVC\14.33.31629\INCLUDE\STDEXCEPT
C:\PROGRAM FILES\MICROSOFT VISUAL STUDIO\2022\COMMUNITY\VC\TOOLS\MSVC\14.33.31629\INCLUDE\EXCEPTION
C:\PROGRAM FILES (X86)\WINDOWS KITS\10\INCLUDE\10.0.19041.0\UCRT\MALLOC.H
C:\PROGRAM FILES\MICROSOFT VISUAL STUDIO\2022\COMMUNITY\VC\TOOLS\MSVC\14.33.31629\INCLUDE\VCRUNTIME_EXCEPTION.H
C:\PROGRAM FILES\MICROSOFT VISUAL STUDIO\2022\COMMUNITY\VC\TOOLS\MSVC\14.33.31629\INCLUDE\EH.H
C:\PROGRAM FILES (X86)\WINDOWS KITS\10\INCLUDE\10.0.19041.0\UCRT\CORECRT_TERMINATE.H
C:\PROGRAM FILES\MICROSOFT VISUAL STUDIO\2022\COMMUNITY\VC\TOOLS\MSVC\14.33.31629\INCLUDE\XSTRING
C:\PROGRAM FILES\MICROSOFT VISUAL STUDIO\2022\COMMUNITY\VC\TOOLS\MSVC\14.33.31629\INCLUDE\XMEMORY
C:\PROGRAM FILES\MICROSOFT VISUAL STUDIO\2022\COMMUNITY\VC\TOOLS\MSVC\14.33.31629\INCLUDE\LIMITS
C:\PROGRAM FILES\MICROSOFT VISUAL STUDIO\2022\COMMUNITY\VC\TOOLS\MSVC\14.33.31629\INCLUDE\CFLOAT
C:\PROGRAM FILES (X86)\WINDOWS KITS\10\INCLUDE\10.0.19041.0\UCRT\FLOAT.H
C:\PROGRAM FILES\MICROSOFT VISUAL STUDIO\2022\COMMUNITY\VC\TOOLS\MSVC\14.33.31629\INCLUDE\ISA_AVAILABILITY.H
C:\PROGRAM FILES\MICROSOFT VISUAL STUDIO\2022\COMMUNITY\VC\TOOLS\MSVC\14.33.31629\INCLUDE\NEW
C:\PROGRAM FILES\MICROSOFT VISUAL STUDIO\2022\COMMUNITY\VC\TOOLS\MSVC\14.33.31629\INCLUDE\XATOMIC.H
C:\PROGRAM FILES\MICROSOFT VISUAL STUDIO\2022\COMMUNITY\VC\TOOLS\MSVC\14.33.31629\INCLUDE\XCALL_ONCE.H
C:\PROGRAM FILES\MICROSOFT VISUAL STUDIO\2022\COMMUNITY\VC\TOOLS\MSVC\14.33.31629\INCLUDE\XERRC.H
C:\PROGRAM FILES\MICROSOFT VISUAL STUDIO\2022\COMMUNITY\VC\TOOLS\MSVC\14.33.31629\INCLUDE\ATOMIC
C:\PROGRAM FILES\MICROSOFT VISUAL STUDIO\2022\COMMUNITY\VC\TOOLS\MSVC\14.33.31629\INCLUDE\XTHREADS.H
C:\PROGRAM FILES\MICROSOFT VISUAL STUDIO\2022\COMMUNITY\VC\TOOLS\MSVC\14.33.31629\INCLUDE\XTIMEC.H
C:\PROGRAM FILES\MICROSOFT VISUAL STUDIO\2022\COMMUNITY\VC\TOOLS\MSVC\14.33.31629\INCLUDE\CTIME
C:\PROGRAM FILES (X86)\WINDOWS KITS\10\INCLUDE\10.0.19041.0\UCRT\TIME.H
C:\PROGRAM FILES\MICROSOFT VISUAL STUDIO\2022\COMMUNITY\VC\TOOLS\MSVC\14.33.31629\INCLUDE\XLOCALE
C:\PROGRAM FILES\MICROSOFT VISUAL STUDIO\2022\COMMUNITY\VC\TOOLS\MSVC\14.33.31629\INCLUDE\MEMORY
C:\PROGRAM FILES\MICROSOFT VISUAL STUDIO\2022\COMMUNITY\VC\TOOLS\MSVC\14.33.31629\INCLUDE\TYPEINFO
C:\PROGRAM FILES\MICROSOFT VISUAL STUDIO\2022\COMMUNITY\VC\TOOLS\MSVC\14.33.31629\INCLUDE\VCRUNTIME_TYPEINFO.H
C:\PROGRAM FILES\MICROSOFT VISUAL STUDIO\2022\COMMUNITY\VC\TOOLS\MSVC\14.33.31629\INCLUDE\XFACET
C:\PROGRAM FILES\MICROSOFT VISUAL STUDIO\2022\COMMUNITY\VC\TOOLS\MSVC\14.33.31629\INCLUDE\XLOCINFO
C:\PROGRAM FILES\MICROSOFT VISUAL STUDIO\2022\COMMUNITY\VC\TOOLS\MSVC\14.33.31629\INCLUDE\__MSVC_XLOCINFO_TYPES.HPP
C:\PROGRAM FILES\MICROSOFT VISUAL STUDIO\2022\COMMUNITY\VC\TOOLS\MSVC\14.33.31629\INCLUDE\CCTYPE
C:\PROGRAM FILES (X86)\WINDOWS KITS\10\INCLUDE\10.0.19041.0\UCRT\CTYPE.H
C:\PROGRAM FILES\MICROSOFT VISUAL STUDIO\2022\COMMUNITY\VC\TOOLS\MSVC\14.33.31629\INCLUDE\CLOCALE
C:\PROGRAM FILES (X86)\WINDOWS KITS\10\INCLUDE\10.0.19041.0\UCRT\LOCALE.H
C:\PROGRAM FILES\MICROSOFT VISUAL STUDIO\2022\COMMUNITY\VC\TOOLS\MSVC\14.33.31629\INCLUDE\FSTREAM
C:\PROGRAM FILES\MICROSOFT VISUAL STUDIO\2022\COMMUNITY\VC\TOOLS\MSVC\14.33.31629\INCLUDE\SSTREAM
C:\PROGRAM FILES\MICROSOFT VISUAL STUDIO\2022\COMMUNITY\VC\TOOLS\MSVC\14.33.31629\INCLUDE\STRING
C:\PROGRAM FILES\MICROSOFT VISUAL STUDIO\2022\COMMUNITY\VC\TOOLS\MSVC\14.33.31629\INCLUDE\VECTOR
C:\VCPKG\INSTALLED\X64-WINDOWS\INCLUDE\GL\GLEW.H
C:\VCPKG\INSTALLED\X64-WINDOWS\INCLUDE\GL\GLU.H
C:\PROGRAM FILES (X86)\WINDOWS KITS\10\INCLUDE\10.0.19041.0\SHARED\WINAPIFAMILY.H
C:\PROGRAM FILES (X86)\WINDOWS KITS\10\INCLUDE\10.0.19041.0\SHARED\WINPACKAGEFAMILY.H
C:\VCPKG\INSTALLED\X64-WINDOWS\INCLUDE\GL\GL.H
C:\VCPKG\INSTALLED\X64-WINDOWS\INCLUDE\GLM\GLM.HPP
C:\VCPKG\INSTALLED\X64-WINDOWS\INCLUDE\GLM\DETAIL\_FIXES.HPP
C:\VCPKG\INSTALLED\X64-WINDOWS\INCLUDE\GLM\DETAIL\SETUP.HPP
C:\PROGRAM FILES\MICROSOFT VISUAL STUDIO\2022\COMMUNITY\VC\TOOLS\MSVC\14.33.31629\INCLUDE\CASSERT
C:\PROGRAM FILES (X86)\WINDOWS KITS\10\INCLUDE\10.0.19041.0\UCRT\ASSERT.H
C:\VCPKG\INSTALLED\X64-WINDOWS\INCLUDE\GLM\SIMD\PLATFORM.H
C:\VCPKG\INSTALLED\X64-WINDOWS\INCLUDE\GLM\FWD.HPP
C:\VCPKG\INSTALLED\X64-WINDOWS\INCLUDE\GLM\DETAIL\QUALIFIER.HPP
C:\VCPKG\INSTALLED\X64-WINDOWS\INCLUDE\GLM\VEC2.HPP
C:\VCPKG\INSTALLED\X64-WINDOWS\INCLUDE\GLM\EXT\VECTOR_BOOL2.HPP
C:\VCPKG\INSTALLED\X64-WINDOWS\INCLUDE\GLM\DETAIL\TYPE_VEC2.HPP
C:\VCPKG\INSTALLED\X64-WINDOWS\INCLUDE\GLM\DETAIL\TYPE_VEC2.INL
C:\VCPKG\INSTALLED\X64-WINDOWS\INCLUDE\GLM\DETAIL\COMPUTE_VECTOR_RELATIONAL.HPP
C:\VCPKG\INSTALLED\X64-WINDOWS\INCLUDE\GLM\EXT\VECTOR_BOOL2_PRECISION.HPP
C:\VCPKG\INSTALLED\X64-WINDOWS\INCLUDE\GLM\EXT\VECTOR_FLOAT2.HPP
C:\VCPKG\INSTALLED\X64-WINDOWS\INCLUDE\GLM\EXT\VECTOR_FLOAT2_PRECISION.HPP
C:\VCPKG\INSTALLED\X64-WINDOWS\INCLUDE\GLM\EXT\VECTOR_DOUBLE2.HPP
C:\VCPKG\INSTALLED\X64-WINDOWS\INCLUDE\GLM\EXT\VECTOR_DOUBLE2_PRECISION.HPP
C:\VCPKG\INSTALLED\X64-WINDOWS\INCLUDE\GLM\EXT\VECTOR_INT2.HPP
C:\VCPKG\INSTALLED\X64-WINDOWS\INCLUDE\GLM\EXT\VECTOR_INT2_SIZED.HPP
C:\VCPKG\INSTALLED\X64-WINDOWS\INCLUDE\GLM\EXT\SCALAR_INT_SIZED.HPP
C:\VCPKG\INSTALLED\X64-WINDOWS\INCLUDE\GLM\EXT\VECTOR_UINT2.HPP
C:\VCPKG\INSTALLED\X64-WINDOWS\INCLUDE\GLM\EXT\VECTOR_UINT2_SIZED.HPP
C:\VCPKG\INSTALLED\X64-WINDOWS\INCLUDE\GLM\EXT\SCALAR_UINT_SIZED.HPP
C:\VCPKG\INSTALLED\X64-WINDOWS\INCLUDE\GLM\VEC3.HPP
C:\VCPKG\INSTALLED\X64-WINDOWS\INCLUDE\GLM\EXT\VECTOR_BOOL3.HPP
C:\VCPKG\INSTALLED\X64-WINDOWS\INCLUDE\GLM\DETAIL\TYPE_VEC3.HPP
C:\VCPKG\INSTALLED\X64-WINDOWS\INCLUDE\GLM\DETAIL\TYPE_VEC3.INL
C:\VCPKG\INSTALLED\X64-WINDOWS\INCLUDE\GLM\EXT\VECTOR_BOOL3_PRECISION.HPP
C:\VCPKG\INSTALLED\X64-WINDOWS\INCLUDE\GLM\EXT\VECTOR_FLOAT3.HPP
C:\VCPKG\INSTALLED\X64-WINDOWS\INCLUDE\GLM\EXT\VECTOR_FLOAT3_PRECISION.HPP
C:\VCPKG\INSTALLED\X64-WINDOWS\INCLUDE\GLM\EXT\VECTOR_DOUBLE3.HPP
C:\VCPKG\INSTALLED\X64-WINDOWS\INCLUDE\GLM\EXT\VECTOR_DOUBLE3_PRECISION.HPP
C:\VCPKG\INSTALLED\X64-WINDOWS\INCLUDE\GLM\EXT\VECTOR_INT3.HPP
C:\VCPKG\INSTALLED\X64-WINDOWS\INCLUDE\GLM\EXT\VECTOR_INT3_SIZED.HPP
C:\VCPKG\INSTALLED\X64-WINDOWS\INCLUDE\GLM\EXT\VECTOR_UINT3.HPP
C:\VCPKG\INSTALLED\X64-WINDOWS\INCLUDE\GLM\EXT\VECTOR_UINT3_SIZED.HPP
C:\VCPKG\INSTALLED\X64-WINDOWS\INCLUDE\GLM\VEC4.HPP
C:\VCPKG\INSTALLED\X64-WINDOWS\INCLUDE\GLM\EXT\VECTOR_BOOL4.HPP
C:\VCPKG\INSTALLED\X64-WINDOWS\INCLUDE\GLM\DETAIL\TYPE_VEC4.HPP
C:\VCPKG\INSTALLED\X64-WINDOWS\INCLUDE\GLM\DETAIL\TYPE_VEC4.INL
C:\VCPKG\INSTALLED\X64-WINDOWS\INCLUDE\GLM\EXT\VECTOR_BOOL4_PRECISION.HPP
C:\VCPKG\INSTALLED\X64-WINDOWS\INCLUDE\GLM\EXT\VECTOR_FLOAT4.HPP
C:\VCPKG\INSTALLED\X64-WINDOWS\INCLUDE\GLM\EXT\VECTOR_FLOAT4_PRECISION.HPP
C:\VCPKG\INSTALLED\X64-WINDOWS\INCLUDE\GLM\EXT\VECTOR_DOUBLE4.HPP
C:\VCPKG\INSTALLED\X64-WINDOWS\INCLUDE\GLM\EXT\VECTOR_DOUBLE4_PRECISION.HPP
C:\VCPKG\INSTALLED\X64-WINDOWS\INCLUDE\GLM\EXT\VECTOR_INT4.HPP
C:\VCPKG\INSTALLED\X64-WINDOWS\INCLUDE\GLM\EXT\VECTOR_INT4_SIZED.HPP
C:\VCPKG\INSTALLED\X64-WINDOWS\INCLUDE\GLM\EXT\VECTOR_UINT4.HPP
C:\VCPKG\INSTALLED\X64-WINDOWS\INCLUDE\GLM\EXT\VECTOR_UINT4_SIZED.HPP
C:\VCPKG\INSTALLED\X64-WINDOWS\INCLUDE\GLM\MAT2X2.HPP
C:\VCPKG\INSTALLED\X64-WINDOWS\INCLUDE\GLM\EXT\MATRIX_DOUBLE2X2.HPP
C:\VCPKG\INSTALLED\X64-WINDOWS\INCLUDE\GLM\DETAIL\TYPE_MAT2X2.HPP
C:\VCPKG\INSTALLED\X64-WINDOWS\INCLUDE\GLM\DETAIL\TYPE_MAT2X2.INL
C:\VCPKG\INSTALLED\X64-WINDOWS\INCLUDE\GLM\MATRIX.HPP
C:\VCPKG\INSTALLED\X64-WINDOWS\INCLUDE\GLM\MAT2X3.HPP
C:\VCPKG\INSTALLED\X64-WINDOWS\INCLUDE\GLM\EXT\MATRIX_DOUBLE2X3.HPP
C:\VCPKG\INSTALLED\X64-WINDOWS\INCLUDE\GLM\DETAIL\TYPE_MAT2X3.HPP
C:\VCPKG\INSTALLED\X64-WINDOWS\INCLUDE\GLM\DETAIL\TYPE_MAT2X3.INL
C:\VCPKG\INSTALLED\X64-WINDOWS\INCLUDE\GLM\EXT\MATRIX_DOUBLE2X3_PRECISION.HPP
C:\VCPKG\INSTALLED\X64-WINDOWS\INCLUDE\GLM\EXT\MATRIX_FLOAT2X3.HPP
C:\VCPKG\INSTALLED\X64-WINDOWS\INCLUDE\GLM\EXT\MATRIX_FLOAT2X3_PRECISION.HPP
C:\VCPKG\INSTALLED\X64-WINDOWS\INCLUDE\GLM\MAT2X4.HPP
C:\VCPKG\INSTALLED\X64-WINDOWS\INCLUDE\GLM\EXT\MATRIX_DOUBLE2X4.HPP
C:\VCPKG\INSTALLED\X64-WINDOWS\INCLUDE\GLM\DETAIL\TYPE_MAT2X4.HPP
C:\VCPKG\INSTALLED\X64-WINDOWS\INCLUDE\GLM\DETAIL\TYPE_MAT2X4.INL
C:\VCPKG\INSTALLED\X64-WINDOWS\INCLUDE\GLM\EXT\MATRIX_DOUBLE2X4_PRECISION.HPP
C:\VCPKG\INSTALLED\X64-WINDOWS\INCLUDE\GLM\EXT\MATRIX_FLOAT2X4.HPP
C:\VCPKG\INSTALLED\X64-WINDOWS\INCLUDE\GLM\EXT\MATRIX_FLOAT2X4_PRECISION.HPP
C:\VCPKG\INSTALLED\X64-WINDOWS\INCLUDE\GLM\MAT3X2.HPP
C:\VCPKG\INSTALLED\X64-WINDOWS\INCLUDE\GLM\EXT\MATRIX_DOUBLE3X2.HPP
C:\VCPKG\INSTALLED\X64-WINDOWS\INCLUDE\GLM\DETAIL\TYPE_MAT3X2.HPP
C:\VCPKG\INSTALLED\X64-WINDOWS\INCLUDE\GLM\DETAIL\TYPE_MAT3X2.INL
C:\VCPKG\INSTALLED\X64-WINDOWS\INCLUDE\GLM\EXT\MATRIX_DOUBLE3X2_PRECISION.HPP
C:\VCPKG\INSTALLED\X64-WINDOWS\INCLUDE\GLM\EXT\MATRIX_FLOAT3X2.HPP
C:\VCPKG\INSTALLED\X64-WINDOWS\INCLUDE\GLM\EXT\MATRIX_FLOAT3X2_PRECISION.HPP
C:\VCPKG\INSTALLED\X64-WINDOWS\INCLUDE\GLM\MAT3X3.HPP
C:\VCPKG\INSTALLED\X64-WINDOWS\INCLUDE\GLM\EXT\MATRIX_DOUBLE3X3.HPP
C:\VCPKG\INSTALLED\X64-WINDOWS\INCLUDE\GLM\DETAIL\TYPE_MAT3X3.HPP
C:\VCPKG\INSTALLED\X64-WINDOWS\INCLUDE\GLM\DETAIL\TYPE_MAT3X3.INL
C:\VCPKG\INSTALLED\X64-WINDOWS\INCLUDE\GLM\EXT\MATRIX_DOUBLE3X3_PRECISION.HPP
C:\VCPKG\INSTALLED\X64-WINDOWS\INCLUDE\GLM\EXT\MATRIX_FLOAT3X3.HPP
C:\VCPKG\INSTALLED\X64-WINDOWS\INCLUDE\GLM\EXT\MATRIX_FLOAT3X3_PRECISION.HPP
C:\VCPKG\INSTALLED\X64-WINDOWS\INCLUDE\GLM\MAT3X4.HPP
C:\VCPKG\INSTALLED\X64-WINDOWS\INCLUDE\GLM\EXT\MATRIX_DOUBLE3X4.HPP
C:\VCPKG\INSTALLED\X64-WINDOWS\INCLUDE\GLM\DETAIL\TYPE_MAT3X4.HPP
C:\VCPKG\INSTALLED\X64-WINDOWS\INCLUDE\GLM\DETAIL\TYPE_MAT3X4.INL
C:\VCPKG\INSTALLED\X64-WINDOWS\INCLUDE\GLM\EXT\MATRIX_DOUBLE3X4_PRECISION.HPP
C:\VCPKG\INSTALLED\X64-WINDOWS\INCLUDE\GLM\EXT\MATRIX_FLOAT3X4.HPP
C:\VCPKG\INSTALLED\X64-WINDOWS\INCLUDE\GLM\EXT\MATRIX_FLOAT3X4_PRECISION.HPP
C:\VCPKG\INSTALLED\X64-WINDOWS\INCLUDE\GLM\MAT4X2.HPP
C:\VCPKG\INSTALLED\X64-WINDOWS\INCLUDE\GLM\EXT\MATRIX_DOUBLE4X2.HPP
C:\VCPKG\INSTALLED\X64-WINDOWS\INCLUDE\GLM\DETAIL\TYPE_MAT4X2.HPP
C:\VCPKG\INSTALLED\X64-WINDOWS\INCLUDE\GLM\DETAIL\TYPE_MAT4X2.INL
C:\VCPKG\INSTALLED\X64-WINDOWS\INCLUDE\GLM\EXT\MATRIX_DOUBLE4X2_PRECISION.HPP
C:\VCPKG\INSTALLED\X64-WINDOWS\INCLUDE\GLM\EXT\MATRIX_FLOAT4X2.HPP
C:\VCPKG\INSTALLED\X64-WINDOWS\INCLUDE\GLM\EXT\MATRIX_FLOAT4X2_PRECISION.HPP
C:\VCPKG\INSTALLED\X64-WINDOWS\INCLUDE\GLM\MAT4X3.HPP
C:\VCPKG\INSTALLED\X64-WINDOWS\INCLUDE\GLM\EXT\MATRIX_DOUBLE4X3.HPP
C:\VCPKG\INSTALLED\X64-WINDOWS\INCLUDE\GLM\DETAIL\TYPE_MAT4X3.HPP
C:\VCPKG\INSTALLED\X64-WINDOWS\INCLUDE\GLM\DETAIL\TYPE_MAT4X3.INL
C:\VCPKG\INSTALLED\X64-WINDOWS\INCLUDE\GLM\EXT\MATRIX_DOUBLE4X3_PRECISION.HPP
C:\VCPKG\INSTALLED\X64-WINDOWS\INCLUDE\GLM\EXT\MATRIX_FLOAT4X3.HPP
C:\VCPKG\INSTALLED\X64-WINDOWS\INCLUDE\GLM\EXT\MATRIX_FLOAT4X3_PRECISION.HPP
C:\VCPKG\INSTALLED\X64-WINDOWS\INCLUDE\GLM\MAT4X4.HPP
C:\VCPKG\INSTALLED\X64-WINDOWS\INCLUDE\GLM\EXT\MATRIX_DOUBLE4X4.HPP
C:\VCPKG\INSTALLED\X64-WINDOWS\INCLUDE\GLM\DETAIL\TYPE_MAT4X4.HPP
C:\VCPKG\INSTALLED\X64-WINDOWS\INCLUDE\GLM\DETAIL\TYPE_MAT4X4.INL
C:\VCPKG\INSTALLED\X64-WINDOWS\INCLUDE\GLM\EXT\MATRIX_DOUBLE4X4_PRECISION.HPP
C:\VCPKG\INSTALLED\X64-WINDOWS\INCLUDE\GLM\EXT\MATRIX_FLOAT4X4.HPP
C:\VCPKG\INSTALLED\X64-WINDOWS\INCLUDE\GLM\EXT\MATRIX_FLOAT4X4_PRECISION.HPP
C:\VCPKG\INSTALLED\X64-WINDOWS\INCLUDE\GLM\DETAIL\FUNC_MATRIX.INL
C:\VCPKG\INSTALLED\X64-WINDOWS\INCLUDE\GLM\GEOMETRIC.HPP
C:\VCPKG\INSTALLED\X64-WINDOWS\INCLUDE\GLM\DETAIL\FUNC_GEOMETRIC.INL
C:\VCPKG\INSTALLED\X64-WINDOWS\INCLUDE\GLM\EXPONENTIAL.HPP
C:\VCPKG\INSTALLED\X64-WINDOWS\INCLUDE\GLM\DETAIL\TYPE_VEC1.HPP
C:\VCPKG\INSTALLED\X64-WINDOWS\INCLUDE\GLM\DETAIL\TYPE_VEC1.INL
C:\VCPKG\INSTALLED\X64-WINDOWS\INCLUDE\GLM\DETAIL\FUNC_EXPONENTIAL.INL
C:\VCPKG\INSTALLED\X64-WINDOWS\INCLUDE\GLM\VECTOR_RELATIONAL.HPP
C:\VCPKG\INSTALLED\X64-WINDOWS\INCLUDE\GLM\DETAIL\FUNC_VECTOR_RELATIONAL.INL
C:\VCPKG\INSTALLED\X64-WINDOWS\INCLUDE\GLM\DETAIL\_VECTORIZE.HPP
C:\VCPKG\INSTALLED\X64-WINDOWS\INCLUDE\GLM\COMMON.HPP
C:\VCPKG\INSTALLED\X64-WINDOWS\INCLUDE\GLM\DETAIL\FUNC_COMMON.INL
C:\VCPKG\INSTALLED\X64-WINDOWS\INCLUDE\GLM\DETAIL\COMPUTE_COMMON.HPP
C:\VCPKG\INSTALLED\X64-WINDOWS\INCLUDE\GLM\EXT\MATRIX_DOUBLE2X2_PRECISION.HPP
C:\VCPKG\INSTALLED\X64-WINDOWS\INCLUDE\GLM\EXT\MATRIX_FLOAT2X2.HPP
C:\VCPKG\INSTALLED\X64-WINDOWS\INCLUDE\GLM\EXT\MATRIX_FLOAT2X2_PRECISION.HPP
C:\VCPKG\INSTALLED\X64-WINDOWS\INCLUDE\GLM\TRIGONOMETRIC.HPP
C:\VCPKG\INSTALLED\X64-WINDOWS\INCLUDE\GLM\DETAIL\FUNC_TRIGONOMETRIC.INL
C:\VCPKG\INSTALLED\X64-WINDOWS\INCLUDE\GLM\PACKING.HPP
C:\VCPKG\INSTALLED\X64-WINDOWS\INCLUDE\GLM\DETAIL\FUNC_PACKING.INL
C:\VCPKG\INSTALLED\X64-WINDOWS\INCLUDE\GLM\DETAIL\TYPE_HALF.HPP
C:\VCPKG\INSTALLED\X64-WINDOWS\INCLUDE\GLM\DETAIL\TYPE_HALF.INL
C:\VCPKG\INSTALLED\X64-WINDOWS\INCLUDE\GLM\INTEGER.HPP
C:\VCPKG\INSTALLED\X64-WINDOWS\INCLUDE\GLM\DETAIL\FUNC_INTEGER.INL
C:\PROGRAM FILES\MICROSOFT VISUAL STUDIO\2022\COMMUNITY\VC\TOOLS\MSVC\14.33.31629\INCLUDE\INTRIN.H
C:\PROGRAM FILES\MICROSOFT VISUAL STUDIO\2022\COMMUNITY\VC\TOOLS\MSVC\14.33.31629\INCLUDE\SETJMP.H
C:\PROGRAM FILES\MICROSOFT VISUAL STUDIO\2022\COMMUNITY\VC\TOOLS\MSVC\14.33.31629\INCLUDE\IMMINTRIN.H
C:\PROGRAM FILES\MICROSOFT VISUAL STUDIO\2022\COMMUNITY\VC\TOOLS\MSVC\14.33.31629\INCLUDE\WMMINTRIN.H
C:\PROGRAM FILES\MICROSOFT VISUAL STUDIO\2022\COMMUNITY\VC\TOOLS\MSVC\14.33.31629\INCLUDE\NMMINTRIN.H
C:\PROGRAM FILES\MICROSOFT VISUAL STUDIO\2022\COMMUNITY\VC\TOOLS\MSVC\14.33.31629\INCLUDE\SMMINTRIN.H
C:\PROGRAM FILES\MICROSOFT VISUAL STUDIO\2022\COMMUNITY\VC\TOOLS\MSVC\14.33.31629\INCLUDE\TMMINTRIN.H
C:\PROGRAM FILES\MICROSOFT VISUAL STUDIO\2022\COMMUNITY\VC\TOOLS\MSVC\14.33.31629\INCLUDE\PMMINTRIN.H
C:\PROGRAM FILES\MICROSOFT VISUAL STUDIO\2022\COMMUNITY\VC\TOOLS\MSVC\14.33.31629\INCLUDE\EMMINTRIN.H
C:\PROGRAM FILES\MICROSOFT VISUAL STUDIO\2022\COMMUNITY\VC\TOOLS\MSVC\14.33.31629\INCLUDE\XMMINTRIN.H
C:\PROGRAM FILES\MICROSOFT VISUAL STUDIO\2022\COMMUNITY\VC\TOOLS\MSVC\14.33.31629\INCLUDE\MMINTRIN.H
C:\PROGRAM FILES\MICROSOFT VISUAL STUDIO\2022\COMMUNITY\VC\TOOLS\MSVC\14.33.31629\INCLUDE\ZMMINTRIN.H
C:\PROGRAM FILES\MICROSOFT VISUAL STUDIO\2022\COMMUNITY\VC\TOOLS\MSVC\14.33.31629\INCLUDE\AMMINTRIN.H
C:\PROGRAM FILES\MICROSOFT VISUAL STUDIO\2022\COMMUNITY\VC\TOOLS\MSVC\14.33.31629\INCLUDE\UNORDERED_MAP
C:\PROGRAM FILES\MICROSOFT VISUAL STUDIO\2022\COMMUNITY\VC\TOOLS\MSVC\14.33.31629\INCLUDE\XHASH
C:\PROGRAM FILES\MICROSOFT VISUAL STUDIO\2022\COMMUNITY\VC\TOOLS\MSVC\14.33.31629\INCLUDE\LIST
C:\PROGRAM FILES\MICROSOFT VISUAL STUDIO\2022\COMMUNITY\VC\TOOLS\MSVC\14.33.31629\INCLUDE\TUPLE
C:\PROGRAM FILES\MICROSOFT VISUAL STUDIO\2022\COMMUNITY\VC\TOOLS\MSVC\14.33.31629\INCLUDE\XBIT_OPS.H
C:\VCPKG\INSTALLED\X64-WINDOWS\INCLUDE\GLFW\GLFW3.H
^C:\USERS\TIAZA\DOCUMENTS\ENSG\ING3\OPENGL\PERFECTOPENGL\3-STATIC-SHAPES-USING-SHADER\3-STATIC-SHAPES-USING-SHADER\VERTEXARRAY.CPP
C:\USERS\TIAZA\DOCUMENTS\ENSG\ING3\OPENGL\PERFECTOPENGL\3-STATIC-SHAPES-USING-SHADER\3-STATIC-SHAPES-USING-SHADER\VERTEXARRAY.H
C:\VCPKG\INSTALLED\X64-WINDOWS\INCLUDE\GL\GLEW.H
C:\VCPKG\INSTALLED\X64-WINDOWS\INCLUDE\GL\GLU.H
C:\PROGRAM FILES (X86)\WINDOWS KITS\10\INCLUDE\10.0.19041.0\SHARED\WINAPIFAMILY.H
C:\PROGRAM FILES (X86)\WINDOWS KITS\10\INCLUDE\10.0.19041.0\SHARED\WINPACKAGEFAMILY.H
C:\VCPKG\INSTALLED\X64-WINDOWS\INCLUDE\GL\GL.H
C:\VCPKG\INSTALLED\X64-WINDOWS\INCLUDE\GLFW\GLFW3.H
C:\PROGRAM FILES (X86)\WINDOWS KITS\10\INCLUDE\10.0.19041.0\UCRT\STDDEF.H
C:\PROGRAM FILES (X86)\WINDOWS KITS\10\INCLUDE\10.0.19041.0\UCRT\CORECRT.H
C:\PROGRAM FILES\MICROSOFT VISUAL STUDIO\2022\COMMUNITY\VC\TOOLS\MSVC\14.33.31629\INCLUDE\VCRUNTIME.H
C:\PROGRAM FILES\MICROSOFT VISUAL STUDIO\2022\COMMUNITY\VC\TOOLS\MSVC\14.33.31629\INCLUDE\SAL.H
C:\PROGRAM FILES\MICROSOFT VISUAL STUDIO\2022\COMMUNITY\VC\TOOLS\MSVC\14.33.31629\INCLUDE\CONCURRENCYSAL.H
C:\PROGRAM FILES\MICROSOFT VISUAL STUDIO\2022\COMMUNITY\VC\TOOLS\MSVC\14.33.31629\INCLUDE\VADEFS.H
C:\PROGRAM FILES\MICROSOFT VISUAL STUDIO\2022\COMMUNITY\VC\TOOLS\MSVC\14.33.31629\INCLUDE\STDINT.H
^C:\USERS\TIAZA\DOCUMENTS\ENSG\ING3\OPENGL\PERFECTOPENGL\3-STATIC-SHAPES-USING-SHADER\3-STATIC-SHAPES-USING-SHADER\SIMPLESTATICSHAPE.CPP
C:\USERS\TIAZA\DOCUMENTS\ENSG\ING3\OPENGL\PERFECTOPENGL\3-STATIC-SHAPES-USING-SHADER\3-STATIC-SHAPES-USING-SHADER\SIMPLESTATICSHAPE.H
C:\VCPKG\INSTALLED\X64-WINDOWS\INCLUDE\GLM\GLM.HPP
C:\VCPKG\INSTALLED\X64-WINDOWS\INCLUDE\GLM\DETAIL\_FIXES.HPP
C:\PROGRAM FILES\MICROSOFT VISUAL STUDIO\2022\COMMUNITY\VC\TOOLS\MSVC\14.33.31629\INCLUDE\CMATH
C:\PROGRAM FILES\MICROSOFT VISUAL STUDIO\2022\COMMUNITY\VC\TOOLS\MSVC\14.33.31629\INCLUDE\YVALS.H
C:\PROGRAM FILES\MICROSOFT VISUAL STUDIO\2022\COMMUNITY\VC\TOOLS\MSVC\14.33.31629\INCLUDE\YVALS_CORE.H
C:\PROGRAM FILES\MICROSOFT VISUAL STUDIO\2022\COMMUNITY\VC\TOOLS\MSVC\14.33.31629\INCLUDE\VCRUNTIME.H
C:\PROGRAM FILES\MICROSOFT VISUAL STUDIO\2022\COMMUNITY\VC\TOOLS\MSVC\14.33.31629\INCLUDE\SAL.H
C:\PROGRAM FILES\MICROSOFT VISUAL STUDIO\2022\COMMUNITY\VC\TOOLS\MSVC\14.33.31629\INCLUDE\CONCURRENCYSAL.H
C:\PROGRAM FILES\MICROSOFT VISUAL STUDIO\2022\COMMUNITY\VC\TOOLS\MSVC\14.33.31629\INCLUDE\VADEFS.H
C:\PROGRAM FILES\MICROSOFT VISUAL STUDIO\2022\COMMUNITY\VC\TOOLS\MSVC\14.33.31629\INCLUDE\XKEYCHECK.H
C:\PROGRAM FILES (X86)\WINDOWS KITS\10\INCLUDE\10.0.19041.0\UCRT\CRTDBG.H
C:\PROGRAM FILES (X86)\WINDOWS KITS\10\INCLUDE\10.0.19041.0\UCRT\CORECRT.H
C:\PROGRAM FILES\MICROSOFT VISUAL STUDIO\2022\COMMUNITY\VC\TOOLS\MSVC\14.33.31629\INCLUDE\VCRUNTIME_NEW_DEBUG.H
C:\PROGRAM FILES\MICROSOFT VISUAL STUDIO\2022\COMMUNITY\VC\TOOLS\MSVC\14.33.31629\INCLUDE\VCRUNTIME_NEW.H
C:\PROGRAM FILES\MICROSOFT VISUAL STUDIO\2022\COMMUNITY\VC\TOOLS\MSVC\14.33.31629\INCLUDE\CRTDEFS.H
C:\PROGRAM FILES\MICROSOFT VISUAL STUDIO\2022\COMMUNITY\VC\TOOLS\MSVC\14.33.31629\INCLUDE\USE_ANSI.H
C:\PROGRAM FILES\MICROSOFT VISUAL STUDIO\2022\COMMUNITY\VC\TOOLS\MSVC\14.33.31629\INCLUDE\CSTDLIB
C:\PROGRAM FILES (X86)\WINDOWS KITS\10\INCLUDE\10.0.19041.0\UCRT\MATH.H
C:\PROGRAM FILES (X86)\WINDOWS KITS\10\INCLUDE\10.0.19041.0\UCRT\CORECRT_MATH.H
C:\PROGRAM FILES (X86)\WINDOWS KITS\10\INCLUDE\10.0.19041.0\UCRT\STDLIB.H
C:\PROGRAM FILES (X86)\WINDOWS KITS\10\INCLUDE\10.0.19041.0\UCRT\CORECRT_MALLOC.H
C:\PROGRAM FILES (X86)\WINDOWS KITS\10\INCLUDE\10.0.19041.0\UCRT\CORECRT_SEARCH.H
C:\PROGRAM FILES (X86)\WINDOWS KITS\10\INCLUDE\10.0.19041.0\UCRT\STDDEF.H
C:\PROGRAM FILES (X86)\WINDOWS KITS\10\INCLUDE\10.0.19041.0\UCRT\CORECRT_WSTDLIB.H
C:\PROGRAM FILES\MICROSOFT VISUAL STUDIO\2022\COMMUNITY\VC\TOOLS\MSVC\14.33.31629\INCLUDE\LIMITS.H
C:\PROGRAM FILES\MICROSOFT VISUAL STUDIO\2022\COMMUNITY\VC\TOOLS\MSVC\14.33.31629\INCLUDE\XTR1COMMON
C:\PROGRAM FILES\MICROSOFT VISUAL STUDIO\2022\COMMUNITY\VC\TOOLS\MSVC\14.33.31629\INCLUDE\INTRIN0.H
C:\PROGRAM FILES\MICROSOFT VISUAL STUDIO\2022\COMMUNITY\VC\TOOLS\MSVC\14.33.31629\INCLUDE\INTRIN0.INL.H
C:\VCPKG\INSTALLED\X64-WINDOWS\INCLUDE\GLM\DETAIL\SETUP.HPP
C:\PROGRAM FILES\MICROSOFT VISUAL STUDIO\2022\COMMUNITY\VC\TOOLS\MSVC\14.33.31629\INCLUDE\CASSERT
C:\PROGRAM FILES (X86)\WINDOWS KITS\10\INCLUDE\10.0.19041.0\UCRT\ASSERT.H
C:\PROGRAM FILES\MICROSOFT VISUAL STUDIO\2022\COMMUNITY\VC\TOOLS\MSVC\14.33.31629\INCLUDE\CSTDDEF
C:\VCPKG\INSTALLED\X64-WINDOWS\INCLUDE\GLM\SIMD\PLATFORM.H
C:\PROGRAM FILES\MICROSOFT VISUAL STUDIO\2022\COMMUNITY\VC\TOOLS\MSVC\14.33.31629\INCLUDE\CSTDINT
C:\PROGRAM FILES\MICROSOFT VISUAL STUDIO\2022\COMMUNITY\VC\TOOLS\MSVC\14.33.31629\INCLUDE\STDINT.H
C:\PROGRAM FILES\MICROSOFT VISUAL STUDIO\2022\COMMUNITY\VC\TOOLS\MSVC\14.33.31629\INCLUDE\TYPE_TRAITS
C:\PROGRAM FILES\MICROSOFT VISUAL STUDIO\2022\COMMUNITY\VC\TOOLS\MSVC\14.33.31629\INCLUDE\XSTDDEF
C:\PROGRAM FILES\MICROSOFT VISUAL STUDIO\2022\COMMUNITY\VC\TOOLS\MSVC\14.33.31629\INCLUDE\INITIALIZER_LIST
C:\PROGRAM FILES\MICROSOFT VISUAL STUDIO\2022\COMMUNITY\VC\TOOLS\MSVC\14.33.31629\INCLUDE\CLIMITS
C:\PROGRAM FILES\MICROSOFT VISUAL STUDIO\2022\COMMUNITY\VC\TOOLS\MSVC\14.33.31629\INCLUDE\CFLOAT
C:\PROGRAM FILES (X86)\WINDOWS KITS\10\INCLUDE\10.0.19041.0\UCRT\FLOAT.H
C:\PROGRAM FILES\MICROSOFT VISUAL STUDIO\2022\COMMUNITY\VC\TOOLS\MSVC\14.33.31629\INCLUDE\LIMITS
C:\PROGRAM FILES\MICROSOFT VISUAL STUDIO\2022\COMMUNITY\VC\TOOLS\MSVC\14.33.31629\INCLUDE\CWCHAR
C:\PROGRAM FILES\MICROSOFT VISUAL STUDIO\2022\COMMUNITY\VC\TOOLS\MSVC\14.33.31629\INCLUDE\CSTDIO
C:\PROGRAM FILES (X86)\WINDOWS KITS\10\INCLUDE\10.0.19041.0\UCRT\STDIO.H
C:\PROGRAM FILES (X86)\WINDOWS KITS\10\INCLUDE\10.0.19041.0\UCRT\CORECRT_WSTDIO.H
C:\PROGRAM FILES (X86)\WINDOWS KITS\10\INCLUDE\10.0.19041.0\UCRT\CORECRT_STDIO_CONFIG.H
C:\PROGRAM FILES (X86)\WINDOWS KITS\10\INCLUDE\10.0.19041.0\UCRT\WCHAR.H
C:\PROGRAM FILES (X86)\WINDOWS KITS\10\INCLUDE\10.0.19041.0\UCRT\CORECRT_MEMCPY_S.H
C:\PROGRAM FILES (X86)\WINDOWS KITS\10\INCLUDE\10.0.19041.0\UCRT\ERRNO.H
C:\PROGRAM FILES\MICROSOFT VISUAL STUDIO\2022\COMMUNITY\VC\TOOLS\MSVC\14.33.31629\INCLUDE\VCRUNTIME_STRING.H
C:\PROGRAM FILES (X86)\WINDOWS KITS\10\INCLUDE\10.0.19041.0\UCRT\CORECRT_WCONIO.H
C:\PROGRAM FILES (X86)\WINDOWS KITS\10\INCLUDE\10.0.19041.0\UCRT\CORECRT_WCTYPE.H
C:\PROGRAM FILES (X86)\WINDOWS KITS\10\INCLUDE\10.0.19041.0\UCRT\CORECRT_WDIRECT.H
C:\PROGRAM FILES (X86)\WINDOWS KITS\10\INCLUDE\10.0.19041.0\UCRT\CORECRT_WIO.H
C:\PROGRAM FILES (X86)\WINDOWS KITS\10\INCLUDE\10.0.19041.0\UCRT\CORECRT_SHARE.H
C:\PROGRAM FILES (X86)\WINDOWS KITS\10\INCLUDE\10.0.19041.0\UCRT\CORECRT_WPROCESS.H
C:\PROGRAM FILES (X86)\WINDOWS KITS\10\INCLUDE\10.0.19041.0\UCRT\CORECRT_WSTRING.H
C:\PROGRAM FILES (X86)\WINDOWS KITS\10\INCLUDE\10.0.19041.0\UCRT\CORECRT_WTIME.H
C:\PROGRAM FILES (X86)\WINDOWS KITS\10\INCLUDE\10.0.19041.0\UCRT\SYS\STAT.H
C:\PROGRAM FILES (X86)\WINDOWS KITS\10\INCLUDE\10.0.19041.0\UCRT\SYS\TYPES.H
C:\PROGRAM FILES\MICROSOFT VISUAL STUDIO\2022\COMMUNITY\VC\TOOLS\MSVC\14.33.31629\INCLUDE\ISA_AVAILABILITY.H
C:\VCPKG\INSTALLED\X64-WINDOWS\INCLUDE\GLM\FWD.HPP
C:\VCPKG\INSTALLED\X64-WINDOWS\INCLUDE\GLM\DETAIL\QUALIFIER.HPP
C:\VCPKG\INSTALLED\X64-WINDOWS\INCLUDE\GLM\VEC2.HPP
C:\VCPKG\INSTALLED\X64-WINDOWS\INCLUDE\GLM\EXT\VECTOR_BOOL2.HPP
C:\VCPKG\INSTALLED\X64-WINDOWS\INCLUDE\GLM\DETAIL\TYPE_VEC2.HPP
C:\VCPKG\INSTALLED\X64-WINDOWS\INCLUDE\GLM\DETAIL\TYPE_VEC2.INL
C:\VCPKG\INSTALLED\X64-WINDOWS\INCLUDE\GLM\DETAIL\COMPUTE_VECTOR_RELATIONAL.HPP
C:\VCPKG\INSTALLED\X64-WINDOWS\INCLUDE\GLM\EXT\VECTOR_BOOL2_PRECISION.HPP
C:\VCPKG\INSTALLED\X64-WINDOWS\INCLUDE\GLM\EXT\VECTOR_FLOAT2.HPP
C:\VCPKG\INSTALLED\X64-WINDOWS\INCLUDE\GLM\EXT\VECTOR_FLOAT2_PRECISION.HPP
C:\VCPKG\INSTALLED\X64-WINDOWS\INCLUDE\GLM\EXT\VECTOR_DOUBLE2.HPP
C:\VCPKG\INSTALLED\X64-WINDOWS\INCLUDE\GLM\EXT\VECTOR_DOUBLE2_PRECISION.HPP
C:\VCPKG\INSTALLED\X64-WINDOWS\INCLUDE\GLM\EXT\VECTOR_INT2.HPP
C:\VCPKG\INSTALLED\X64-WINDOWS\INCLUDE\GLM\EXT\VECTOR_INT2_SIZED.HPP
C:\VCPKG\INSTALLED\X64-WINDOWS\INCLUDE\GLM\EXT\SCALAR_INT_SIZED.HPP
C:\VCPKG\INSTALLED\X64-WINDOWS\INCLUDE\GLM\EXT\VECTOR_UINT2.HPP
C:\VCPKG\INSTALLED\X64-WINDOWS\INCLUDE\GLM\EXT\VECTOR_UINT2_SIZED.HPP
C:\VCPKG\INSTALLED\X64-WINDOWS\INCLUDE\GLM\EXT\SCALAR_UINT_SIZED.HPP
C:\VCPKG\INSTALLED\X64-WINDOWS\INCLUDE\GLM\VEC3.HPP
C:\VCPKG\INSTALLED\X64-WINDOWS\INCLUDE\GLM\EXT\VECTOR_BOOL3.HPP
C:\VCPKG\INSTALLED\X64-WINDOWS\INCLUDE\GLM\DETAIL\TYPE_VEC3.HPP
C:\VCPKG\INSTALLED\X64-WINDOWS\INCLUDE\GLM\DETAIL\TYPE_VEC3.INL
C:\VCPKG\INSTALLED\X64-WINDOWS\INCLUDE\GLM\EXT\VECTOR_BOOL3_PRECISION.HPP
C:\VCPKG\INSTALLED\X64-WINDOWS\INCLUDE\GLM\EXT\VECTOR_FLOAT3.HPP
C:\VCPKG\INSTALLED\X64-WINDOWS\INCLUDE\GLM\EXT\VECTOR_FLOAT3_PRECISION.HPP
C:\VCPKG\INSTALLED\X64-WINDOWS\INCLUDE\GLM\EXT\VECTOR_DOUBLE3.HPP
C:\VCPKG\INSTALLED\X64-WINDOWS\INCLUDE\GLM\EXT\VECTOR_DOUBLE3_PRECISION.HPP
C:\VCPKG\INSTALLED\X64-WINDOWS\INCLUDE\GLM\EXT\VECTOR_INT3.HPP
C:\VCPKG\INSTALLED\X64-WINDOWS\INCLUDE\GLM\EXT\VECTOR_INT3_SIZED.HPP
C:\VCPKG\INSTALLED\X64-WINDOWS\INCLUDE\GLM\EXT\VECTOR_UINT3.HPP
C:\VCPKG\INSTALLED\X64-WINDOWS\INCLUDE\GLM\EXT\VECTOR_UINT3_SIZED.HPP
C:\VCPKG\INSTALLED\X64-WINDOWS\INCLUDE\GLM\VEC4.HPP
C:\VCPKG\INSTALLED\X64-WINDOWS\INCLUDE\GLM\EXT\VECTOR_BOOL4.HPP
C:\VCPKG\INSTALLED\X64-WINDOWS\INCLUDE\GLM\DETAIL\TYPE_VEC4.HPP
C:\VCPKG\INSTALLED\X64-WINDOWS\INCLUDE\GLM\DETAIL\TYPE_VEC4.INL
C:\VCPKG\INSTALLED\X64-WINDOWS\INCLUDE\GLM\EXT\VECTOR_BOOL4_PRECISION.HPP
C:\VCPKG\INSTALLED\X64-WINDOWS\INCLUDE\GLM\EXT\VECTOR_FLOAT4.HPP
C:\VCPKG\INSTALLED\X64-WINDOWS\INCLUDE\GLM\EXT\VECTOR_FLOAT4_PRECISION.HPP
C:\VCPKG\INSTALLED\X64-WINDOWS\INCLUDE\GLM\EXT\VECTOR_DOUBLE4.HPP
C:\VCPKG\INSTALLED\X64-WINDOWS\INCLUDE\GLM\EXT\VECTOR_DOUBLE4_PRECISION.HPP
C:\VCPKG\INSTALLED\X64-WINDOWS\INCLUDE\GLM\EXT\VECTOR_INT4.HPP
C:\VCPKG\INSTALLED\X64-WINDOWS\INCLUDE\GLM\EXT\VECTOR_INT4_SIZED.HPP
C:\VCPKG\INSTALLED\X64-WINDOWS\INCLUDE\GLM\EXT\VECTOR_UINT4.HPP
C:\VCPKG\INSTALLED\X64-WINDOWS\INCLUDE\GLM\EXT\VECTOR_UINT4_SIZED.HPP
C:\VCPKG\INSTALLED\X64-WINDOWS\INCLUDE\GLM\MAT2X2.HPP
C:\VCPKG\INSTALLED\X64-WINDOWS\INCLUDE\GLM\EXT\MATRIX_DOUBLE2X2.HPP
C:\VCPKG\INSTALLED\X64-WINDOWS\INCLUDE\GLM\DETAIL\TYPE_MAT2X2.HPP
C:\VCPKG\INSTALLED\X64-WINDOWS\INCLUDE\GLM\DETAIL\TYPE_MAT2X2.INL
C:\VCPKG\INSTALLED\X64-WINDOWS\INCLUDE\GLM\MATRIX.HPP
C:\VCPKG\INSTALLED\X64-WINDOWS\INCLUDE\GLM\MAT2X3.HPP
C:\VCPKG\INSTALLED\X64-WINDOWS\INCLUDE\GLM\EXT\MATRIX_DOUBLE2X3.HPP
C:\VCPKG\INSTALLED\X64-WINDOWS\INCLUDE\GLM\DETAIL\TYPE_MAT2X3.HPP
C:\VCPKG\INSTALLED\X64-WINDOWS\INCLUDE\GLM\DETAIL\TYPE_MAT2X3.INL
C:\VCPKG\INSTALLED\X64-WINDOWS\INCLUDE\GLM\EXT\MATRIX_DOUBLE2X3_PRECISION.HPP
C:\VCPKG\INSTALLED\X64-WINDOWS\INCLUDE\GLM\EXT\MATRIX_FLOAT2X3.HPP
C:\VCPKG\INSTALLED\X64-WINDOWS\INCLUDE\GLM\EXT\MATRIX_FLOAT2X3_PRECISION.HPP
C:\VCPKG\INSTALLED\X64-WINDOWS\INCLUDE\GLM\MAT2X4.HPP
C:\VCPKG\INSTALLED\X64-WINDOWS\INCLUDE\GLM\EXT\MATRIX_DOUBLE2X4.HPP
C:\VCPKG\INSTALLED\X64-WINDOWS\INCLUDE\GLM\DETAIL\TYPE_MAT2X4.HPP
C:\VCPKG\INSTALLED\X64-WINDOWS\INCLUDE\GLM\DETAIL\TYPE_MAT2X4.INL
C:\VCPKG\INSTALLED\X64-WINDOWS\INCLUDE\GLM\EXT\MATRIX_DOUBLE2X4_PRECISION.HPP
C:\VCPKG\INSTALLED\X64-WINDOWS\INCLUDE\GLM\EXT\MATRIX_FLOAT2X4.HPP
C:\VCPKG\INSTALLED\X64-WINDOWS\INCLUDE\GLM\EXT\MATRIX_FLOAT2X4_PRECISION.HPP
C:\VCPKG\INSTALLED\X64-WINDOWS\INCLUDE\GLM\MAT3X2.HPP
C:\VCPKG\INSTALLED\X64-WINDOWS\INCLUDE\GLM\EXT\MATRIX_DOUBLE3X2.HPP
C:\VCPKG\INSTALLED\X64-WINDOWS\INCLUDE\GLM\DETAIL\TYPE_MAT3X2.HPP
C:\VCPKG\INSTALLED\X64-WINDOWS\INCLUDE\GLM\DETAIL\TYPE_MAT3X2.INL
C:\VCPKG\INSTALLED\X64-WINDOWS\INCLUDE\GLM\EXT\MATRIX_DOUBLE3X2_PRECISION.HPP
C:\VCPKG\INSTALLED\X64-WINDOWS\INCLUDE\GLM\EXT\MATRIX_FLOAT3X2.HPP
C:\VCPKG\INSTALLED\X64-WINDOWS\INCLUDE\GLM\EXT\MATRIX_FLOAT3X2_PRECISION.HPP
C:\VCPKG\INSTALLED\X64-WINDOWS\INCLUDE\GLM\MAT3X3.HPP
C:\VCPKG\INSTALLED\X64-WINDOWS\INCLUDE\GLM\EXT\MATRIX_DOUBLE3X3.HPP
C:\VCPKG\INSTALLED\X64-WINDOWS\INCLUDE\GLM\DETAIL\TYPE_MAT3X3.HPP
C:\VCPKG\INSTALLED\X64-WINDOWS\INCLUDE\GLM\DETAIL\TYPE_MAT3X3.INL
C:\VCPKG\INSTALLED\X64-WINDOWS\INCLUDE\GLM\EXT\MATRIX_DOUBLE3X3_PRECISION.HPP
C:\VCPKG\INSTALLED\X64-WINDOWS\INCLUDE\GLM\EXT\MATRIX_FLOAT3X3.HPP
C:\VCPKG\INSTALLED\X64-WINDOWS\INCLUDE\GLM\EXT\MATRIX_FLOAT3X3_PRECISION.HPP
C:\VCPKG\INSTALLED\X64-WINDOWS\INCLUDE\GLM\MAT3X4.HPP
C:\VCPKG\INSTALLED\X64-WINDOWS\INCLUDE\GLM\EXT\MATRIX_DOUBLE3X4.HPP
C:\VCPKG\INSTALLED\X64-WINDOWS\INCLUDE\GLM\DETAIL\TYPE_MAT3X4.HPP
C:\VCPKG\INSTALLED\X64-WINDOWS\INCLUDE\GLM\DETAIL\TYPE_MAT3X4.INL
C:\VCPKG\INSTALLED\X64-WINDOWS\INCLUDE\GLM\EXT\MATRIX_DOUBLE3X4_PRECISION.HPP
C:\VCPKG\INSTALLED\X64-WINDOWS\INCLUDE\GLM\EXT\MATRIX_FLOAT3X4.HPP
C:\VCPKG\INSTALLED\X64-WINDOWS\INCLUDE\GLM\EXT\MATRIX_FLOAT3X4_PRECISION.HPP
C:\VCPKG\INSTALLED\X64-WINDOWS\INCLUDE\GLM\MAT4X2.HPP
C:\VCPKG\INSTALLED\X64-WINDOWS\INCLUDE\GLM\EXT\MATRIX_DOUBLE4X2.HPP
C:\VCPKG\INSTALLED\X64-WINDOWS\INCLUDE\GLM\DETAIL\TYPE_MAT4X2.HPP
C:\VCPKG\INSTALLED\X64-WINDOWS\INCLUDE\GLM\DETAIL\TYPE_MAT4X2.INL
C:\VCPKG\INSTALLED\X64-WINDOWS\INCLUDE\GLM\EXT\MATRIX_DOUBLE4X2_PRECISION.HPP
C:\VCPKG\INSTALLED\X64-WINDOWS\INCLUDE\GLM\EXT\MATRIX_FLOAT4X2.HPP
C:\VCPKG\INSTALLED\X64-WINDOWS\INCLUDE\GLM\EXT\MATRIX_FLOAT4X2_PRECISION.HPP
C:\VCPKG\INSTALLED\X64-WINDOWS\INCLUDE\GLM\MAT4X3.HPP
C:\VCPKG\INSTALLED\X64-WINDOWS\INCLUDE\GLM\EXT\MATRIX_DOUBLE4X3.HPP
C:\VCPKG\INSTALLED\X64-WINDOWS\INCLUDE\GLM\DETAIL\TYPE_MAT4X3.HPP
C:\VCPKG\INSTALLED\X64-WINDOWS\INCLUDE\GLM\DETAIL\TYPE_MAT4X3.INL
C:\VCPKG\INSTALLED\X64-WINDOWS\INCLUDE\GLM\EXT\MATRIX_DOUBLE4X3_PRECISION.HPP
C:\VCPKG\INSTALLED\X64-WINDOWS\INCLUDE\GLM\EXT\MATRIX_FLOAT4X3.HPP
C:\VCPKG\INSTALLED\X64-WINDOWS\INCLUDE\GLM\EXT\MATRIX_FLOAT4X3_PRECISION.HPP
C:\VCPKG\INSTALLED\X64-WINDOWS\INCLUDE\GLM\MAT4X4.HPP
C:\VCPKG\INSTALLED\X64-WINDOWS\INCLUDE\GLM\EXT\MATRIX_DOUBLE4X4.HPP
C:\VCPKG\INSTALLED\X64-WINDOWS\INCLUDE\GLM\DETAIL\TYPE_MAT4X4.HPP
C:\VCPKG\INSTALLED\X64-WINDOWS\INCLUDE\GLM\DETAIL\TYPE_MAT4X4.INL
C:\VCPKG\INSTALLED\X64-WINDOWS\INCLUDE\GLM\EXT\MATRIX_DOUBLE4X4_PRECISION.HPP
C:\VCPKG\INSTALLED\X64-WINDOWS\INCLUDE\GLM\EXT\MATRIX_FLOAT4X4.HPP
C:\VCPKG\INSTALLED\X64-WINDOWS\INCLUDE\GLM\EXT\MATRIX_FLOAT4X4_PRECISION.HPP
C:\VCPKG\INSTALLED\X64-WINDOWS\INCLUDE\GLM\DETAIL\FUNC_MATRIX.INL
C:\VCPKG\INSTALLED\X64-WINDOWS\INCLUDE\GLM\GEOMETRIC.HPP
C:\VCPKG\INSTALLED\X64-WINDOWS\INCLUDE\GLM\DETAIL\FUNC_GEOMETRIC.INL
C:\VCPKG\INSTALLED\X64-WINDOWS\INCLUDE\GLM\EXPONENTIAL.HPP
C:\VCPKG\INSTALLED\X64-WINDOWS\INCLUDE\GLM\DETAIL\TYPE_VEC1.HPP
C:\VCPKG\INSTALLED\X64-WINDOWS\INCLUDE\GLM\DETAIL\TYPE_VEC1.INL
C:\VCPKG\INSTALLED\X64-WINDOWS\INCLUDE\GLM\DETAIL\FUNC_EXPONENTIAL.INL
C:\VCPKG\INSTALLED\X64-WINDOWS\INCLUDE\GLM\VECTOR_RELATIONAL.HPP
C:\VCPKG\INSTALLED\X64-WINDOWS\INCLUDE\GLM\DETAIL\FUNC_VECTOR_RELATIONAL.INL
C:\VCPKG\INSTALLED\X64-WINDOWS\INCLUDE\GLM\DETAIL\_VECTORIZE.HPP
C:\VCPKG\INSTALLED\X64-WINDOWS\INCLUDE\GLM\COMMON.HPP
C:\VCPKG\INSTALLED\X64-WINDOWS\INCLUDE\GLM\DETAIL\FUNC_COMMON.INL
C:\VCPKG\INSTALLED\X64-WINDOWS\INCLUDE\GLM\DETAIL\COMPUTE_COMMON.HPP
C:\VCPKG\INSTALLED\X64-WINDOWS\INCLUDE\GLM\EXT\MATRIX_DOUBLE2X2_PRECISION.HPP
C:\VCPKG\INSTALLED\X64-WINDOWS\INCLUDE\GLM\EXT\MATRIX_FLOAT2X2.HPP
C:\VCPKG\INSTALLED\X64-WINDOWS\INCLUDE\GLM\EXT\MATRIX_FLOAT2X2_PRECISION.HPP
C:\VCPKG\INSTALLED\X64-WINDOWS\INCLUDE\GLM\TRIGONOMETRIC.HPP
C:\VCPKG\INSTALLED\X64-WINDOWS\INCLUDE\GLM\DETAIL\FUNC_TRIGONOMETRIC.INL
C:\VCPKG\INSTALLED\X64-WINDOWS\INCLUDE\GLM\PACKING.HPP
C:\VCPKG\INSTALLED\X64-WINDOWS\INCLUDE\GLM\DETAIL\FUNC_PACKING.INL
C:\VCPKG\INSTALLED\X64-WINDOWS\INCLUDE\GLM\DETAIL\TYPE_HALF.HPP
C:\VCPKG\INSTALLED\X64-WINDOWS\INCLUDE\GLM\DETAIL\TYPE_HALF.INL
C:\VCPKG\INSTALLED\X64-WINDOWS\INCLUDE\GLM\INTEGER.HPP
C:\VCPKG\INSTALLED\X64-WINDOWS\INCLUDE\GLM\DETAIL\FUNC_INTEGER.INL
C:\PROGRAM FILES\MICROSOFT VISUAL STUDIO\2022\COMMUNITY\VC\TOOLS\MSVC\14.33.31629\INCLUDE\INTRIN.H
C:\PROGRAM FILES\MICROSOFT VISUAL STUDIO\2022\COMMUNITY\VC\TOOLS\MSVC\14.33.31629\INCLUDE\SETJMP.H
C:\PROGRAM FILES\MICROSOFT VISUAL STUDIO\2022\COMMUNITY\VC\TOOLS\MSVC\14.33.31629\INCLUDE\IMMINTRIN.H
C:\PROGRAM FILES\MICROSOFT VISUAL STUDIO\2022\COMMUNITY\VC\TOOLS\MSVC\14.33.31629\INCLUDE\WMMINTRIN.H
C:\PROGRAM FILES\MICROSOFT VISUAL STUDIO\2022\COMMUNITY\VC\TOOLS\MSVC\14.33.31629\INCLUDE\NMMINTRIN.H
C:\PROGRAM FILES\MICROSOFT VISUAL STUDIO\2022\COMMUNITY\VC\TOOLS\MSVC\14.33.31629\INCLUDE\SMMINTRIN.H
C:\PROGRAM FILES\MICROSOFT VISUAL STUDIO\2022\COMMUNITY\VC\TOOLS\MSVC\14.33.31629\INCLUDE\TMMINTRIN.H
C:\PROGRAM FILES\MICROSOFT VISUAL STUDIO\2022\COMMUNITY\VC\TOOLS\MSVC\14.33.31629\INCLUDE\PMMINTRIN.H
C:\PROGRAM FILES\MICROSOFT VISUAL STUDIO\2022\COMMUNITY\VC\TOOLS\MSVC\14.33.31629\INCLUDE\EMMINTRIN.H
C:\PROGRAM FILES\MICROSOFT VISUAL STUDIO\2022\COMMUNITY\VC\TOOLS\MSVC\14.33.31629\INCLUDE\XMMINTRIN.H
C:\PROGRAM FILES\MICROSOFT VISUAL STUDIO\2022\COMMUNITY\VC\TOOLS\MSVC\14.33.31629\INCLUDE\MMINTRIN.H
C:\PROGRAM FILES (X86)\WINDOWS KITS\10\INCLUDE\10.0.19041.0\UCRT\MALLOC.H
C:\PROGRAM FILES\MICROSOFT VISUAL STUDIO\2022\COMMUNITY\VC\TOOLS\MSVC\14.33.31629\INCLUDE\ZMMINTRIN.H
C:\PROGRAM FILES\MICROSOFT VISUAL STUDIO\2022\COMMUNITY\VC\TOOLS\MSVC\14.33.31629\INCLUDE\AMMINTRIN.H
C:\PROGRAM FILES\MICROSOFT VISUAL STUDIO\2022\COMMUNITY\VC\TOOLS\MSVC\14.33.31629\INCLUDE\VECTOR
C:\PROGRAM FILES\MICROSOFT VISUAL STUDIO\2022\COMMUNITY\VC\TOOLS\MSVC\14.33.31629\INCLUDE\XMEMORY
C:\PROGRAM FILES\MICROSOFT VISUAL STUDIO\2022\COMMUNITY\VC\TOOLS\MSVC\14.33.31629\INCLUDE\NEW
C:\PROGRAM FILES\MICROSOFT VISUAL STUDIO\2022\COMMUNITY\VC\TOOLS\MSVC\14.33.31629\INCLUDE\EXCEPTION
C:\PROGRAM FILES\MICROSOFT VISUAL STUDIO\2022\COMMUNITY\VC\TOOLS\MSVC\14.33.31629\INCLUDE\VCRUNTIME_EXCEPTION.H
C:\PROGRAM FILES\MICROSOFT VISUAL STUDIO\2022\COMMUNITY\VC\TOOLS\MSVC\14.33.31629\INCLUDE\EH.H
C:\PROGRAM FILES (X86)\WINDOWS KITS\10\INCLUDE\10.0.19041.0\UCRT\CORECRT_TERMINATE.H
C:\PROGRAM FILES\MICROSOFT VISUAL STUDIO\2022\COMMUNITY\VC\TOOLS\MSVC\14.33.31629\INCLUDE\XATOMIC.H
C:\PROGRAM FILES\MICROSOFT VISUAL STUDIO\2022\COMMUNITY\VC\TOOLS\MSVC\14.33.31629\INCLUDE\XUTILITY
C:\PROGRAM FILES\MICROSOFT VISUAL STUDIO\2022\COMMUNITY\VC\TOOLS\MSVC\14.33.31629\INCLUDE\CSTRING
C:\PROGRAM FILES (X86)\WINDOWS KITS\10\INCLUDE\10.0.19041.0\UCRT\STRING.H
C:\PROGRAM FILES (X86)\WINDOWS KITS\10\INCLUDE\10.0.19041.0\UCRT\CORECRT_MEMORY.H
C:\PROGRAM FILES\MICROSOFT VISUAL STUDIO\2022\COMMUNITY\VC\TOOLS\MSVC\14.33.31629\INCLUDE\UTILITY
^C:\USERS\TIAZA\DOCUMENTS\ENSG\ING3\OPENGL\PERFECTOPENGL\3-STATIC-SHAPES-USING-SHADER\3-STATIC-SHAPES-USING-SHADER\MAIN.CPP
C:\USERS\TIAZA\DOCUMENTS\ENSG\ING3\OPENGL\PERFECTOPENGL\3-STATIC-SHAPES-USING-SHADER\3-STATIC-SHAPES-USING-SHADER\OPENGLWINDOW.H
C:\VCPKG\INSTALLED\X64-WINDOWS\INCLUDE\GL\GLEW.H
C:\VCPKG\INSTALLED\X64-WINDOWS\INCLUDE\GL\GLU.H
C:\PROGRAM FILES (X86)\WINDOWS KITS\10\INCLUDE\10.0.19041.0\SHARED\WINAPIFAMILY.H
C:\PROGRAM FILES (X86)\WINDOWS KITS\10\INCLUDE\10.0.19041.0\SHARED\WINPACKAGEFAMILY.H
C:\VCPKG\INSTALLED\X64-WINDOWS\INCLUDE\GL\GL.H
C:\VCPKG\INSTALLED\X64-WINDOWS\INCLUDE\GLFW\GLFW3.H
C:\PROGRAM FILES (X86)\WINDOWS KITS\10\INCLUDE\10.0.19041.0\UCRT\STDDEF.H
C:\PROGRAM FILES (X86)\WINDOWS KITS\10\INCLUDE\10.0.19041.0\UCRT\CORECRT.H
C:\PROGRAM FILES\MICROSOFT VISUAL STUDIO\2022\COMMUNITY\VC\TOOLS\MSVC\14.33.31629\INCLUDE\VCRUNTIME.H
C:\PROGRAM FILES\MICROSOFT VISUAL STUDIO\2022\COMMUNITY\VC\TOOLS\MSVC\14.33.31629\INCLUDE\SAL.H
C:\PROGRAM FILES\MICROSOFT VISUAL STUDIO\2022\COMMUNITY\VC\TOOLS\MSVC\14.33.31629\INCLUDE\CONCURRENCYSAL.H
C:\PROGRAM FILES\MICROSOFT VISUAL STUDIO\2022\COMMUNITY\VC\TOOLS\MSVC\14.33.31629\INCLUDE\VADEFS.H
C:\PROGRAM FILES\MICROSOFT VISUAL STUDIO\2022\COMMUNITY\VC\TOOLS\MSVC\14.33.31629\INCLUDE\STDINT.H
C:\PROGRAM FILES (X86)\WINDOWS KITS\10\INCLUDE\10.0.19041.0\UCRT\STDIO.H
C:\PROGRAM FILES (X86)\WINDOWS KITS\10\INCLUDE\10.0.19041.0\UCRT\CORECRT_WSTDIO.H
C:\PROGRAM FILES (X86)\WINDOWS KITS\10\INCLUDE\10.0.19041.0\UCRT\CORECRT_STDIO_CONFIG.H
C:\USERS\TIAZA\DOCUMENTS\ENSG\ING3\OPENGL\PERFECTOPENGL\3-STATIC-SHAPES-USING-SHADER\3-STATIC-SHAPES-USING-SHADER\SIMPLESTATICSHAPE.H
C:\VCPKG\INSTALLED\X64-WINDOWS\INCLUDE\GLM\GLM.HPP
C:\VCPKG\INSTALLED\X64-WINDOWS\INCLUDE\GLM\DETAIL\_FIXES.HPP
C:\PROGRAM FILES\MICROSOFT VISUAL STUDIO\2022\COMMUNITY\VC\TOOLS\MSVC\14.33.31629\INCLUDE\CMATH
C:\PROGRAM FILES\MICROSOFT VISUAL STUDIO\2022\COMMUNITY\VC\TOOLS\MSVC\14.33.31629\INCLUDE\YVALS.H
C:\PROGRAM FILES\MICROSOFT VISUAL STUDIO\2022\COMMUNITY\VC\TOOLS\MSVC\14.33.31629\INCLUDE\YVALS_CORE.H
C:\PROGRAM FILES\MICROSOFT VISUAL STUDIO\2022\COMMUNITY\VC\TOOLS\MSVC\14.33.31629\INCLUDE\XKEYCHECK.H
C:\PROGRAM FILES (X86)\WINDOWS KITS\10\INCLUDE\10.0.19041.0\UCRT\CRTDBG.H
C:\PROGRAM FILES\MICROSOFT VISUAL STUDIO\2022\COMMUNITY\VC\TOOLS\MSVC\14.33.31629\INCLUDE\VCRUNTIME_NEW_DEBUG.H
C:\PROGRAM FILES\MICROSOFT VISUAL STUDIO\2022\COMMUNITY\VC\TOOLS\MSVC\14.33.31629\INCLUDE\VCRUNTIME_NEW.H
C:\PROGRAM FILES\MICROSOFT VISUAL STUDIO\2022\COMMUNITY\VC\TOOLS\MSVC\14.33.31629\INCLUDE\CRTDEFS.H
C:\PROGRAM FILES\MICROSOFT VISUAL STUDIO\2022\COMMUNITY\VC\TOOLS\MSVC\14.33.31629\INCLUDE\USE_ANSI.H
C:\PROGRAM FILES\MICROSOFT VISUAL STUDIO\2022\COMMUNITY\VC\TOOLS\MSVC\14.33.31629\INCLUDE\CSTDLIB
C:\PROGRAM FILES (X86)\WINDOWS KITS\10\INCLUDE\10.0.19041.0\UCRT\MATH.H
C:\PROGRAM FILES (X86)\WINDOWS KITS\10\INCLUDE\10.0.19041.0\UCRT\CORECRT_MATH.H
C:\PROGRAM FILES (X86)\WINDOWS KITS\10\INCLUDE\10.0.19041.0\UCRT\STDLIB.H
C:\PROGRAM FILES (X86)\WINDOWS KITS\10\INCLUDE\10.0.19041.0\UCRT\CORECRT_MALLOC.H
C:\PROGRAM FILES (X86)\WINDOWS KITS\10\INCLUDE\10.0.19041.0\UCRT\CORECRT_SEARCH.H
C:\PROGRAM FILES (X86)\WINDOWS KITS\10\INCLUDE\10.0.19041.0\UCRT\CORECRT_WSTDLIB.H
C:\PROGRAM FILES\MICROSOFT VISUAL STUDIO\2022\COMMUNITY\VC\TOOLS\MSVC\14.33.31629\INCLUDE\LIMITS.H
C:\PROGRAM FILES\MICROSOFT VISUAL STUDIO\2022\COMMUNITY\VC\TOOLS\MSVC\14.33.31629\INCLUDE\XTR1COMMON
C:\PROGRAM FILES\MICROSOFT VISUAL STUDIO\2022\COMMUNITY\VC\TOOLS\MSVC\14.33.31629\INCLUDE\INTRIN0.H
C:\PROGRAM FILES\MICROSOFT VISUAL STUDIO\2022\COMMUNITY\VC\TOOLS\MSVC\14.33.31629\INCLUDE\INTRIN0.INL.H
C:\VCPKG\INSTALLED\X64-WINDOWS\INCLUDE\GLM\DETAIL\SETUP.HPP
C:\PROGRAM FILES\MICROSOFT VISUAL STUDIO\2022\COMMUNITY\VC\TOOLS\MSVC\14.33.31629\INCLUDE\CASSERT
C:\PROGRAM FILES (X86)\WINDOWS KITS\10\INCLUDE\10.0.19041.0\UCRT\ASSERT.H
C:\PROGRAM FILES\MICROSOFT VISUAL STUDIO\2022\COMMUNITY\VC\TOOLS\MSVC\14.33.31629\INCLUDE\CSTDDEF
C:\VCPKG\INSTALLED\X64-WINDOWS\INCLUDE\GLM\SIMD\PLATFORM.H
C:\PROGRAM FILES\MICROSOFT VISUAL STUDIO\2022\COMMUNITY\VC\TOOLS\MSVC\14.33.31629\INCLUDE\CSTDINT
C:\PROGRAM FILES\MICROSOFT VISUAL STUDIO\2022\COMMUNITY\VC\TOOLS\MSVC\14.33.31629\INCLUDE\TYPE_TRAITS
C:\PROGRAM FILES\MICROSOFT VISUAL STUDIO\2022\COMMUNITY\VC\TOOLS\MSVC\14.33.31629\INCLUDE\XSTDDEF
C:\PROGRAM FILES\MICROSOFT VISUAL STUDIO\2022\COMMUNITY\VC\TOOLS\MSVC\14.33.31629\INCLUDE\INITIALIZER_LIST
C:\PROGRAM FILES\MICROSOFT VISUAL STUDIO\2022\COMMUNITY\VC\TOOLS\MSVC\14.33.31629\INCLUDE\CLIMITS
C:\PROGRAM FILES\MICROSOFT VISUAL STUDIO\2022\COMMUNITY\VC\TOOLS\MSVC\14.33.31629\INCLUDE\CFLOAT
C:\PROGRAM FILES (X86)\WINDOWS KITS\10\INCLUDE\10.0.19041.0\UCRT\FLOAT.H
C:\PROGRAM FILES\MICROSOFT VISUAL STUDIO\2022\COMMUNITY\VC\TOOLS\MSVC\14.33.31629\INCLUDE\LIMITS
C:\PROGRAM FILES\MICROSOFT VISUAL STUDIO\2022\COMMUNITY\VC\TOOLS\MSVC\14.33.31629\INCLUDE\CWCHAR
C:\PROGRAM FILES\MICROSOFT VISUAL STUDIO\2022\COMMUNITY\VC\TOOLS\MSVC\14.33.31629\INCLUDE\CSTDIO
C:\PROGRAM FILES (X86)\WINDOWS KITS\10\INCLUDE\10.0.19041.0\UCRT\WCHAR.H
C:\PROGRAM FILES (X86)\WINDOWS KITS\10\INCLUDE\10.0.19041.0\UCRT\CORECRT_MEMCPY_S.H
C:\PROGRAM FILES (X86)\WINDOWS KITS\10\INCLUDE\10.0.19041.0\UCRT\ERRNO.H
C:\PROGRAM FILES\MICROSOFT VISUAL STUDIO\2022\COMMUNITY\VC\TOOLS\MSVC\14.33.31629\INCLUDE\VCRUNTIME_STRING.H
C:\PROGRAM FILES (X86)\WINDOWS KITS\10\INCLUDE\10.0.19041.0\UCRT\CORECRT_WCONIO.H
C:\PROGRAM FILES (X86)\WINDOWS KITS\10\INCLUDE\10.0.19041.0\UCRT\CORECRT_WCTYPE.H
C:\PROGRAM FILES (X86)\WINDOWS KITS\10\INCLUDE\10.0.19041.0\UCRT\CORECRT_WDIRECT.H
C:\PROGRAM FILES (X86)\WINDOWS KITS\10\INCLUDE\10.0.19041.0\UCRT\CORECRT_WIO.H
C:\PROGRAM FILES (X86)\WINDOWS KITS\10\INCLUDE\10.0.19041.0\UCRT\CORECRT_SHARE.H
C:\PROGRAM FILES (X86)\WINDOWS KITS\10\INCLUDE\10.0.19041.0\UCRT\CORECRT_WPROCESS.H
C:\PROGRAM FILES (X86)\WINDOWS KITS\10\INCLUDE\10.0.19041.0\UCRT\CORECRT_WSTRING.H
C:\PROGRAM FILES (X86)\WINDOWS KITS\10\INCLUDE\10.0.19041.0\UCRT\CORECRT_WTIME.H
C:\PROGRAM FILES (X86)\WINDOWS KITS\10\INCLUDE\10.0.19041.0\UCRT\SYS\STAT.H
C:\PROGRAM FILES (X86)\WINDOWS KITS\10\INCLUDE\10.0.19041.0\UCRT\SYS\TYPES.H
C:\PROGRAM FILES\MICROSOFT VISUAL STUDIO\2022\COMMUNITY\VC\TOOLS\MSVC\14.33.31629\INCLUDE\ISA_AVAILABILITY.H
C:\VCPKG\INSTALLED\X64-WINDOWS\INCLUDE\GLM\FWD.HPP
C:\VCPKG\INSTALLED\X64-WINDOWS\INCLUDE\GLM\DETAIL\QUALIFIER.HPP
C:\VCPKG\INSTALLED\X64-WINDOWS\INCLUDE\GLM\VEC2.HPP
C:\VCPKG\INSTALLED\X64-WINDOWS\INCLUDE\GLM\EXT\VECTOR_BOOL2.HPP
C:\VCPKG\INSTALLED\X64-WINDOWS\INCLUDE\GLM\DETAIL\TYPE_VEC2.HPP
C:\VCPKG\INSTALLED\X64-WINDOWS\INCLUDE\GLM\DETAIL\TYPE_VEC2.INL
C:\VCPKG\INSTALLED\X64-WINDOWS\INCLUDE\GLM\DETAIL\COMPUTE_VECTOR_RELATIONAL.HPP
C:\VCPKG\INSTALLED\X64-WINDOWS\INCLUDE\GLM\EXT\VECTOR_BOOL2_PRECISION.HPP
C:\VCPKG\INSTALLED\X64-WINDOWS\INCLUDE\GLM\EXT\VECTOR_FLOAT2.HPP
C:\VCPKG\INSTALLED\X64-WINDOWS\INCLUDE\GLM\EXT\VECTOR_FLOAT2_PRECISION.HPP
C:\VCPKG\INSTALLED\X64-WINDOWS\INCLUDE\GLM\EXT\VECTOR_DOUBLE2.HPP
C:\VCPKG\INSTALLED\X64-WINDOWS\INCLUDE\GLM\EXT\VECTOR_DOUBLE2_PRECISION.HPP
C:\VCPKG\INSTALLED\X64-WINDOWS\INCLUDE\GLM\EXT\VECTOR_INT2.HPP
C:\VCPKG\INSTALLED\X64-WINDOWS\INCLUDE\GLM\EXT\VECTOR_INT2_SIZED.HPP
C:\VCPKG\INSTALLED\X64-WINDOWS\INCLUDE\GLM\EXT\SCALAR_INT_SIZED.HPP
C:\VCPKG\INSTALLED\X64-WINDOWS\INCLUDE\GLM\EXT\VECTOR_UINT2.HPP
C:\VCPKG\INSTALLED\X64-WINDOWS\INCLUDE\GLM\EXT\VECTOR_UINT2_SIZED.HPP
C:\VCPKG\INSTALLED\X64-WINDOWS\INCLUDE\GLM\EXT\SCALAR_UINT_SIZED.HPP
C:\VCPKG\INSTALLED\X64-WINDOWS\INCLUDE\GLM\VEC3.HPP
C:\VCPKG\INSTALLED\X64-WINDOWS\INCLUDE\GLM\EXT\VECTOR_BOOL3.HPP
C:\VCPKG\INSTALLED\X64-WINDOWS\INCLUDE\GLM\DETAIL\TYPE_VEC3.HPP
C:\VCPKG\INSTALLED\X64-WINDOWS\INCLUDE\GLM\DETAIL\TYPE_VEC3.INL
C:\VCPKG\INSTALLED\X64-WINDOWS\INCLUDE\GLM\EXT\VECTOR_BOOL3_PRECISION.HPP
C:\VCPKG\INSTALLED\X64-WINDOWS\INCLUDE\GLM\EXT\VECTOR_FLOAT3.HPP
C:\VCPKG\INSTALLED\X64-WINDOWS\INCLUDE\GLM\EXT\VECTOR_FLOAT3_PRECISION.HPP
C:\VCPKG\INSTALLED\X64-WINDOWS\INCLUDE\GLM\EXT\VECTOR_DOUBLE3.HPP
C:\VCPKG\INSTALLED\X64-WINDOWS\INCLUDE\GLM\EXT\VECTOR_DOUBLE3_PRECISION.HPP
C:\VCPKG\INSTALLED\X64-WINDOWS\INCLUDE\GLM\EXT\VECTOR_INT3.HPP
C:\VCPKG\INSTALLED\X64-WINDOWS\INCLUDE\GLM\EXT\VECTOR_INT3_SIZED.HPP
C:\VCPKG\INSTALLED\X64-WINDOWS\INCLUDE\GLM\EXT\VECTOR_UINT3.HPP
C:\VCPKG\INSTALLED\X64-WINDOWS\INCLUDE\GLM\EXT\VECTOR_UINT3_SIZED.HPP
C:\VCPKG\INSTALLED\X64-WINDOWS\INCLUDE\GLM\VEC4.HPP
C:\VCPKG\INSTALLED\X64-WINDOWS\INCLUDE\GLM\EXT\VECTOR_BOOL4.HPP
C:\VCPKG\INSTALLED\X64-WINDOWS\INCLUDE\GLM\DETAIL\TYPE_VEC4.HPP
C:\VCPKG\INSTALLED\X64-WINDOWS\INCLUDE\GLM\DETAIL\TYPE_VEC4.INL
C:\VCPKG\INSTALLED\X64-WINDOWS\INCLUDE\GLM\EXT\VECTOR_BOOL4_PRECISION.HPP
C:\VCPKG\INSTALLED\X64-WINDOWS\INCLUDE\GLM\EXT\VECTOR_FLOAT4.HPP
C:\VCPKG\INSTALLED\X64-WINDOWS\INCLUDE\GLM\EXT\VECTOR_FLOAT4_PRECISION.HPP
C:\VCPKG\INSTALLED\X64-WINDOWS\INCLUDE\GLM\EXT\VECTOR_DOUBLE4.HPP
C:\VCPKG\INSTALLED\X64-WINDOWS\INCLUDE\GLM\EXT\VECTOR_DOUBLE4_PRECISION.HPP
C:\VCPKG\INSTALLED\X64-WINDOWS\INCLUDE\GLM\EXT\VECTOR_INT4.HPP
C:\VCPKG\INSTALLED\X64-WINDOWS\INCLUDE\GLM\EXT\VECTOR_INT4_SIZED.HPP
C:\VCPKG\INSTALLED\X64-WINDOWS\INCLUDE\GLM\EXT\VECTOR_UINT4.HPP
C:\VCPKG\INSTALLED\X64-WINDOWS\INCLUDE\GLM\EXT\VECTOR_UINT4_SIZED.HPP
C:\VCPKG\INSTALLED\X64-WINDOWS\INCLUDE\GLM\MAT2X2.HPP
C:\VCPKG\INSTALLED\X64-WINDOWS\INCLUDE\GLM\EXT\MATRIX_DOUBLE2X2.HPP
C:\VCPKG\INSTALLED\X64-WINDOWS\INCLUDE\GLM\DETAIL\TYPE_MAT2X2.HPP
C:\VCPKG\INSTALLED\X64-WINDOWS\INCLUDE\GLM\DETAIL\TYPE_MAT2X2.INL
C:\VCPKG\INSTALLED\X64-WINDOWS\INCLUDE\GLM\MATRIX.HPP
C:\VCPKG\INSTALLED\X64-WINDOWS\INCLUDE\GLM\MAT2X3.HPP
C:\VCPKG\INSTALLED\X64-WINDOWS\INCLUDE\GLM\EXT\MATRIX_DOUBLE2X3.HPP
C:\VCPKG\INSTALLED\X64-WINDOWS\INCLUDE\GLM\DETAIL\TYPE_MAT2X3.HPP
C:\VCPKG\INSTALLED\X64-WINDOWS\INCLUDE\GLM\DETAIL\TYPE_MAT2X3.INL
C:\VCPKG\INSTALLED\X64-WINDOWS\INCLUDE\GLM\EXT\MATRIX_DOUBLE2X3_PRECISION.HPP
C:\VCPKG\INSTALLED\X64-WINDOWS\INCLUDE\GLM\EXT\MATRIX_FLOAT2X3.HPP
C:\VCPKG\INSTALLED\X64-WINDOWS\INCLUDE\GLM\EXT\MATRIX_FLOAT2X3_PRECISION.HPP
C:\VCPKG\INSTALLED\X64-WINDOWS\INCLUDE\GLM\MAT2X4.HPP
C:\VCPKG\INSTALLED\X64-WINDOWS\INCLUDE\GLM\EXT\MATRIX_DOUBLE2X4.HPP
C:\VCPKG\INSTALLED\X64-WINDOWS\INCLUDE\GLM\DETAIL\TYPE_MAT2X4.HPP
C:\VCPKG\INSTALLED\X64-WINDOWS\INCLUDE\GLM\DETAIL\TYPE_MAT2X4.INL
C:\VCPKG\INSTALLED\X64-WINDOWS\INCLUDE\GLM\EXT\MATRIX_DOUBLE2X4_PRECISION.HPP
C:\VCPKG\INSTALLED\X64-WINDOWS\INCLUDE\GLM\EXT\MATRIX_FLOAT2X4.HPP
C:\VCPKG\INSTALLED\X64-WINDOWS\INCLUDE\GLM\EXT\MATRIX_FLOAT2X4_PRECISION.HPP
C:\VCPKG\INSTALLED\X64-WINDOWS\INCLUDE\GLM\MAT3X2.HPP
C:\VCPKG\INSTALLED\X64-WINDOWS\INCLUDE\GLM\EXT\MATRIX_DOUBLE3X2.HPP
C:\VCPKG\INSTALLED\X64-WINDOWS\INCLUDE\GLM\DETAIL\TYPE_MAT3X2.HPP
C:\VCPKG\INSTALLED\X64-WINDOWS\INCLUDE\GLM\DETAIL\TYPE_MAT3X2.INL
C:\VCPKG\INSTALLED\X64-WINDOWS\INCLUDE\GLM\EXT\MATRIX_DOUBLE3X2_PRECISION.HPP
C:\VCPKG\INSTALLED\X64-WINDOWS\INCLUDE\GLM\EXT\MATRIX_FLOAT3X2.HPP
C:\VCPKG\INSTALLED\X64-WINDOWS\INCLUDE\GLM\EXT\MATRIX_FLOAT3X2_PRECISION.HPP
C:\VCPKG\INSTALLED\X64-WINDOWS\INCLUDE\GLM\MAT3X3.HPP
C:\VCPKG\INSTALLED\X64-WINDOWS\INCLUDE\GLM\EXT\MATRIX_DOUBLE3X3.HPP
C:\VCPKG\INSTALLED\X64-WINDOWS\INCLUDE\GLM\DETAIL\TYPE_MAT3X3.HPP
C:\VCPKG\INSTALLED\X64-WINDOWS\INCLUDE\GLM\DETAIL\TYPE_MAT3X3.INL
C:\VCPKG\INSTALLED\X64-WINDOWS\INCLUDE\GLM\EXT\MATRIX_DOUBLE3X3_PRECISION.HPP
C:\VCPKG\INSTALLED\X64-WINDOWS\INCLUDE\GLM\EXT\MATRIX_FLOAT3X3.HPP
C:\VCPKG\INSTALLED\X64-WINDOWS\INCLUDE\GLM\EXT\MATRIX_FLOAT3X3_PRECISION.HPP
C:\VCPKG\INSTALLED\X64-WINDOWS\INCLUDE\GLM\MAT3X4.HPP
C:\VCPKG\INSTALLED\X64-WINDOWS\INCLUDE\GLM\EXT\MATRIX_DOUBLE3X4.HPP
C:\VCPKG\INSTALLED\X64-WINDOWS\INCLUDE\GLM\DETAIL\TYPE_MAT3X4.HPP
C:\VCPKG\INSTALLED\X64-WINDOWS\INCLUDE\GLM\DETAIL\TYPE_MAT3X4.INL
C:\VCPKG\INSTALLED\X64-WINDOWS\INCLUDE\GLM\EXT\MATRIX_DOUBLE3X4_PRECISION.HPP
C:\VCPKG\INSTALLED\X64-WINDOWS\INCLUDE\GLM\EXT\MATRIX_FLOAT3X4.HPP
C:\VCPKG\INSTALLED\X64-WINDOWS\INCLUDE\GLM\EXT\MATRIX_FLOAT3X4_PRECISION.HPP
C:\VCPKG\INSTALLED\X64-WINDOWS\INCLUDE\GLM\MAT4X2.HPP
C:\VCPKG\INSTALLED\X64-WINDOWS\INCLUDE\GLM\EXT\MATRIX_DOUBLE4X2.HPP
C:\VCPKG\INSTALLED\X64-WINDOWS\INCLUDE\GLM\DETAIL\TYPE_MAT4X2.HPP
C:\VCPKG\INSTALLED\X64-WINDOWS\INCLUDE\GLM\DETAIL\TYPE_MAT4X2.INL
C:\VCPKG\INSTALLED\X64-WINDOWS\INCLUDE\GLM\EXT\MATRIX_DOUBLE4X2_PRECISION.HPP
C:\VCPKG\INSTALLED\X64-WINDOWS\INCLUDE\GLM\EXT\MATRIX_FLOAT4X2.HPP
C:\VCPKG\INSTALLED\X64-WINDOWS\INCLUDE\GLM\EXT\MATRIX_FLOAT4X2_PRECISION.HPP
C:\VCPKG\INSTALLED\X64-WINDOWS\INCLUDE\GLM\MAT4X3.HPP
C:\VCPKG\INSTALLED\X64-WINDOWS\INCLUDE\GLM\EXT\MATRIX_DOUBLE4X3.HPP
C:\VCPKG\INSTALLED\X64-WINDOWS\INCLUDE\GLM\DETAIL\TYPE_MAT4X3.HPP
C:\VCPKG\INSTALLED\X64-WINDOWS\INCLUDE\GLM\DETAIL\TYPE_MAT4X3.INL
C:\VCPKG\INSTALLED\X64-WINDOWS\INCLUDE\GLM\EXT\MATRIX_DOUBLE4X3_PRECISION.HPP
C:\VCPKG\INSTALLED\X64-WINDOWS\INCLUDE\GLM\EXT\MATRIX_FLOAT4X3.HPP
C:\VCPKG\INSTALLED\X64-WINDOWS\INCLUDE\GLM\EXT\MATRIX_FLOAT4X3_PRECISION.HPP
C:\VCPKG\INSTALLED\X64-WINDOWS\INCLUDE\GLM\MAT4X4.HPP
C:\VCPKG\INSTALLED\X64-WINDOWS\INCLUDE\GLM\EXT\MATRIX_DOUBLE4X4.HPP
C:\VCPKG\INSTALLED\X64-WINDOWS\INCLUDE\GLM\DETAIL\TYPE_MAT4X4.HPP
C:\VCPKG\INSTALLED\X64-WINDOWS\INCLUDE\GLM\DETAIL\TYPE_MAT4X4.INL
C:\VCPKG\INSTALLED\X64-WINDOWS\INCLUDE\GLM\EXT\MATRIX_DOUBLE4X4_PRECISION.HPP
C:\VCPKG\INSTALLED\X64-WINDOWS\INCLUDE\GLM\EXT\MATRIX_FLOAT4X4.HPP
C:\VCPKG\INSTALLED\X64-WINDOWS\INCLUDE\GLM\EXT\MATRIX_FLOAT4X4_PRECISION.HPP
C:\VCPKG\INSTALLED\X64-WINDOWS\INCLUDE\GLM\DETAIL\FUNC_MATRIX.INL
C:\VCPKG\INSTALLED\X64-WINDOWS\INCLUDE\GLM\GEOMETRIC.HPP
C:\VCPKG\INSTALLED\X64-WINDOWS\INCLUDE\GLM\DETAIL\FUNC_GEOMETRIC.INL
C:\VCPKG\INSTALLED\X64-WINDOWS\INCLUDE\GLM\EXPONENTIAL.HPP
C:\VCPKG\INSTALLED\X64-WINDOWS\INCLUDE\GLM\DETAIL\TYPE_VEC1.HPP
C:\VCPKG\INSTALLED\X64-WINDOWS\INCLUDE\GLM\DETAIL\TYPE_VEC1.INL
C:\VCPKG\INSTALLED\X64-WINDOWS\INCLUDE\GLM\DETAIL\FUNC_EXPONENTIAL.INL
C:\VCPKG\INSTALLED\X64-WINDOWS\INCLUDE\GLM\VECTOR_RELATIONAL.HPP
C:\VCPKG\INSTALLED\X64-WINDOWS\INCLUDE\GLM\DETAIL\FUNC_VECTOR_RELATIONAL.INL
C:\VCPKG\INSTALLED\X64-WINDOWS\INCLUDE\GLM\DETAIL\_VECTORIZE.HPP
C:\VCPKG\INSTALLED\X64-WINDOWS\INCLUDE\GLM\COMMON.HPP
C:\VCPKG\INSTALLED\X64-WINDOWS\INCLUDE\GLM\DETAIL\FUNC_COMMON.INL
C:\VCPKG\INSTALLED\X64-WINDOWS\INCLUDE\GLM\DETAIL\COMPUTE_COMMON.HPP
C:\VCPKG\INSTALLED\X64-WINDOWS\INCLUDE\GLM\EXT\MATRIX_DOUBLE2X2_PRECISION.HPP
C:\VCPKG\INSTALLED\X64-WINDOWS\INCLUDE\GLM\EXT\MATRIX_FLOAT2X2.HPP
C:\VCPKG\INSTALLED\X64-WINDOWS\INCLUDE\GLM\EXT\MATRIX_FLOAT2X2_PRECISION.HPP
C:\VCPKG\INSTALLED\X64-WINDOWS\INCLUDE\GLM\TRIGONOMETRIC.HPP
C:\VCPKG\INSTALLED\X64-WINDOWS\INCLUDE\GLM\DETAIL\FUNC_TRIGONOMETRIC.INL
C:\VCPKG\INSTALLED\X64-WINDOWS\INCLUDE\GLM\PACKING.HPP
C:\VCPKG\INSTALLED\X64-WINDOWS\INCLUDE\GLM\DETAIL\FUNC_PACKING.INL
C:\VCPKG\INSTALLED\X64-WINDOWS\INCLUDE\GLM\DETAIL\TYPE_HALF.HPP
C:\VCPKG\INSTALLED\X64-WINDOWS\INCLUDE\GLM\DETAIL\TYPE_HALF.INL
C:\VCPKG\INSTALLED\X64-WINDOWS\INCLUDE\GLM\INTEGER.HPP
C:\VCPKG\INSTALLED\X64-WINDOWS\INCLUDE\GLM\DETAIL\FUNC_INTEGER.INL
C:\PROGRAM FILES\MICROSOFT VISUAL STUDIO\2022\COMMUNITY\VC\TOOLS\MSVC\14.33.31629\INCLUDE\INTRIN.H
C:\PROGRAM FILES\MICROSOFT VISUAL STUDIO\2022\COMMUNITY\VC\TOOLS\MSVC\14.33.31629\INCLUDE\SETJMP.H
C:\PROGRAM FILES\MICROSOFT VISUAL STUDIO\2022\COMMUNITY\VC\TOOLS\MSVC\14.33.31629\INCLUDE\IMMINTRIN.H
C:\PROGRAM FILES\MICROSOFT VISUAL STUDIO\2022\COMMUNITY\VC\TOOLS\MSVC\14.33.31629\INCLUDE\WMMINTRIN.H
C:\PROGRAM FILES\MICROSOFT VISUAL STUDIO\2022\COMMUNITY\VC\TOOLS\MSVC\14.33.31629\INCLUDE\NMMINTRIN.H
C:\PROGRAM FILES\MICROSOFT VISUAL STUDIO\2022\COMMUNITY\VC\TOOLS\MSVC\14.33.31629\INCLUDE\SMMINTRIN.H
C:\PROGRAM FILES\MICROSOFT VISUAL STUDIO\2022\COMMUNITY\VC\TOOLS\MSVC\14.33.31629\INCLUDE\TMMINTRIN.H
C:\PROGRAM FILES\MICROSOFT VISUAL STUDIO\2022\COMMUNITY\VC\TOOLS\MSVC\14.33.31629\INCLUDE\PMMINTRIN.H
C:\PROGRAM FILES\MICROSOFT VISUAL STUDIO\2022\COMMUNITY\VC\TOOLS\MSVC\14.33.31629\INCLUDE\EMMINTRIN.H
C:\PROGRAM FILES\MICROSOFT VISUAL STUDIO\2022\COMMUNITY\VC\TOOLS\MSVC\14.33.31629\INCLUDE\XMMINTRIN.H
C:\PROGRAM FILES\MICROSOFT VISUAL STUDIO\2022\COMMUNITY\VC\TOOLS\MSVC\14.33.31629\INCLUDE\MMINTRIN.H
C:\PROGRAM FILES (X86)\WINDOWS KITS\10\INCLUDE\10.0.19041.0\UCRT\MALLOC.H
C:\PROGRAM FILES\MICROSOFT VISUAL STUDIO\2022\COMMUNITY\VC\TOOLS\MSVC\14.33.31629\INCLUDE\ZMMINTRIN.H
C:\PROGRAM FILES\MICROSOFT VISUAL STUDIO\2022\COMMUNITY\VC\TOOLS\MSVC\14.33.31629\INCLUDE\AMMINTRIN.H
C:\PROGRAM FILES\MICROSOFT VISUAL STUDIO\2022\COMMUNITY\VC\TOOLS\MSVC\14.33.31629\INCLUDE\VECTOR
C:\PROGRAM FILES\MICROSOFT VISUAL STUDIO\2022\COMMUNITY\VC\TOOLS\MSVC\14.33.31629\INCLUDE\XMEMORY
C:\PROGRAM FILES\MICROSOFT VISUAL STUDIO\2022\COMMUNITY\VC\TOOLS\MSVC\14.33.31629\INCLUDE\NEW
C:\PROGRAM FILES\MICROSOFT VISUAL STUDIO\2022\COMMUNITY\VC\TOOLS\MSVC\14.33.31629\INCLUDE\EXCEPTION
C:\PROGRAM FILES\MICROSOFT VISUAL STUDIO\2022\COMMUNITY\VC\TOOLS\MSVC\14.33.31629\INCLUDE\VCRUNTIME_EXCEPTION.H
C:\PROGRAM FILES\MICROSOFT VISUAL STUDIO\2022\COMMUNITY\VC\TOOLS\MSVC\14.33.31629\INCLUDE\EH.H
C:\PROGRAM FILES (X86)\WINDOWS KITS\10\INCLUDE\10.0.19041.0\UCRT\CORECRT_TERMINATE.H
C:\PROGRAM FILES\MICROSOFT VISUAL STUDIO\2022\COMMUNITY\VC\TOOLS\MSVC\14.33.31629\INCLUDE\XATOMIC.H
C:\PROGRAM FILES\MICROSOFT VISUAL STUDIO\2022\COMMUNITY\VC\TOOLS\MSVC\14.33.31629\INCLUDE\XUTILITY
C:\PROGRAM FILES\MICROSOFT VISUAL STUDIO\2022\COMMUNITY\VC\TOOLS\MSVC\14.33.31629\INCLUDE\CSTRING
C:\PROGRAM FILES (X86)\WINDOWS KITS\10\INCLUDE\10.0.19041.0\UCRT\STRING.H
C:\PROGRAM FILES (X86)\WINDOWS KITS\10\INCLUDE\10.0.19041.0\UCRT\CORECRT_MEMORY.H
C:\PROGRAM FILES\MICROSOFT VISUAL STUDIO\2022\COMMUNITY\VC\TOOLS\MSVC\14.33.31629\INCLUDE\UTILITY
C:\USERS\TIAZA\DOCUMENTS\ENSG\ING3\OPENGL\PERFECTOPENGL\3-STATIC-SHAPES-USING-SHADER\3-STATIC-SHAPES-USING-SHADER\VERTEXARRAY.H
C:\USERS\TIAZA\DOCUMENTS\ENSG\ING3\OPENGL\PERFECTOPENGL\3-STATIC-SHAPES-USING-SHADER\3-STATIC-SHAPES-USING-SHADER\VERTEXBUFFER.H
C:\USERS\TIAZA\DOCUMENTS\ENSG\ING3\OPENGL\PERFECTOPENGL\3-STATIC-SHAPES-USING-SHADER\3-STATIC-SHAPES-USING-SHADER\SHADER.H
C:\PROGRAM FILES\MICROSOFT VISUAL STUDIO\2022\COMMUNITY\VC\TOOLS\MSVC\14.33.31629\INCLUDE\IOSTREAM
C:\PROGRAM FILES\MICROSOFT VISUAL STUDIO\2022\COMMUNITY\VC\TOOLS\MSVC\14.33.31629\INCLUDE\ISTREAM
C:\PROGRAM FILES\MICROSOFT VISUAL STUDIO\2022\COMMUNITY\VC\TOOLS\MSVC\14.33.31629\INCLUDE\OSTREAM
C:\PROGRAM FILES\MICROSOFT VISUAL STUDIO\2022\COMMUNITY\VC\TOOLS\MSVC\14.33.31629\INCLUDE\IOS
C:\PROGRAM FILES\MICROSOFT VISUAL STUDIO\2022\COMMUNITY\VC\TOOLS\MSVC\14.33.31629\INCLUDE\XLOCNUM
C:\PROGRAM FILES\MICROSOFT VISUAL STUDIO\2022\COMMUNITY\VC\TOOLS\MSVC\14.33.31629\INCLUDE\ITERATOR
C:\PROGRAM FILES\MICROSOFT VISUAL STUDIO\2022\COMMUNITY\VC\TOOLS\MSVC\14.33.31629\INCLUDE\IOSFWD
C:\PROGRAM FILES\MICROSOFT VISUAL STUDIO\2022\COMMUNITY\VC\TOOLS\MSVC\14.33.31629\INCLUDE\STREAMBUF
C:\PROGRAM FILES\MICROSOFT VISUAL STUDIO\2022\COMMUNITY\VC\TOOLS\MSVC\14.33.31629\INCLUDE\XIOSBASE
C:\PROGRAM FILES (X86)\WINDOWS KITS\10\INCLUDE\10.0.19041.0\UCRT\SHARE.H
C:\PROGRAM FILES\MICROSOFT VISUAL STUDIO\2022\COMMUNITY\VC\TOOLS\MSVC\14.33.31629\INCLUDE\SYSTEM_ERROR
C:\PROGRAM FILES\MICROSOFT VISUAL STUDIO\2022\COMMUNITY\VC\TOOLS\MSVC\14.33.31629\INCLUDE\__MSVC_SYSTEM_ERROR_ABI.HPP
C:\PROGRAM FILES\MICROSOFT VISUAL STUDIO\2022\COMMUNITY\VC\TOOLS\MSVC\14.33.31629\INCLUDE\CERRNO
C:\PROGRAM FILES\MICROSOFT VISUAL STUDIO\2022\COMMUNITY\VC\TOOLS\MSVC\14.33.31629\INCLUDE\STDEXCEPT
C:\PROGRAM FILES\MICROSOFT VISUAL STUDIO\2022\COMMUNITY\VC\TOOLS\MSVC\14.33.31629\INCLUDE\XSTRING
C:\PROGRAM FILES\MICROSOFT VISUAL STUDIO\2022\COMMUNITY\VC\TOOLS\MSVC\14.33.31629\INCLUDE\XCALL_ONCE.H
C:\PROGRAM FILES\MICROSOFT VISUAL STUDIO\2022\COMMUNITY\VC\TOOLS\MSVC\14.33.31629\INCLUDE\XERRC.H
C:\PROGRAM FILES\MICROSOFT VISUAL STUDIO\2022\COMMUNITY\VC\TOOLS\MSVC\14.33.31629\INCLUDE\ATOMIC
C:\PROGRAM FILES\MICROSOFT VISUAL STUDIO\2022\COMMUNITY\VC\TOOLS\MSVC\14.33.31629\INCLUDE\XTHREADS.H
C:\PROGRAM FILES\MICROSOFT VISUAL STUDIO\2022\COMMUNITY\VC\TOOLS\MSVC\14.33.31629\INCLUDE\XTIMEC.H
C:\PROGRAM FILES\MICROSOFT VISUAL STUDIO\2022\COMMUNITY\VC\TOOLS\MSVC\14.33.31629\INCLUDE\CTIME
C:\PROGRAM FILES (X86)\WINDOWS KITS\10\INCLUDE\10.0.19041.0\UCRT\TIME.H
C:\PROGRAM FILES\MICROSOFT VISUAL STUDIO\2022\COMMUNITY\VC\TOOLS\MSVC\14.33.31629\INCLUDE\XLOCALE
C:\PROGRAM FILES\MICROSOFT VISUAL STUDIO\2022\COMMUNITY\VC\TOOLS\MSVC\14.33.31629\INCLUDE\MEMORY
C:\PROGRAM FILES\MICROSOFT VISUAL STUDIO\2022\COMMUNITY\VC\TOOLS\MSVC\14.33.31629\INCLUDE\TYPEINFO
C:\PROGRAM FILES\MICROSOFT VISUAL STUDIO\2022\COMMUNITY\VC\TOOLS\MSVC\14.33.31629\INCLUDE\VCRUNTIME_TYPEINFO.H
C:\PROGRAM FILES\MICROSOFT VISUAL STUDIO\2022\COMMUNITY\VC\TOOLS\MSVC\14.33.31629\INCLUDE\XFACET
C:\PROGRAM FILES\MICROSOFT VISUAL STUDIO\2022\COMMUNITY\VC\TOOLS\MSVC\14.33.31629\INCLUDE\XLOCINFO
C:\PROGRAM FILES\MICROSOFT VISUAL STUDIO\2022\COMMUNITY\VC\TOOLS\MSVC\14.33.31629\INCLUDE\__MSVC_XLOCINFO_TYPES.HPP
C:\PROGRAM FILES\MICROSOFT VISUAL STUDIO\2022\COMMUNITY\VC\TOOLS\MSVC\14.33.31629\INCLUDE\CCTYPE
C:\PROGRAM FILES (X86)\WINDOWS KITS\10\INCLUDE\10.0.19041.0\UCRT\CTYPE.H
C:\PROGRAM FILES\MICROSOFT VISUAL STUDIO\2022\COMMUNITY\VC\TOOLS\MSVC\14.33.31629\INCLUDE\CLOCALE
C:\PROGRAM FILES (X86)\WINDOWS KITS\10\INCLUDE\10.0.19041.0\UCRT\LOCALE.H
C:\PROGRAM FILES\MICROSOFT VISUAL STUDIO\2022\COMMUNITY\VC\TOOLS\MSVC\14.33.31629\INCLUDE\FSTREAM
C:\PROGRAM FILES\MICROSOFT VISUAL STUDIO\2022\COMMUNITY\VC\TOOLS\MSVC\14.33.31629\INCLUDE\SSTREAM
C:\PROGRAM FILES\MICROSOFT VISUAL STUDIO\2022\COMMUNITY\VC\TOOLS\MSVC\14.33.31629\INCLUDE\STRING
C:\PROGRAM FILES\MICROSOFT VISUAL STUDIO\2022\COMMUNITY\VC\TOOLS\MSVC\14.33.31629\INCLUDE\UNORDERED_MAP
C:\PROGRAM FILES\MICROSOFT VISUAL STUDIO\2022\COMMUNITY\VC\TOOLS\MSVC\14.33.31629\INCLUDE\XHASH
C:\PROGRAM FILES\MICROSOFT VISUAL STUDIO\2022\COMMUNITY\VC\TOOLS\MSVC\14.33.31629\INCLUDE\LIST
C:\PROGRAM FILES\MICROSOFT VISUAL STUDIO\2022\COMMUNITY\VC\TOOLS\MSVC\14.33.31629\INCLUDE\TUPLE
C:\PROGRAM FILES\MICROSOFT VISUAL STUDIO\2022\COMMUNITY\VC\TOOLS\MSVC\14.33.31629\INCLUDE\XBIT_OPS.H
^C:\USERS\TIAZA\DOCUMENTS\ENSG\ING3\OPENGL\PERFECTOPENGL\3-STATIC-SHAPES-USING-SHADER\3-STATIC-SHAPES-USING-SHADER\VERTEXBUFFER.CPP
C:\USERS\TIAZA\DOCUMENTS\ENSG\ING3\OPENGL\PERFECTOPENGL\3-STATIC-SHAPES-USING-SHADER\3-STATIC-SHAPES-USING-SHADER\VERTEXBUFFER.H
C:\VCPKG\INSTALLED\X64-WINDOWS\INCLUDE\GL\GLEW.H
C:\VCPKG\INSTALLED\X64-WINDOWS\INCLUDE\GL\GLU.H
C:\PROGRAM FILES (X86)\WINDOWS KITS\10\INCLUDE\10.0.19041.0\SHARED\WINAPIFAMILY.H
C:\PROGRAM FILES (X86)\WINDOWS KITS\10\INCLUDE\10.0.19041.0\SHARED\WINPACKAGEFAMILY.H
C:\VCPKG\INSTALLED\X64-WINDOWS\INCLUDE\GL\GL.H
C:\VCPKG\INSTALLED\X64-WINDOWS\INCLUDE\GLFW\GLFW3.H
C:\PROGRAM FILES (X86)\WINDOWS KITS\10\INCLUDE\10.0.19041.0\UCRT\STDDEF.H
C:\PROGRAM FILES (X86)\WINDOWS KITS\10\INCLUDE\10.0.19041.0\UCRT\CORECRT.H
C:\PROGRAM FILES\MICROSOFT VISUAL STUDIO\2022\COMMUNITY\VC\TOOLS\MSVC\14.33.31629\INCLUDE\VCRUNTIME.H
C:\PROGRAM FILES\MICROSOFT VISUAL STUDIO\2022\COMMUNITY\VC\TOOLS\MSVC\14.33.31629\INCLUDE\SAL.H
C:\PROGRAM FILES\MICROSOFT VISUAL STUDIO\2022\COMMUNITY\VC\TOOLS\MSVC\14.33.31629\INCLUDE\CONCURRENCYSAL.H
C:\PROGRAM FILES\MICROSOFT VISUAL STUDIO\2022\COMMUNITY\VC\TOOLS\MSVC\14.33.31629\INCLUDE\VADEFS.H
C:\PROGRAM FILES\MICROSOFT VISUAL STUDIO\2022\COMMUNITY\VC\TOOLS\MSVC\14.33.31629\INCLUDE\STDINT.H
C:\PROGRAM FILES\MICROSOFT VISUAL STUDIO\2022\COMMUNITY\VC\TOOLS\MSVC\14.33.31629\INCLUDE\VECTOR
C:\PROGRAM FILES\MICROSOFT VISUAL STUDIO\2022\COMMUNITY\VC\TOOLS\MSVC\14.33.31629\INCLUDE\YVALS_CORE.H
C:\PROGRAM FILES\MICROSOFT VISUAL STUDIO\2022\COMMUNITY\VC\TOOLS\MSVC\14.33.31629\INCLUDE\XKEYCHECK.H
C:\PROGRAM FILES\MICROSOFT VISUAL STUDIO\2022\COMMUNITY\VC\TOOLS\MSVC\14.33.31629\INCLUDE\XMEMORY
C:\PROGRAM FILES\MICROSOFT VISUAL STUDIO\2022\COMMUNITY\VC\TOOLS\MSVC\14.33.31629\INCLUDE\CSTDINT
C:\PROGRAM FILES\MICROSOFT VISUAL STUDIO\2022\COMMUNITY\VC\TOOLS\MSVC\14.33.31629\INCLUDE\CSTDLIB
C:\PROGRAM FILES (X86)\WINDOWS KITS\10\INCLUDE\10.0.19041.0\UCRT\MATH.H
C:\PROGRAM FILES (X86)\WINDOWS KITS\10\INCLUDE\10.0.19041.0\UCRT\CORECRT_MATH.H
C:\PROGRAM FILES (X86)\WINDOWS KITS\10\INCLUDE\10.0.19041.0\UCRT\STDLIB.H
C:\PROGRAM FILES (X86)\WINDOWS KITS\10\INCLUDE\10.0.19041.0\UCRT\CORECRT_MALLOC.H
C:\PROGRAM FILES (X86)\WINDOWS KITS\10\INCLUDE\10.0.19041.0\UCRT\CORECRT_SEARCH.H
C:\PROGRAM FILES (X86)\WINDOWS KITS\10\INCLUDE\10.0.19041.0\UCRT\CORECRT_WSTDLIB.H
C:\PROGRAM FILES\MICROSOFT VISUAL STUDIO\2022\COMMUNITY\VC\TOOLS\MSVC\14.33.31629\INCLUDE\LIMITS.H
C:\PROGRAM FILES\MICROSOFT VISUAL STUDIO\2022\COMMUNITY\VC\TOOLS\MSVC\14.33.31629\INCLUDE\LIMITS
C:\PROGRAM FILES\MICROSOFT VISUAL STUDIO\2022\COMMUNITY\VC\TOOLS\MSVC\14.33.31629\INCLUDE\CFLOAT
C:\PROGRAM FILES (X86)\WINDOWS KITS\10\INCLUDE\10.0.19041.0\UCRT\FLOAT.H
C:\PROGRAM FILES\MICROSOFT VISUAL STUDIO\2022\COMMUNITY\VC\TOOLS\MSVC\14.33.31629\INCLUDE\CLIMITS
C:\PROGRAM FILES\MICROSOFT VISUAL STUDIO\2022\COMMUNITY\VC\TOOLS\MSVC\14.33.31629\INCLUDE\CWCHAR
C:\PROGRAM FILES\MICROSOFT VISUAL STUDIO\2022\COMMUNITY\VC\TOOLS\MSVC\14.33.31629\INCLUDE\CSTDIO
C:\PROGRAM FILES (X86)\WINDOWS KITS\10\INCLUDE\10.0.19041.0\UCRT\STDIO.H
C:\PROGRAM FILES (X86)\WINDOWS KITS\10\INCLUDE\10.0.19041.0\UCRT\CORECRT_WSTDIO.H
C:\PROGRAM FILES (X86)\WINDOWS KITS\10\INCLUDE\10.0.19041.0\UCRT\CORECRT_STDIO_CONFIG.H
C:\PROGRAM FILES (X86)\WINDOWS KITS\10\INCLUDE\10.0.19041.0\UCRT\WCHAR.H
C:\PROGRAM FILES (X86)\WINDOWS KITS\10\INCLUDE\10.0.19041.0\UCRT\CORECRT_MEMCPY_S.H
C:\PROGRAM FILES (X86)\WINDOWS KITS\10\INCLUDE\10.0.19041.0\UCRT\ERRNO.H
C:\PROGRAM FILES\MICROSOFT VISUAL STUDIO\2022\COMMUNITY\VC\TOOLS\MSVC\14.33.31629\INCLUDE\VCRUNTIME_STRING.H
C:\PROGRAM FILES (X86)\WINDOWS KITS\10\INCLUDE\10.0.19041.0\UCRT\CORECRT_WCONIO.H
C:\PROGRAM FILES (X86)\WINDOWS KITS\10\INCLUDE\10.0.19041.0\UCRT\CORECRT_WCTYPE.H
C:\PROGRAM FILES (X86)\WINDOWS KITS\10\INCLUDE\10.0.19041.0\UCRT\CORECRT_WDIRECT.H
C:\PROGRAM FILES (X86)\WINDOWS KITS\10\INCLUDE\10.0.19041.0\UCRT\CORECRT_WIO.H
C:\PROGRAM FILES (X86)\WINDOWS KITS\10\INCLUDE\10.0.19041.0\UCRT\CORECRT_SHARE.H
C:\PROGRAM FILES (X86)\WINDOWS KITS\10\INCLUDE\10.0.19041.0\UCRT\CORECRT_WPROCESS.H
C:\PROGRAM FILES (X86)\WINDOWS KITS\10\INCLUDE\10.0.19041.0\UCRT\CORECRT_WSTRING.H
C:\PROGRAM FILES (X86)\WINDOWS KITS\10\INCLUDE\10.0.19041.0\UCRT\CORECRT_WTIME.H
C:\PROGRAM FILES (X86)\WINDOWS KITS\10\INCLUDE\10.0.19041.0\UCRT\SYS\STAT.H
C:\PROGRAM FILES (X86)\WINDOWS KITS\10\INCLUDE\10.0.19041.0\UCRT\SYS\TYPES.H
C:\PROGRAM FILES\MICROSOFT VISUAL STUDIO\2022\COMMUNITY\VC\TOOLS\MSVC\14.33.31629\INCLUDE\INTRIN0.H
C:\PROGRAM FILES\MICROSOFT VISUAL STUDIO\2022\COMMUNITY\VC\TOOLS\MSVC\14.33.31629\INCLUDE\INTRIN0.INL.H
C:\PROGRAM FILES\MICROSOFT VISUAL STUDIO\2022\COMMUNITY\VC\TOOLS\MSVC\14.33.31629\INCLUDE\ISA_AVAILABILITY.H
C:\PROGRAM FILES\MICROSOFT VISUAL STUDIO\2022\COMMUNITY\VC\TOOLS\MSVC\14.33.31629\INCLUDE\XSTDDEF
C:\PROGRAM FILES\MICROSOFT VISUAL STUDIO\2022\COMMUNITY\VC\TOOLS\MSVC\14.33.31629\INCLUDE\CSTDDEF
C:\PROGRAM FILES\MICROSOFT VISUAL STUDIO\2022\COMMUNITY\VC\TOOLS\MSVC\14.33.31629\INCLUDE\XTR1COMMON
C:\PROGRAM FILES\MICROSOFT VISUAL STUDIO\2022\COMMUNITY\VC\TOOLS\MSVC\14.33.31629\INCLUDE\INITIALIZER_LIST
C:\PROGRAM FILES\MICROSOFT VISUAL STUDIO\2022\COMMUNITY\VC\TOOLS\MSVC\14.33.31629\INCLUDE\NEW
C:\PROGRAM FILES\MICROSOFT VISUAL STUDIO\2022\COMMUNITY\VC\TOOLS\MSVC\14.33.31629\INCLUDE\EXCEPTION
C:\PROGRAM FILES\MICROSOFT VISUAL STUDIO\2022\COMMUNITY\VC\TOOLS\MSVC\14.33.31629\INCLUDE\YVALS.H
C:\PROGRAM FILES (X86)\WINDOWS KITS\10\INCLUDE\10.0.19041.0\UCRT\CRTDBG.H
C:\PROGRAM FILES\MICROSOFT VISUAL STUDIO\2022\COMMUNITY\VC\TOOLS\MSVC\14.33.31629\INCLUDE\VCRUNTIME_NEW_DEBUG.H
C:\PROGRAM FILES\MICROSOFT VISUAL STUDIO\2022\COMMUNITY\VC\TOOLS\MSVC\14.33.31629\INCLUDE\VCRUNTIME_NEW.H
C:\PROGRAM FILES\MICROSOFT VISUAL STUDIO\2022\COMMUNITY\VC\TOOLS\MSVC\14.33.31629\INCLUDE\CRTDEFS.H
C:\PROGRAM FILES\MICROSOFT VISUAL STUDIO\2022\COMMUNITY\VC\TOOLS\MSVC\14.33.31629\INCLUDE\USE_ANSI.H
C:\PROGRAM FILES\MICROSOFT VISUAL STUDIO\2022\COMMUNITY\VC\TOOLS\MSVC\14.33.31629\INCLUDE\TYPE_TRAITS
C:\PROGRAM FILES (X86)\WINDOWS KITS\10\INCLUDE\10.0.19041.0\UCRT\MALLOC.H
C:\PROGRAM FILES\MICROSOFT VISUAL STUDIO\2022\COMMUNITY\VC\TOOLS\MSVC\14.33.31629\INCLUDE\VCRUNTIME_EXCEPTION.H
C:\PROGRAM FILES\MICROSOFT VISUAL STUDIO\2022\COMMUNITY\VC\TOOLS\MSVC\14.33.31629\INCLUDE\EH.H
C:\PROGRAM FILES (X86)\WINDOWS KITS\10\INCLUDE\10.0.19041.0\UCRT\CORECRT_TERMINATE.H
C:\PROGRAM FILES\MICROSOFT VISUAL STUDIO\2022\COMMUNITY\VC\TOOLS\MSVC\14.33.31629\INCLUDE\XATOMIC.H
C:\PROGRAM FILES\MICROSOFT VISUAL STUDIO\2022\COMMUNITY\VC\TOOLS\MSVC\14.33.31629\INCLUDE\XUTILITY
C:\PROGRAM FILES\MICROSOFT VISUAL STUDIO\2022\COMMUNITY\VC\TOOLS\MSVC\14.33.31629\INCLUDE\CSTRING
C:\PROGRAM FILES (X86)\WINDOWS KITS\10\INCLUDE\10.0.19041.0\UCRT\STRING.H
C:\PROGRAM FILES (X86)\WINDOWS KITS\10\INCLUDE\10.0.19041.0\UCRT\CORECRT_MEMORY.H
C:\PROGRAM FILES\MICROSOFT VISUAL STUDIO\2022\COMMUNITY\VC\TOOLS\MSVC\14.33.31629\INCLUDE\UTILITY
C:\VCPKG\INSTALLED\X64-WINDOWS\INCLUDE\GLM\GLM.HPP
C:\VCPKG\INSTALLED\X64-WINDOWS\INCLUDE\GLM\DETAIL\_FIXES.HPP
C:\PROGRAM FILES\MICROSOFT VISUAL STUDIO\2022\COMMUNITY\VC\TOOLS\MSVC\14.33.31629\INCLUDE\CMATH
C:\VCPKG\INSTALLED\X64-WINDOWS\INCLUDE\GLM\DETAIL\SETUP.HPP
C:\PROGRAM FILES\MICROSOFT VISUAL STUDIO\2022\COMMUNITY\VC\TOOLS\MSVC\14.33.31629\INCLUDE\CASSERT
C:\PROGRAM FILES (X86)\WINDOWS KITS\10\INCLUDE\10.0.19041.0\UCRT\ASSERT.H
C:\VCPKG\INSTALLED\X64-WINDOWS\INCLUDE\GLM\SIMD\PLATFORM.H
C:\VCPKG\INSTALLED\X64-WINDOWS\INCLUDE\GLM\FWD.HPP
C:\VCPKG\INSTALLED\X64-WINDOWS\INCLUDE\GLM\DETAIL\QUALIFIER.HPP
C:\VCPKG\INSTALLED\X64-WINDOWS\INCLUDE\GLM\VEC2.HPP
C:\VCPKG\INSTALLED\X64-WINDOWS\INCLUDE\GLM\EXT\VECTOR_BOOL2.HPP
C:\VCPKG\INSTALLED\X64-WINDOWS\INCLUDE\GLM\DETAIL\TYPE_VEC2.HPP
C:\VCPKG\INSTALLED\X64-WINDOWS\INCLUDE\GLM\DETAIL\TYPE_VEC2.INL
C:\VCPKG\INSTALLED\X64-WINDOWS\INCLUDE\GLM\DETAIL\COMPUTE_VECTOR_RELATIONAL.HPP
C:\VCPKG\INSTALLED\X64-WINDOWS\INCLUDE\GLM\EXT\VECTOR_BOOL2_PRECISION.HPP
C:\VCPKG\INSTALLED\X64-WINDOWS\INCLUDE\GLM\EXT\VECTOR_FLOAT2.HPP
C:\VCPKG\INSTALLED\X64-WINDOWS\INCLUDE\GLM\EXT\VECTOR_FLOAT2_PRECISION.HPP
C:\VCPKG\INSTALLED\X64-WINDOWS\INCLUDE\GLM\EXT\VECTOR_DOUBLE2.HPP
C:\VCPKG\INSTALLED\X64-WINDOWS\INCLUDE\GLM\EXT\VECTOR_DOUBLE2_PRECISION.HPP
C:\VCPKG\INSTALLED\X64-WINDOWS\INCLUDE\GLM\EXT\VECTOR_INT2.HPP
C:\VCPKG\INSTALLED\X64-WINDOWS\INCLUDE\GLM\EXT\VECTOR_INT2_SIZED.HPP
C:\VCPKG\INSTALLED\X64-WINDOWS\INCLUDE\GLM\EXT\SCALAR_INT_SIZED.HPP
C:\VCPKG\INSTALLED\X64-WINDOWS\INCLUDE\GLM\EXT\VECTOR_UINT2.HPP
C:\VCPKG\INSTALLED\X64-WINDOWS\INCLUDE\GLM\EXT\VECTOR_UINT2_SIZED.HPP
C:\VCPKG\INSTALLED\X64-WINDOWS\INCLUDE\GLM\EXT\SCALAR_UINT_SIZED.HPP
C:\VCPKG\INSTALLED\X64-WINDOWS\INCLUDE\GLM\VEC3.HPP
C:\VCPKG\INSTALLED\X64-WINDOWS\INCLUDE\GLM\EXT\VECTOR_BOOL3.HPP
C:\VCPKG\INSTALLED\X64-WINDOWS\INCLUDE\GLM\DETAIL\TYPE_VEC3.HPP
C:\VCPKG\INSTALLED\X64-WINDOWS\INCLUDE\GLM\DETAIL\TYPE_VEC3.INL
C:\VCPKG\INSTALLED\X64-WINDOWS\INCLUDE\GLM\EXT\VECTOR_BOOL3_PRECISION.HPP
C:\VCPKG\INSTALLED\X64-WINDOWS\INCLUDE\GLM\EXT\VECTOR_FLOAT3.HPP
C:\VCPKG\INSTALLED\X64-WINDOWS\INCLUDE\GLM\EXT\VECTOR_FLOAT3_PRECISION.HPP
C:\VCPKG\INSTALLED\X64-WINDOWS\INCLUDE\GLM\EXT\VECTOR_DOUBLE3.HPP
C:\VCPKG\INSTALLED\X64-WINDOWS\INCLUDE\GLM\EXT\VECTOR_DOUBLE3_PRECISION.HPP
C:\VCPKG\INSTALLED\X64-WINDOWS\INCLUDE\GLM\EXT\VECTOR_INT3.HPP
C:\VCPKG\INSTALLED\X64-WINDOWS\INCLUDE\GLM\EXT\VECTOR_INT3_SIZED.HPP
C:\VCPKG\INSTALLED\X64-WINDOWS\INCLUDE\GLM\EXT\VECTOR_UINT3.HPP
C:\VCPKG\INSTALLED\X64-WINDOWS\INCLUDE\GLM\EXT\VECTOR_UINT3_SIZED.HPP
C:\VCPKG\INSTALLED\X64-WINDOWS\INCLUDE\GLM\VEC4.HPP
C:\VCPKG\INSTALLED\X64-WINDOWS\INCLUDE\GLM\EXT\VECTOR_BOOL4.HPP
C:\VCPKG\INSTALLED\X64-WINDOWS\INCLUDE\GLM\DETAIL\TYPE_VEC4.HPP
C:\VCPKG\INSTALLED\X64-WINDOWS\INCLUDE\GLM\DETAIL\TYPE_VEC4.INL
C:\VCPKG\INSTALLED\X64-WINDOWS\INCLUDE\GLM\EXT\VECTOR_BOOL4_PRECISION.HPP
C:\VCPKG\INSTALLED\X64-WINDOWS\INCLUDE\GLM\EXT\VECTOR_FLOAT4.HPP
C:\VCPKG\INSTALLED\X64-WINDOWS\INCLUDE\GLM\EXT\VECTOR_FLOAT4_PRECISION.HPP
C:\VCPKG\INSTALLED\X64-WINDOWS\INCLUDE\GLM\EXT\VECTOR_DOUBLE4.HPP
C:\VCPKG\INSTALLED\X64-WINDOWS\INCLUDE\GLM\EXT\VECTOR_DOUBLE4_PRECISION.HPP
C:\VCPKG\INSTALLED\X64-WINDOWS\INCLUDE\GLM\EXT\VECTOR_INT4.HPP
C:\VCPKG\INSTALLED\X64-WINDOWS\INCLUDE\GLM\EXT\VECTOR_INT4_SIZED.HPP
C:\VCPKG\INSTALLED\X64-WINDOWS\INCLUDE\GLM\EXT\VECTOR_UINT4.HPP
C:\VCPKG\INSTALLED\X64-WINDOWS\INCLUDE\GLM\EXT\VECTOR_UINT4_SIZED.HPP
C:\VCPKG\INSTALLED\X64-WINDOWS\INCLUDE\GLM\MAT2X2.HPP
C:\VCPKG\INSTALLED\X64-WINDOWS\INCLUDE\GLM\EXT\MATRIX_DOUBLE2X2.HPP
C:\VCPKG\INSTALLED\X64-WINDOWS\INCLUDE\GLM\DETAIL\TYPE_MAT2X2.HPP
C:\VCPKG\INSTALLED\X64-WINDOWS\INCLUDE\GLM\DETAIL\TYPE_MAT2X2.INL
C:\VCPKG\INSTALLED\X64-WINDOWS\INCLUDE\GLM\MATRIX.HPP
C:\VCPKG\INSTALLED\X64-WINDOWS\INCLUDE\GLM\MAT2X3.HPP
C:\VCPKG\INSTALLED\X64-WINDOWS\INCLUDE\GLM\EXT\MATRIX_DOUBLE2X3.HPP
C:\VCPKG\INSTALLED\X64-WINDOWS\INCLUDE\GLM\DETAIL\TYPE_MAT2X3.HPP
C:\VCPKG\INSTALLED\X64-WINDOWS\INCLUDE\GLM\DETAIL\TYPE_MAT2X3.INL
C:\VCPKG\INSTALLED\X64-WINDOWS\INCLUDE\GLM\EXT\MATRIX_DOUBLE2X3_PRECISION.HPP
C:\VCPKG\INSTALLED\X64-WINDOWS\INCLUDE\GLM\EXT\MATRIX_FLOAT2X3.HPP
C:\VCPKG\INSTALLED\X64-WINDOWS\INCLUDE\GLM\EXT\MATRIX_FLOAT2X3_PRECISION.HPP
C:\VCPKG\INSTALLED\X64-WINDOWS\INCLUDE\GLM\MAT2X4.HPP
C:\VCPKG\INSTALLED\X64-WINDOWS\INCLUDE\GLM\EXT\MATRIX_DOUBLE2X4.HPP
C:\VCPKG\INSTALLED\X64-WINDOWS\INCLUDE\GLM\DETAIL\TYPE_MAT2X4.HPP
C:\VCPKG\INSTALLED\X64-WINDOWS\INCLUDE\GLM\DETAIL\TYPE_MAT2X4.INL
C:\VCPKG\INSTALLED\X64-WINDOWS\INCLUDE\GLM\EXT\MATRIX_DOUBLE2X4_PRECISION.HPP
C:\VCPKG\INSTALLED\X64-WINDOWS\INCLUDE\GLM\EXT\MATRIX_FLOAT2X4.HPP
C:\VCPKG\INSTALLED\X64-WINDOWS\INCLUDE\GLM\EXT\MATRIX_FLOAT2X4_PRECISION.HPP
C:\VCPKG\INSTALLED\X64-WINDOWS\INCLUDE\GLM\MAT3X2.HPP
C:\VCPKG\INSTALLED\X64-WINDOWS\INCLUDE\GLM\EXT\MATRIX_DOUBLE3X2.HPP
C:\VCPKG\INSTALLED\X64-WINDOWS\INCLUDE\GLM\DETAIL\TYPE_MAT3X2.HPP
C:\VCPKG\INSTALLED\X64-WINDOWS\INCLUDE\GLM\DETAIL\TYPE_MAT3X2.INL
C:\VCPKG\INSTALLED\X64-WINDOWS\INCLUDE\GLM\EXT\MATRIX_DOUBLE3X2_PRECISION.HPP
C:\VCPKG\INSTALLED\X64-WINDOWS\INCLUDE\GLM\EXT\MATRIX_FLOAT3X2.HPP
C:\VCPKG\INSTALLED\X64-WINDOWS\INCLUDE\GLM\EXT\MATRIX_FLOAT3X2_PRECISION.HPP
C:\VCPKG\INSTALLED\X64-WINDOWS\INCLUDE\GLM\MAT3X3.HPP
C:\VCPKG\INSTALLED\X64-WINDOWS\INCLUDE\GLM\EXT\MATRIX_DOUBLE3X3.HPP
C:\VCPKG\INSTALLED\X64-WINDOWS\INCLUDE\GLM\DETAIL\TYPE_MAT3X3.HPP
C:\VCPKG\INSTALLED\X64-WINDOWS\INCLUDE\GLM\DETAIL\TYPE_MAT3X3.INL
C:\VCPKG\INSTALLED\X64-WINDOWS\INCLUDE\GLM\EXT\MATRIX_DOUBLE3X3_PRECISION.HPP
C:\VCPKG\INSTALLED\X64-WINDOWS\INCLUDE\GLM\EXT\MATRIX_FLOAT3X3.HPP
C:\VCPKG\INSTALLED\X64-WINDOWS\INCLUDE\GLM\EXT\MATRIX_FLOAT3X3_PRECISION.HPP
C:\VCPKG\INSTALLED\X64-WINDOWS\INCLUDE\GLM\MAT3X4.HPP
C:\VCPKG\INSTALLED\X64-WINDOWS\INCLUDE\GLM\EXT\MATRIX_DOUBLE3X4.HPP
C:\VCPKG\INSTALLED\X64-WINDOWS\INCLUDE\GLM\DETAIL\TYPE_MAT3X4.HPP
C:\VCPKG\INSTALLED\X64-WINDOWS\INCLUDE\GLM\DETAIL\TYPE_MAT3X4.INL
C:\VCPKG\INSTALLED\X64-WINDOWS\INCLUDE\GLM\EXT\MATRIX_DOUBLE3X4_PRECISION.HPP
C:\VCPKG\INSTALLED\X64-WINDOWS\INCLUDE\GLM\EXT\MATRIX_FLOAT3X4.HPP
C:\VCPKG\INSTALLED\X64-WINDOWS\INCLUDE\GLM\EXT\MATRIX_FLOAT3X4_PRECISION.HPP
C:\VCPKG\INSTALLED\X64-WINDOWS\INCLUDE\GLM\MAT4X2.HPP
C:\VCPKG\INSTALLED\X64-WINDOWS\INCLUDE\GLM\EXT\MATRIX_DOUBLE4X2.HPP
C:\VCPKG\INSTALLED\X64-WINDOWS\INCLUDE\GLM\DETAIL\TYPE_MAT4X2.HPP
C:\VCPKG\INSTALLED\X64-WINDOWS\INCLUDE\GLM\DETAIL\TYPE_MAT4X2.INL
C:\VCPKG\INSTALLED\X64-WINDOWS\INCLUDE\GLM\EXT\MATRIX_DOUBLE4X2_PRECISION.HPP
C:\VCPKG\INSTALLED\X64-WINDOWS\INCLUDE\GLM\EXT\MATRIX_FLOAT4X2.HPP
C:\VCPKG\INSTALLED\X64-WINDOWS\INCLUDE\GLM\EXT\MATRIX_FLOAT4X2_PRECISION.HPP
C:\VCPKG\INSTALLED\X64-WINDOWS\INCLUDE\GLM\MAT4X3.HPP
C:\VCPKG\INSTALLED\X64-WINDOWS\INCLUDE\GLM\EXT\MATRIX_DOUBLE4X3.HPP
C:\VCPKG\INSTALLED\X64-WINDOWS\INCLUDE\GLM\DETAIL\TYPE_MAT4X3.HPP
C:\VCPKG\INSTALLED\X64-WINDOWS\INCLUDE\GLM\DETAIL\TYPE_MAT4X3.INL
C:\VCPKG\INSTALLED\X64-WINDOWS\INCLUDE\GLM\EXT\MATRIX_DOUBLE4X3_PRECISION.HPP
C:\VCPKG\INSTALLED\X64-WINDOWS\INCLUDE\GLM\EXT\MATRIX_FLOAT4X3.HPP
C:\VCPKG\INSTALLED\X64-WINDOWS\INCLUDE\GLM\EXT\MATRIX_FLOAT4X3_PRECISION.HPP
C:\VCPKG\INSTALLED\X64-WINDOWS\INCLUDE\GLM\MAT4X4.HPP
C:\VCPKG\INSTALLED\X64-WINDOWS\INCLUDE\GLM\EXT\MATRIX_DOUBLE4X4.HPP
C:\VCPKG\INSTALLED\X64-WINDOWS\INCLUDE\GLM\DETAIL\TYPE_MAT4X4.HPP
C:\VCPKG\INSTALLED\X64-WINDOWS\INCLUDE\GLM\DETAIL\TYPE_MAT4X4.INL
C:\VCPKG\INSTALLED\X64-WINDOWS\INCLUDE\GLM\EXT\MATRIX_DOUBLE4X4_PRECISION.HPP
C:\VCPKG\INSTALLED\X64-WINDOWS\INCLUDE\GLM\EXT\MATRIX_FLOAT4X4.HPP
C:\VCPKG\INSTALLED\X64-WINDOWS\INCLUDE\GLM\EXT\MATRIX_FLOAT4X4_PRECISION.HPP
C:\VCPKG\INSTALLED\X64-WINDOWS\INCLUDE\GLM\DETAIL\FUNC_MATRIX.INL
C:\VCPKG\INSTALLED\X64-WINDOWS\INCLUDE\GLM\GEOMETRIC.HPP
C:\VCPKG\INSTALLED\X64-WINDOWS\INCLUDE\GLM\DETAIL\FUNC_GEOMETRIC.INL
C:\VCPKG\INSTALLED\X64-WINDOWS\INCLUDE\GLM\EXPONENTIAL.HPP
C:\VCPKG\INSTALLED\X64-WINDOWS\INCLUDE\GLM\DETAIL\TYPE_VEC1.HPP
C:\VCPKG\INSTALLED\X64-WINDOWS\INCLUDE\GLM\DETAIL\TYPE_VEC1.INL
C:\VCPKG\INSTALLED\X64-WINDOWS\INCLUDE\GLM\DETAIL\FUNC_EXPONENTIAL.INL
C:\VCPKG\INSTALLED\X64-WINDOWS\INCLUDE\GLM\VECTOR_RELATIONAL.HPP
C:\VCPKG\INSTALLED\X64-WINDOWS\INCLUDE\GLM\DETAIL\FUNC_VECTOR_RELATIONAL.INL
C:\VCPKG\INSTALLED\X64-WINDOWS\INCLUDE\GLM\DETAIL\_VECTORIZE.HPP
C:\VCPKG\INSTALLED\X64-WINDOWS\INCLUDE\GLM\COMMON.HPP
C:\VCPKG\INSTALLED\X64-WINDOWS\INCLUDE\GLM\DETAIL\FUNC_COMMON.INL
C:\VCPKG\INSTALLED\X64-WINDOWS\INCLUDE\GLM\DETAIL\COMPUTE_COMMON.HPP
C:\VCPKG\INSTALLED\X64-WINDOWS\INCLUDE\GLM\EXT\MATRIX_DOUBLE2X2_PRECISION.HPP
C:\VCPKG\INSTALLED\X64-WINDOWS\INCLUDE\GLM\EXT\MATRIX_FLOAT2X2.HPP
C:\VCPKG\INSTALLED\X64-WINDOWS\INCLUDE\GLM\EXT\MATRIX_FLOAT2X2_PRECISION.HPP
C:\VCPKG\INSTALLED\X64-WINDOWS\INCLUDE\GLM\TRIGONOMETRIC.HPP
C:\VCPKG\INSTALLED\X64-WINDOWS\INCLUDE\GLM\DETAIL\FUNC_TRIGONOMETRIC.INL
C:\VCPKG\INSTALLED\X64-WINDOWS\INCLUDE\GLM\PACKING.HPP
C:\VCPKG\INSTALLED\X64-WINDOWS\INCLUDE\GLM\DETAIL\FUNC_PACKING.INL
C:\VCPKG\INSTALLED\X64-WINDOWS\INCLUDE\GLM\DETAIL\TYPE_HALF.HPP
C:\VCPKG\INSTALLED\X64-WINDOWS\INCLUDE\GLM\DETAIL\TYPE_HALF.INL
C:\VCPKG\INSTALLED\X64-WINDOWS\INCLUDE\GLM\INTEGER.HPP
C:\VCPKG\INSTALLED\X64-WINDOWS\INCLUDE\GLM\DETAIL\FUNC_INTEGER.INL
C:\PROGRAM FILES\MICROSOFT VISUAL STUDIO\2022\COMMUNITY\VC\TOOLS\MSVC\14.33.31629\INCLUDE\INTRIN.H
C:\PROGRAM FILES\MICROSOFT VISUAL STUDIO\2022\COMMUNITY\VC\TOOLS\MSVC\14.33.31629\INCLUDE\SETJMP.H
C:\PROGRAM FILES\MICROSOFT VISUAL STUDIO\2022\COMMUNITY\VC\TOOLS\MSVC\14.33.31629\INCLUDE\IMMINTRIN.H
C:\PROGRAM FILES\MICROSOFT VISUAL STUDIO\2022\COMMUNITY\VC\TOOLS\MSVC\14.33.31629\INCLUDE\WMMINTRIN.H
C:\PROGRAM FILES\MICROSOFT VISUAL STUDIO\2022\COMMUNITY\VC\TOOLS\MSVC\14.33.31629\INCLUDE\NMMINTRIN.H
C:\PROGRAM FILES\MICROSOFT VISUAL STUDIO\2022\COMMUNITY\VC\TOOLS\MSVC\14.33.31629\INCLUDE\SMMINTRIN.H
C:\PROGRAM FILES\MICROSOFT VISUAL STUDIO\2022\COMMUNITY\VC\TOOLS\MSVC\14.33.31629\INCLUDE\TMMINTRIN.H
C:\PROGRAM FILES\MICROSOFT VISUAL STUDIO\2022\COMMUNITY\VC\TOOLS\MSVC\14.33.31629\INCLUDE\PMMINTRIN.H
C:\PROGRAM FILES\MICROSOFT VISUAL STUDIO\2022\COMMUNITY\VC\TOOLS\MSVC\14.33.31629\INCLUDE\EMMINTRIN.H
C:\PROGRAM FILES\MICROSOFT VISUAL STUDIO\2022\COMMUNITY\VC\TOOLS\MSVC\14.33.31629\INCLUDE\XMMINTRIN.H
C:\PROGRAM FILES\MICROSOFT VISUAL STUDIO\2022\COMMUNITY\VC\TOOLS\MSVC\14.33.31629\INCLUDE\MMINTRIN.H
C:\PROGRAM FILES\MICROSOFT VISUAL STUDIO\2022\COMMUNITY\VC\TOOLS\MSVC\14.33.31629\INCLUDE\ZMMINTRIN.H
C:\PROGRAM FILES\MICROSOFT VISUAL STUDIO\2022\COMMUNITY\VC\TOOLS\MSVC\14.33.31629\INCLUDE\AMMINTRIN.H
